EESchema Schematic File Version 2
LIBS:power
LIBS:device
LIBS:transistors
LIBS:conn
LIBS:linear
LIBS:regul
LIBS:74xx
LIBS:cmos4000
LIBS:adc-dac
LIBS:memory
LIBS:xilinx
LIBS:microcontrollers
LIBS:dsp
LIBS:microchip
LIBS:analog_switches
LIBS:motorola
LIBS:texas
LIBS:intel
LIBS:audio
LIBS:interface
LIBS:digital-audio
LIBS:philips
LIBS:display
LIBS:cypress
LIBS:siliconi
LIBS:opto
LIBS:atmel
LIBS:contrib
LIBS:valves
LIBS:pedals3_1-cache
EELAYER 25 0
EELAYER END
$Descr A4 11693 8268
encoding utf-8
Sheet 1 2
Title ""
Date ""
Rev ""
Comp ""
Comment1 ""
Comment2 ""
Comment3 ""
Comment4 ""
$EndDescr
$Comp
L +9V #PWR01
U 1 1 5A9C6C38
P 700 750
F 0 "#PWR01" H 700 600 50  0001 C CNN
F 1 "+9V" H 700 890 50  0000 C CNN
F 2 "" H 700 750 50  0001 C CNN
F 3 "" H 700 750 50  0001 C CNN
	1    700  750 
	1    0    0    -1  
$EndComp
$Comp
L D C_D1
U 1 1 5A9C6E1A
P 1800 950
F 0 "C_D1" H 1800 1050 50  0000 C CNN
F 1 "D1N5817" H 1800 850 50  0000 C CNN
F 2 "" H 1800 950 50  0001 C CNN
F 3 "" H 1800 950 50  0001 C CNN
	1    1800 950 
	-1   0    0    1   
$EndComp
$Comp
L R C_R14
U 1 1 5A9C6E9F
P 1950 1300
F 0 "C_R14" V 2030 1300 50  0000 C CNN
F 1 "4k7" V 1950 1300 50  0000 C CNN
F 2 "" V 1880 1300 50  0001 C CNN
F 3 "" H 1950 1300 50  0001 C CNN
	1    1950 1300
	1    0    0    -1  
$EndComp
$Comp
L CP1 C_C14
U 1 1 5A9C708C
P 2350 1300
F 0 "C_C14" H 2375 1400 50  0000 L CNN
F 1 "100uF" H 2375 1200 50  0000 L CNN
F 2 "" H 2350 1300 50  0001 C CNN
F 3 "" H 2350 1300 50  0001 C CNN
	1    2350 1300
	1    0    0    -1  
$EndComp
$Comp
L C C_C15
U 1 1 5A9C712E
P 2850 1300
F 0 "C_C15" H 2875 1400 50  0000 L CNN
F 1 "100n" H 2875 1200 50  0000 L CNN
F 2 "" H 2888 1150 50  0001 C CNN
F 3 "" H 2850 1300 50  0001 C CNN
	1    2850 1300
	1    0    0    -1  
$EndComp
$Comp
L Conn_01x01 C_p_LED101
U 1 1 5A9C751D
P 1950 1850
F 0 "C_p_LED101" H 1950 1950 50  0000 C CNN
F 1 "Pin" H 1950 1750 50  0000 C CNN
F 2 "" H 1950 1850 50  0001 C CNN
F 3 "" H 1950 1850 50  0001 C CNN
	1    1950 1850
	0    1    1    0   
$EndComp
$Comp
L Conn_01x01 C_p_GND101
U 1 1 5A9C7802
P 2900 3450
F 0 "C_p_GND101" H 2900 3550 50  0000 C CNN
F 1 "Pin" H 2900 3350 50  0000 C CNN
F 2 "" H 2900 3450 50  0001 C CNN
F 3 "" H 2900 3450 50  0001 C CNN
	1    2900 3450
	0    1    1    0   
$EndComp
Wire Wire Line
	1950 950  1950 1150
Connection ~ 2350 950 
Connection ~ 2850 950 
Wire Wire Line
	2850 950  2850 1150
Wire Wire Line
	2350 950  2350 1150
Connection ~ 1950 950 
Connection ~ 2400 3150
Connection ~ 2900 3150
Wire Wire Line
	1950 1650 1950 1450
$Comp
L R C_R12
U 1 1 5A9C7E5B
P 4350 1300
F 0 "C_R12" V 4430 1300 50  0000 C CNN
F 1 "8k2" V 4350 1300 50  0000 C CNN
F 2 "" V 4280 1300 50  0001 C CNN
F 3 "" H 4350 1300 50  0001 C CNN
	1    4350 1300
	1    0    0    -1  
$EndComp
$Comp
L R C_R11
U 1 1 5A9C7EA6
P 4800 1550
F 0 "C_R11" V 4880 1550 50  0000 C CNN
F 1 "2k7" V 4800 1550 50  0000 C CNN
F 2 "" V 4730 1550 50  0001 C CNN
F 3 "" H 4800 1550 50  0001 C CNN
	1    4800 1550
	0    -1   -1   0   
$EndComp
$Comp
L R C_R13
U 1 1 5A9C7EDA
P 4350 2950
F 0 "C_R13" V 4430 2950 50  0000 C CNN
F 1 "33k" V 4350 2950 50  0000 C CNN
F 2 "" V 4280 2950 50  0001 C CNN
F 3 "" H 4350 2950 50  0001 C CNN
	1    4350 2950
	1    0    0    -1  
$EndComp
$Comp
L C C_C11
U 1 1 5A9C809B
P 3650 1800
F 0 "C_C11" H 3675 1900 50  0000 L CNN
F 1 "100n" H 3675 1700 50  0000 L CNN
F 2 "" H 3688 1650 50  0001 C CNN
F 3 "" H 3650 1800 50  0001 C CNN
	1    3650 1800
	1    0    0    -1  
$EndComp
$Comp
L POT_Dual_Separate 100k101
U 1 1 5A9C83A1
P 3650 2300
F 0 "100k101" V 3475 2300 50  0000 C CNN
F 1 "C_BRILL" V 3550 2300 50  0000 C CNN
F 2 "" H 3650 2300 50  0001 C CNN
F 3 "" H 3650 2300 50  0001 C CNN
	1    3650 2300
	-1   0    0    1   
$EndComp
Wire Wire Line
	3650 1550 3650 1650
Connection ~ 4350 1550
$Comp
L POT_Dual_Separate 100k102
U 1 1 5A9C89C2
P 3650 2800
F 0 "100k102" V 3475 2800 50  0000 C CNN
F 1 "C_VOL" V 3550 2800 50  0000 C CNN
F 2 "" H 3650 2800 50  0001 C CNN
F 3 "" H 3650 2800 50  0001 C CNN
	1    3650 2800
	1    0    0    1   
$EndComp
Connection ~ 3650 2550
$Comp
L C C_C12
U 1 1 5A9C8AE8
P 3150 2800
F 0 "C_C12" H 3175 2900 50  0000 L CNN
F 1 "3n3" H 3175 2700 50  0000 L CNN
F 2 "" H 3188 2650 50  0001 C CNN
F 3 "" H 3150 2800 50  0001 C CNN
	1    3150 2800
	1    0    0    -1  
$EndComp
Wire Wire Line
	3650 2450 3650 2650
Wire Wire Line
	2850 1450 2900 3150
Wire Wire Line
	2350 1450 2400 3150
Wire Wire Line
	3650 2550 3150 2550
Wire Wire Line
	3150 2550 3150 2650
Wire Wire Line
	3150 3050 3150 2950
Wire Wire Line
	4350 1550 4350 1450
Connection ~ 3650 2050
Wire Wire Line
	3650 1950 3650 2150
Wire Wire Line
	3650 2050 3150 2050
Wire Wire Line
	3150 2050 3150 2300
Wire Wire Line
	3150 2300 3500 2300
Connection ~ 3650 3150
Connection ~ 3650 3050
Wire Wire Line
	2400 3150 9750 3150
Wire Wire Line
	3650 2950 3650 3150
Wire Wire Line
	3650 3050 3150 3050
$Comp
L C C_C13
U 1 1 5A9CA3A8
P 3950 2950
F 0 "C_C13" H 3975 3050 50  0000 L CNN
F 1 "4n7" H 3975 2850 50  0000 L CNN
F 2 "" H 3988 2800 50  0001 C CNN
F 3 "" H 3950 2950 50  0001 C CNN
	1    3950 2950
	1    0    0    -1  
$EndComp
$Comp
L Conn_01x01 C_p_OUT101
U 1 1 5A9CA3FA
P 4750 2800
F 0 "C_p_OUT101" H 4750 2900 50  0000 C CNN
F 1 "Pin" H 4750 2700 50  0000 C CNN
F 2 "" H 4750 2800 50  0001 C CNN
F 3 "" H 4750 2800 50  0001 C CNN
	1    4750 2800
	1    0    0    -1  
$EndComp
Connection ~ 3950 3150
Connection ~ 4350 3150
Wire Wire Line
	4350 3150 4350 3100
Wire Wire Line
	3950 3150 3950 3100
$Comp
L AC127 C_Q3
U 1 1 5A9CB04C
P 5250 1850
F 0 "C_Q3" H 5450 1925 50  0000 L CNN
F 1 "AC127" H 5450 1850 50  0000 L CNN
F 2 "" H 5450 1775 50  0001 L CIN
F 3 "" H 5250 1850 50  0001 L CNN
	1    5250 1850
	-1   0    0    -1  
$EndComp
Wire Wire Line
	3650 1550 4650 1550
Wire Wire Line
	4950 1550 5150 1550
Wire Wire Line
	5150 1550 5150 1650
$Comp
L POT_Dual_Separate 1k101
U 1 1 5A9CB51E
P 5150 2700
F 0 "1k101" V 4975 2700 50  0000 C CNN
F 1 "C_GAIN" V 5050 2700 50  0000 C CNN
F 2 "" H 5150 2700 50  0001 C CNN
F 3 "" H 5150 2700 50  0001 C CNN
	1    5150 2700
	1    0    0    1   
$EndComp
$Comp
L C C_C9
U 1 1 5A9CBA3A
P 5500 2450
F 0 "C_C9" H 5525 2550 50  0000 L CNN
F 1 "1n" H 5525 2350 50  0000 L CNN
F 2 "" H 5538 2300 50  0001 C CNN
F 3 "" H 5500 2450 50  0001 C CNN
	1    5500 2450
	0    -1   -1   0   
$EndComp
$Comp
L R C_R10
U 1 1 5A9CBA91
P 5500 2150
F 0 "C_R10" V 5580 2150 50  0000 C CNN
F 1 "100k" V 5500 2150 50  0000 C CNN
F 2 "" V 5430 2150 50  0001 C CNN
F 3 "" H 5500 2150 50  0001 C CNN
	1    5500 2150
	0    -1   -1   0   
$EndComp
$Comp
L R C_R9
U 1 1 5A9CBB22
P 5850 2000
F 0 "C_R9" V 5930 2000 50  0000 C CNN
F 1 "33k" V 5850 2000 50  0000 C CNN
F 2 "" V 5780 2000 50  0001 C CNN
F 3 "" H 5850 2000 50  0001 C CNN
	1    5850 2000
	1    0    0    -1  
$EndComp
Connection ~ 5150 3150
$Comp
L CP1 C_C10
U 1 1 5A9CBB7E
P 5450 2850
F 0 "C_C10" H 5475 2950 50  0000 L CNN
F 1 "100uF" H 5475 2750 50  0000 L CNN
F 2 "" H 5450 2850 50  0001 C CNN
F 3 "" H 5450 2850 50  0001 C CNN
	1    5450 2850
	1    0    0    -1  
$EndComp
Connection ~ 5150 3000
Wire Wire Line
	5450 3000 5150 3000
Wire Wire Line
	5450 2700 5300 2700
Wire Wire Line
	5150 2850 5150 3150
Connection ~ 5150 2450
Connection ~ 5150 2150
Wire Wire Line
	5450 1850 5850 1850
Wire Wire Line
	5850 2150 5850 2450
Wire Wire Line
	5850 2150 5650 2150
Wire Wire Line
	6850 2450 5650 2450
Wire Wire Line
	5350 2150 5150 2150
Wire Wire Line
	5150 2050 5150 2550
Wire Wire Line
	5150 2450 5350 2450
$Comp
L R C_R8
U 1 1 5A9CCB29
P 6250 1300
F 0 "C_R8" V 6330 1300 50  0000 C CNN
F 1 "100k" V 6250 1300 50  0000 C CNN
F 2 "" V 6180 1300 50  0001 C CNN
F 3 "" H 6250 1300 50  0001 C CNN
	1    6250 1300
	1    0    0    -1  
$EndComp
$Comp
L C C_C8
U 1 1 5A9CCB80
P 6600 1550
F 0 "C_C8" H 6625 1650 50  0000 L CNN
F 1 "1n" H 6625 1450 50  0000 L CNN
F 2 "" H 6638 1400 50  0001 C CNN
F 3 "" H 6600 1550 50  0001 C CNN
	1    6600 1550
	0    -1   -1   0   
$EndComp
$Comp
L C C_C7
U 1 1 5A9CCBE3
P 6850 2700
F 0 "C_C7" H 6875 2800 50  0000 L CNN
F 1 "470pF" H 6875 2600 50  0000 L CNN
F 2 "" H 6888 2550 50  0001 C CNN
F 3 "" H 6850 2700 50  0001 C CNN
	1    6850 2700
	1    0    0    -1  
$EndComp
Connection ~ 5850 1850
Connection ~ 5850 2150
Connection ~ 4350 950 
Wire Wire Line
	4350 950  4350 1150
$Comp
L BC109 C_Q2
U 1 1 5A9CDD0B
P 6350 1850
F 0 "C_Q2" H 6200 2000 50  0000 L CNN
F 1 "BC109" H 6050 1900 50  0000 L CNN
F 2 "TO_SOT_Packages_THT:TO-18-3" H 6550 1775 50  0001 L CIN
F 3 "" H 6350 1850 50  0001 L CNN
	1    6350 1850
	-1   0    0    -1  
$EndComp
Wire Wire Line
	6250 2050 6250 2150
Connection ~ 6250 1550
Wire Wire Line
	6250 1450 6250 1650
Wire Wire Line
	5850 1850 5850 1550
Connection ~ 6850 1850
Wire Wire Line
	6850 1550 6850 2550
Wire Wire Line
	6550 1850 6950 1850
Connection ~ 5850 2450
Connection ~ 6850 2450
Wire Wire Line
	5850 1550 6450 1550
Wire Wire Line
	6750 1550 6850 1550
Connection ~ 6850 3150
Wire Wire Line
	6850 3150 6850 2850
$Comp
L R C_R7
U 1 1 5A9D0A58
P 7100 1850
F 0 "C_R7" V 7180 1850 50  0000 C CNN
F 1 "100R" V 7100 1850 50  0000 C CNN
F 2 "" V 7030 1850 50  0001 C CNN
F 3 "" H 7100 1850 50  0001 C CNN
	1    7100 1850
	0    -1   -1   0   
$EndComp
$Comp
L POT_Dual_Separate 100k103
U 1 1 5A9D0BC4
P 7600 1850
F 0 "100k103" V 7425 1850 50  0000 C CNN
F 1 "C_SHAPE" V 7500 1850 50  0000 C CNN
F 2 "" H 7600 1850 50  0001 C CNN
F 3 "" H 7600 1850 50  0001 C CNN
	1    7600 1850
	-1   0    0    -1  
$EndComp
$Comp
L C C_C4
U 1 1 5A9D0C3B
P 7900 1550
F 0 "C_C4" H 7925 1650 50  0000 L CNN
F 1 "15n" H 7925 1450 50  0000 L CNN
F 2 "" H 7938 1400 50  0001 C CNN
F 3 "" H 7900 1550 50  0001 C CNN
	1    7900 1550
	0    -1   -1   0   
$EndComp
$Comp
L C C_C5
U 1 1 5A9D0CB8
P 7900 2250
F 0 "C_C5" H 7925 2350 50  0000 L CNN
F 1 "220n" H 7925 2150 50  0000 L CNN
F 2 "" H 7938 2100 50  0001 C CNN
F 3 "" H 7900 2250 50  0001 C CNN
	1    7900 2250
	0    -1   -1   0   
$EndComp
$Comp
L R C_R6
U 1 1 5A9D0DDE
P 8250 2000
F 0 "C_R6" V 8330 2000 50  0000 C CNN
F 1 "820R" V 8250 2000 50  0000 C CNN
F 2 "" V 8180 2000 50  0001 C CNN
F 3 "" H 8250 2000 50  0001 C CNN
	1    8250 2000
	1    0    0    -1  
$EndComp
$Comp
L C C_C6
U 1 1 5A9D10AE
P 8250 2600
F 0 "C_C6" H 8275 2700 50  0000 L CNN
F 1 "4n7" H 8275 2500 50  0000 L CNN
F 2 "" H 8288 2450 50  0001 C CNN
F 3 "" H 8250 2600 50  0001 C CNN
	1    8250 2600
	1    0    0    -1  
$EndComp
Connection ~ 7350 1850
Wire Wire Line
	7250 1850 7450 1850
Connection ~ 7600 1550
Wire Wire Line
	7600 2000 7600 2250
Wire Wire Line
	7600 2250 7750 2250
Wire Wire Line
	7600 1700 7600 1550
Wire Wire Line
	7350 1550 7750 1550
Wire Wire Line
	7350 1850 7350 1550
Connection ~ 8250 2250
Connection ~ 8250 3150
Wire Wire Line
	8250 3150 8250 2750
Wire Wire Line
	8250 2150 8250 2450
Wire Wire Line
	8050 2250 8250 2250
$Comp
L R C_R5
U 1 1 5A9D2A87
P 8750 1250
F 0 "C_R5" V 8830 1250 50  0000 C CNN
F 1 "2k7" V 8750 1250 50  0000 C CNN
F 2 "" V 8680 1250 50  0001 C CNN
F 3 "" H 8750 1250 50  0001 C CNN
	1    8750 1250
	1    0    0    -1  
$EndComp
$Comp
L R C_R4
U 1 1 5A9D2B42
P 9250 1250
F 0 "C_R4" V 9330 1250 50  0000 C CNN
F 1 "1M" V 9250 1250 50  0000 C CNN
F 2 "" V 9180 1250 50  0001 C CNN
F 3 "" H 9250 1250 50  0001 C CNN
	1    9250 1250
	1    0    0    -1  
$EndComp
$Comp
L C C_C2
U 1 1 5A9D2BC6
P 9000 1650
F 0 "C_C2" H 9025 1750 50  0000 L CNN
F 1 "200pF" H 9025 1550 50  0000 L CNN
F 2 "" H 9038 1500 50  0001 C CNN
F 3 "" H 9000 1650 50  0001 C CNN
	1    9000 1650
	0    -1   -1   0   
$EndComp
$Comp
L R C_R3
U 1 1 5A9D2E6A
P 8750 2400
F 0 "C_R3" V 8830 2400 50  0000 C CNN
F 1 "680R" V 8750 2400 50  0000 C CNN
F 2 "" V 8680 2400 50  0001 C CNN
F 3 "" H 8750 2400 50  0001 C CNN
	1    8750 2400
	1    0    0    -1  
$EndComp
$Comp
L POT_Dual_Separate 2k101
U 1 1 5A9D2EF8
P 8750 2800
F 0 "2k101" V 8575 2800 50  0000 C CNN
F 1 "C_FUZZ" V 8650 2800 50  0000 C CNN
F 2 "" H 8750 2800 50  0001 C CNN
F 3 "" H 8750 2800 50  0001 C CNN
	1    8750 2800
	1    0    0    -1  
$EndComp
$Comp
L CP1 C_C3
U 1 1 5A9D3246
P 9000 2950
F 0 "C_C3" H 9025 3050 50  0000 L CNN
F 1 "100uF" H 9025 2850 50  0000 L CNN
F 2 "" H 9000 2950 50  0001 C CNN
F 3 "" H 9000 2950 50  0001 C CNN
	1    9000 2950
	1    0    0    -1  
$EndComp
$Comp
L BS170 C_Q1
U 1 1 5A9D387B
P 8850 1950
F 0 "C_Q1" H 9050 2025 50  0000 L CNN
F 1 "BS170" H 9050 1950 50  0000 L CNN
F 2 "TO_SOT_Packages_THT:TO-92_Molded_Narrow" H 9050 1875 50  0001 L CIN
F 3 "" H 8850 1950 50  0001 L CNN
	1    8850 1950
	-1   0    0    -1  
$EndComp
Connection ~ 8750 1650
Wire Wire Line
	8250 1650 8850 1650
Wire Wire Line
	8750 1400 8750 1750
Connection ~ 9250 1650
Wire Wire Line
	9150 1650 9250 1650
Wire Wire Line
	9250 1400 9250 2200
Connection ~ 8750 950 
Wire Wire Line
	1950 950  9250 950 
Wire Wire Line
	8750 950  8750 1100
Wire Wire Line
	9250 950  9250 1100
Connection ~ 6250 950 
Wire Wire Line
	6250 1150 6250 950 
Connection ~ 9250 1950
Wire Wire Line
	9050 1950 9350 1950
$Comp
L D_Zener C_D2
U 1 1 5A9D6854
P 9000 2200
F 0 "C_D2" H 9000 2300 50  0000 C CNN
F 1 "9.1v" H 9000 2100 50  0000 C CNN
F 2 "" H 9000 2200 50  0001 C CNN
F 3 "" H 9000 2200 50  0001 C CNN
	1    9000 2200
	-1   0    0    -1  
$EndComp
Connection ~ 8250 1650
Wire Wire Line
	8050 1550 8250 1550
Wire Wire Line
	8250 1550 8250 1850
Connection ~ 8750 3100
Connection ~ 8750 3150
Wire Wire Line
	8750 2950 8750 3150
Wire Wire Line
	9000 3100 8750 3100
Wire Wire Line
	9000 2800 8900 2800
Wire Wire Line
	8750 2650 8750 2550
Connection ~ 8750 2200
Wire Wire Line
	8750 2150 8750 2250
Wire Wire Line
	8850 2200 8750 2200
Wire Wire Line
	9250 2200 9150 2200
$Comp
L R C_R2
U 1 1 5A9DA3D0
P 9500 1950
F 0 "C_R2" V 9580 1950 50  0000 C CNN
F 1 "100R" V 9500 1950 50  0000 C CNN
F 2 "" V 9430 1950 50  0001 C CNN
F 3 "" H 9500 1950 50  0001 C CNN
	1    9500 1950
	0    -1   -1   0   
$EndComp
$Comp
L R C_R1
U 1 1 5A9DA647
P 9750 2300
F 0 "C_R1" V 9830 2300 50  0000 C CNN
F 1 "1M" V 9750 2300 50  0000 C CNN
F 2 "" V 9680 2300 50  0001 C CNN
F 3 "" H 9750 2300 50  0001 C CNN
	1    9750 2300
	1    0    0    -1  
$EndComp
$Comp
L C C_C1
U 1 1 5A9DA787
P 10000 1950
F 0 "C_C1" H 10025 2050 50  0000 L CNN
F 1 "47n" H 10025 1850 50  0000 L CNN
F 2 "" H 10038 1800 50  0001 C CNN
F 3 "" H 10000 1950 50  0001 C CNN
	1    10000 1950
	0    -1   -1   0   
$EndComp
$Comp
L Conn_01x01 C_p_IN101
U 1 1 5A9DA979
P 10250 2150
F 0 "C_p_IN101" H 10250 2250 50  0000 C CNN
F 1 "Pin" H 10250 2050 50  0000 C CNN
F 2 "" H 10250 2150 50  0001 C CNN
F 3 "" H 10250 2150 50  0001 C CNN
	1    10250 2150
	0    1    1    0   
$EndComp
Connection ~ 9750 3150
Wire Wire Line
	9750 3150 9750 2450
Connection ~ 9750 1950
Wire Wire Line
	9750 2150 9750 1950
Wire Wire Line
	9650 1950 9850 1950
Wire Wire Line
	10150 1950 10250 1950
$Comp
L GND #PWR02
U 1 1 5A9E1830
P 2400 3250
F 0 "#PWR02" H 2400 3000 50  0001 C CNN
F 1 "GND" H 2400 3100 50  0000 C CNN
F 2 "" H 2400 3250 50  0001 C CNN
F 3 "" H 2400 3250 50  0001 C CNN
	1    2400 3250
	1    0    0    -1  
$EndComp
$Comp
L GND #PWR03
U 1 1 5A9E18C3
P 6250 2150
F 0 "#PWR03" H 6250 1900 50  0001 C CNN
F 1 "GND" H 6250 2000 50  0000 C CNN
F 2 "" H 6250 2150 50  0001 C CNN
F 3 "" H 6250 2150 50  0001 C CNN
	1    6250 2150
	1    0    0    -1  
$EndComp
Wire Wire Line
	2900 3150 2900 3250
Wire Wire Line
	2400 3150 2400 3250
$Comp
L D S_D1
U 1 1 5A9E300A
P 1900 3850
F 0 "S_D1" H 1900 3950 50  0000 C CNN
F 1 "D1N5817" H 1900 3750 50  0000 C CNN
F 2 "" H 1900 3850 50  0001 C CNN
F 3 "" H 1900 3850 50  0001 C CNN
	1    1900 3850
	-1   0    0    1   
$EndComp
$Comp
L R S_R7
U 1 1 5A9E3010
P 2050 4200
F 0 "S_R7" V 2130 4200 50  0000 C CNN
F 1 "4k7" V 2050 4200 50  0000 C CNN
F 2 "" V 1980 4200 50  0001 C CNN
F 3 "" H 2050 4200 50  0001 C CNN
	1    2050 4200
	1    0    0    -1  
$EndComp
$Comp
L CP1 S_C6
U 1 1 5A9E3016
P 2500 4200
F 0 "S_C6" H 2525 4300 50  0000 L CNN
F 1 "100uF" H 2525 4100 50  0000 L CNN
F 2 "" H 2500 4200 50  0001 C CNN
F 3 "" H 2500 4200 50  0001 C CNN
	1    2500 4200
	1    0    0    -1  
$EndComp
$Comp
L C S_C7
U 1 1 5A9E301C
P 2900 4200
F 0 "S_C7" H 2925 4300 50  0000 L CNN
F 1 "100n" H 2925 4100 50  0000 L CNN
F 2 "" H 2938 4050 50  0001 C CNN
F 3 "" H 2900 4200 50  0001 C CNN
	1    2900 4200
	1    0    0    -1  
$EndComp
$Comp
L Conn_01x01 C_p_LED102
U 1 1 5A9E3022
P 2050 4750
F 0 "C_p_LED102" H 2050 4850 50  0000 C CNN
F 1 "Pin" H 2050 4650 50  0000 C CNN
F 2 "" H 2050 4750 50  0001 C CNN
F 3 "" H 2050 4750 50  0001 C CNN
	1    2050 4750
	0    1    1    0   
$EndComp
Wire Wire Line
	2050 3850 2050 4050
Connection ~ 2050 3850
Wire Wire Line
	2050 4550 2050 4350
$Comp
L R P_R1
U 1 1 5A9E3DEF
P 950 950
F 0 "P_R1" V 1030 950 50  0000 C CNN
F 1 "100R" V 950 950 50  0000 C CNN
F 2 "" V 880 950 50  0001 C CNN
F 3 "" H 950 950 50  0001 C CNN
	1    950  950 
	0    1    1    0   
$EndComp
$Comp
L R P_R2
U 1 1 5A9E41A4
P 950 3850
F 0 "P_R2" V 1030 3850 50  0000 C CNN
F 1 "100R" V 950 3850 50  0000 C CNN
F 2 "" V 880 3850 50  0001 C CNN
F 3 "" H 950 3850 50  0001 C CNN
	1    950  3850
	0    1    1    0   
$EndComp
$Comp
L R P_R3
U 1 1 5A9E4255
P 950 6300
F 0 "P_R3" V 1030 6300 50  0000 C CNN
F 1 "100R" V 950 6300 50  0000 C CNN
F 2 "" V 880 6300 50  0001 C CNN
F 3 "" H 950 6300 50  0001 C CNN
	1    950  6300
	0    1    1    0   
$EndComp
Connection ~ 700  950 
Connection ~ 700  3850
Wire Wire Line
	1100 950  1650 950 
Wire Wire Line
	1100 3850 1750 3850
Wire Wire Line
	700  750  700  6300
Wire Wire Line
	700  3850 800  3850
Wire Wire Line
	800  950  700  950 
$Comp
L GND #PWR04
U 1 1 5A9E8555
P 2500 5450
F 0 "#PWR04" H 2500 5200 50  0001 C CNN
F 1 "GND" H 2500 5300 50  0000 C CNN
F 2 "" H 2500 5450 50  0001 C CNN
F 3 "" H 2500 5450 50  0001 C CNN
	1    2500 5450
	1    0    0    -1  
$EndComp
Connection ~ 2500 5350
Connection ~ 2900 5350
Connection ~ 2500 3850
Connection ~ 2900 3850
$Comp
L R S_R4
U 1 1 5A9E8819
P 2300 3850
F 0 "S_R4" V 2380 3850 50  0000 C CNN
F 1 "330R" V 2300 3850 50  0000 C CNN
F 2 "" V 2230 3850 50  0001 C CNN
F 3 "" H 2300 3850 50  0001 C CNN
	1    2300 3850
	0    -1   -1   0   
$EndComp
Wire Wire Line
	2450 3850 4500 3850
Wire Wire Line
	2150 3850 2050 3850
Wire Wire Line
	2500 3850 2500 4050
Wire Wire Line
	2900 3850 2900 4050
Wire Wire Line
	2500 5350 8600 5350
Wire Wire Line
	2500 4350 2500 5450
Wire Wire Line
	2900 5350 2900 4350
$Comp
L 4049 S_IC1A101
U 1 1 5A9E9277
P 6350 3650
F 0 "S_IC1A101" H 6545 3765 50  0000 C CNN
F 1 "4049" H 6540 3525 50  0000 C CNN
F 2 "" H 6350 3650 60  0001 C CNN
F 3 "" H 6350 3650 60  0001 C CNN
	1    6350 3650
	1    0    0    -1  
$EndComp
$Comp
L 4049 S_IC1B101
U 2 1 5A9E933A
P 7550 3650
F 0 "S_IC1B101" H 7745 3765 50  0000 C CNN
F 1 "4049" H 7740 3525 50  0000 C CNN
F 2 "" H 7550 3650 60  0001 C CNN
F 3 "" H 7550 3650 60  0001 C CNN
	2    7550 3650
	1    0    0    -1  
$EndComp
$Comp
L 4049 S_IC1C101
U 3 1 5A9E9407
P 3700 4900
F 0 "S_IC1C101" H 3895 5015 50  0000 C CNN
F 1 "4049" H 3890 4775 50  0000 C CNN
F 2 "" H 3700 4900 60  0001 C CNN
F 3 "" H 3700 4900 60  0001 C CNN
	3    3700 4900
	0    -1   -1   0   
$EndComp
$Comp
L 4049 S_IC1D101
U 4 1 5A9E94C1
P 4050 4900
F 0 "S_IC1D101" H 4245 5015 50  0000 C CNN
F 1 "4049" H 4240 4775 50  0000 C CNN
F 2 "" H 4050 4900 60  0001 C CNN
F 3 "" H 4050 4900 60  0001 C CNN
	4    4050 4900
	0    -1   -1   0   
$EndComp
$Comp
L 4049 S_IC1E101
U 5 1 5A9E9592
P 4450 4900
F 0 "S_IC1E101" H 4645 5015 50  0000 C CNN
F 1 "4049" H 4640 4775 50  0000 C CNN
F 2 "" H 4450 4900 60  0001 C CNN
F 3 "" H 4450 4900 60  0001 C CNN
	5    4450 4900
	0    -1   -1   0   
$EndComp
$Comp
L 4049 S_IC1F101
U 6 1 5A9E9667
P 4850 4900
F 0 "S_IC1F101" H 5045 5015 50  0000 C CNN
F 1 "4049" H 5040 4775 50  0000 C CNN
F 2 "" H 4850 4900 60  0001 C CNN
F 3 "" H 4850 4900 60  0001 C CNN
	6    4850 4900
	0    -1   -1   0   
$EndComp
Connection ~ 4450 5350
Connection ~ 4050 5350
Connection ~ 3700 5350
$Comp
L POT_Dual_Separate 1M101
U 1 1 5A9EEB40
P 6800 4450
F 0 "1M101" V 6625 4450 50  0000 C CNN
F 1 "S_GAIN" V 6700 4450 50  0000 C CNN
F 2 "" H 6800 4450 50  0001 C CNN
F 3 "" H 6800 4450 50  0001 C CNN
	1    6800 4450
	-1   0    0    1   
$EndComp
$Comp
L C S_C1
U 1 1 5A9EEC28
P 5750 3650
F 0 "S_C1" H 5775 3750 50  0000 L CNN
F 1 "68n" H 5775 3550 50  0000 L CNN
F 2 "" H 5788 3500 50  0001 C CNN
F 3 "" H 5750 3650 50  0001 C CNN
	1    5750 3650
	0    -1   -1   0   
$EndComp
$Comp
L C S_C2
U 1 1 5A9EEEC4
P 6350 4150
F 0 "S_C2" H 6375 4250 50  0000 L CNN
F 1 "51pF" H 6375 4050 50  0000 L CNN
F 2 "" H 6388 4000 50  0001 C CNN
F 3 "" H 6350 4150 50  0001 C CNN
	1    6350 4150
	0    -1   -1   0   
$EndComp
$Comp
L C S_C3
U 1 1 5A9EF126
P 6950 3650
F 0 "S_C3" H 6975 3750 50  0000 L CNN
F 1 "33n" H 6975 3550 50  0000 L CNN
F 2 "" H 6988 3500 50  0001 C CNN
F 3 "" H 6950 3650 50  0001 C CNN
	1    6950 3650
	0    -1   -1   0   
$EndComp
$Comp
L R S_R2
U 1 1 5A9EFCF6
P 5450 3650
F 0 "S_R2" V 5530 3650 50  0000 C CNN
F 1 "100k" V 5450 3650 50  0000 C CNN
F 2 "" V 5380 3650 50  0001 C CNN
F 3 "" H 5450 3650 50  0001 C CNN
	1    5450 3650
	0    -1   -1   0   
$EndComp
$Comp
L R S_R1
U 1 1 5A9EFDE0
P 5200 3900
F 0 "S_R1" V 5280 3900 50  0000 C CNN
F 1 "1M" V 5200 3900 50  0000 C CNN
F 2 "" V 5130 3900 50  0001 C CNN
F 3 "" H 5200 3900 50  0001 C CNN
	1    5200 3900
	1    0    0    -1  
$EndComp
$Comp
L Conn_01x01 S_p_IN101
U 1 1 5A9EFEC8
P 4900 3650
F 0 "S_p_IN101" H 4900 3750 50  0000 C CNN
F 1 "Pin" H 4900 3550 50  0000 C CNN
F 2 "" H 4900 3650 50  0001 C CNN
F 3 "" H 4900 3650 50  0001 C CNN
	1    4900 3650
	-1   0    0    1   
$EndComp
Connection ~ 5200 3650
Connection ~ 6800 3650
Connection ~ 7100 3650
Connection ~ 5900 3650
Wire Wire Line
	5100 3650 5300 3650
Wire Wire Line
	5200 3650 5200 3750
Connection ~ 4850 5350
Wire Wire Line
	5200 5350 5200 4050
$Comp
L R S_R3
U 1 1 5A9F35DD
P 6350 4450
F 0 "S_R3" V 6430 4450 50  0000 C CNN
F 1 "100k" V 6350 4450 50  0000 C CNN
F 2 "" V 6280 4450 50  0001 C CNN
F 3 "" H 6350 4450 50  0001 C CNN
	1    6350 4450
	0    -1   -1   0   
$EndComp
Connection ~ 5900 4150
Connection ~ 6800 4150
Wire Wire Line
	6800 3650 6800 4300
Wire Wire Line
	6800 4150 6500 4150
Wire Wire Line
	6200 4150 5900 4150
Wire Wire Line
	5900 3650 5900 4450
Wire Wire Line
	5900 4450 6200 4450
Wire Wire Line
	6650 4450 6500 4450
$Comp
L C S_C4
U 1 1 5A9F4161
P 7550 4150
F 0 "S_C4" H 7575 4250 50  0000 L CNN
F 1 "100pF" H 7575 4050 50  0000 L CNN
F 2 "" H 7588 4000 50  0001 C CNN
F 3 "" H 7550 4150 50  0001 C CNN
	1    7550 4150
	0    -1   -1   0   
$EndComp
$Comp
L R S_R5
U 1 1 5A9F4167
P 7550 4450
F 0 "S_R5" V 7630 4450 50  0000 C CNN
F 1 "1M" V 7550 4450 50  0000 C CNN
F 2 "" V 7480 4450 50  0001 C CNN
F 3 "" H 7550 4450 50  0001 C CNN
	1    7550 4450
	0    -1   -1   0   
$EndComp
Connection ~ 7100 4150
Connection ~ 8000 4150
Wire Wire Line
	8000 3650 8000 4450
Wire Wire Line
	8000 4150 7700 4150
Wire Wire Line
	7400 4150 7100 4150
Wire Wire Line
	7100 3650 7100 4450
Wire Wire Line
	7100 4450 7400 4450
Wire Wire Line
	8000 4450 7700 4450
Connection ~ 8000 3650
$Comp
L C S_C5
U 1 1 5A9F50B3
P 8150 3650
F 0 "S_C5" H 8175 3750 50  0000 L CNN
F 1 "1uF" H 8175 3550 50  0000 L CNN
F 2 "" H 8188 3500 50  0001 C CNN
F 3 "" H 8150 3650 50  0001 C CNN
	1    8150 3650
	0    -1   -1   0   
$EndComp
$Comp
L POT_Dual_Separate 10k101
U 1 1 5A9F528E
P 8300 4150
F 0 "10k101" V 8125 4150 50  0000 C CNN
F 1 "S_VOL" V 8200 4150 50  0000 C CNN
F 2 "" H 8300 4150 50  0001 C CNN
F 3 "" H 8300 4150 50  0001 C CNN
	1    8300 4150
	1    0    0    1   
$EndComp
$Comp
L R S_R6
U 1 1 5A9F5683
P 8600 4600
F 0 "S_R6" V 8680 4600 50  0000 C CNN
F 1 "1M" V 8600 4600 50  0000 C CNN
F 2 "" V 8530 4600 50  0001 C CNN
F 3 "" H 8600 4600 50  0001 C CNN
	1    8600 4600
	1    0    0    -1  
$EndComp
Connection ~ 8300 5350
Connection ~ 8600 5350
Connection ~ 8600 4150
$Comp
L Conn_01x01 S_p_OUT101
U 1 1 5A9F60F7
P 9000 4150
F 0 "S_p_OUT101" H 9000 4250 50  0000 C CNN
F 1 "Pin" H 9000 4050 50  0000 C CNN
F 2 "" H 9000 4150 50  0001 C CNN
F 3 "" H 9000 4150 50  0001 C CNN
	1    9000 4150
	1    0    0    1   
$EndComp
Wire Wire Line
	8300 3650 8300 4000
Wire Wire Line
	8450 4150 8800 4150
Wire Wire Line
	8600 4150 8600 4450
Wire Wire Line
	8600 5350 8600 4750
Wire Wire Line
	8300 5350 8300 4300
$Comp
L D L_D1
U 1 1 5A9FEFEB
P 1800 6300
F 0 "L_D1" H 1800 6400 50  0000 C CNN
F 1 "D1N5817" H 1800 6200 50  0000 C CNN
F 2 "" H 1800 6300 50  0001 C CNN
F 3 "" H 1800 6300 50  0001 C CNN
	1    1800 6300
	-1   0    0    1   
$EndComp
$Comp
L R S_R23
U 1 1 5A9FEFF1
P 1950 6650
F 0 "S_R23" V 2030 6650 50  0000 C CNN
F 1 "4k7" V 1950 6650 50  0000 C CNN
F 2 "" V 1880 6650 50  0001 C CNN
F 3 "" H 1950 6650 50  0001 C CNN
	1    1950 6650
	1    0    0    -1  
$EndComp
$Comp
L CP1 L_C27
U 1 1 5A9FEFF7
P 3500 6750
F 0 "L_C27" H 3525 6850 50  0000 L CNN
F 1 "100uF" H 3525 6650 50  0000 L CNN
F 2 "" H 3500 6750 50  0001 C CNN
F 3 "" H 3500 6750 50  0001 C CNN
	1    3500 6750
	1    0    0    -1  
$EndComp
$Comp
L C L_C28
U 1 1 5A9FEFFD
P 3900 6650
F 0 "L_C28" H 3925 6750 50  0000 L CNN
F 1 "100n" H 3925 6550 50  0000 L CNN
F 2 "" H 3938 6500 50  0001 C CNN
F 3 "" H 3900 6650 50  0001 C CNN
	1    3900 6650
	1    0    0    -1  
$EndComp
$Comp
L Conn_01x01 L_p_LED101
U 1 1 5A9FF003
P 1950 7200
F 0 "L_p_LED101" H 1950 7300 50  0000 C CNN
F 1 "Pin" H 1950 7100 50  0000 C CNN
F 2 "" H 1950 7200 50  0001 C CNN
F 3 "" H 1950 7200 50  0001 C CNN
	1    1950 7200
	0    1    1    0   
$EndComp
Wire Wire Line
	1950 6300 1950 6500
Connection ~ 1950 6300
Wire Wire Line
	1950 7000 1950 6800
Connection ~ 3500 6300
Connection ~ 3900 6300
Wire Wire Line
	1950 6300 4500 6300
Wire Wire Line
	3900 6300 3900 6500
Connection ~ 4400 6300
$Comp
L R L_R24
U 1 1 5AA05209
P 4650 6300
F 0 "L_R24" V 4730 6300 50  0000 C CNN
F 1 "100k" V 4650 6300 50  0000 C CNN
F 2 "" V 4580 6300 50  0001 C CNN
F 3 "" H 4650 6300 50  0001 C CNN
	1    4650 6300
	0    -1   -1   0   
$EndComp
$Comp
L R L_R25
U 1 1 5AA05650
P 4900 6600
F 0 "L_R25" V 4980 6600 50  0000 C CNN
F 1 "100k" V 4900 6600 50  0000 C CNN
F 2 "" V 4830 6600 50  0001 C CNN
F 3 "" H 4900 6600 50  0001 C CNN
	1    4900 6600
	-1   0    0    1   
$EndComp
Connection ~ 4900 6300
Wire Wire Line
	4800 6300 5200 6300
Wire Wire Line
	4900 6300 4900 6450
$Comp
L CP1 L_C29
U 1 1 5AA06DC3
P 5200 6600
F 0 "L_C29" H 5225 6700 50  0000 L CNN
F 1 "10uF" H 5225 6500 50  0000 L CNN
F 2 "" H 5200 6600 50  0001 C CNN
F 3 "" H 5200 6600 50  0001 C CNN
	1    5200 6600
	1    0    0    -1  
$EndComp
Text GLabel 5200 6150 1    60   Input ~ 0
VB
Connection ~ 5200 6300
Wire Wire Line
	5200 6150 5200 6450
$Comp
L GND #PWR05
U 1 1 5AA0AB38
P 3500 7200
F 0 "#PWR05" H 3500 6950 50  0001 C CNN
F 1 "GND" H 3500 7050 50  0000 C CNN
F 2 "" H 3500 7200 50  0001 C CNN
F 3 "" H 3500 7200 50  0001 C CNN
	1    3500 7200
	1    0    0    -1  
$EndComp
Connection ~ 3500 7000
Connection ~ 3900 7000
Connection ~ 4900 7000
Connection ~ 5200 7000
Wire Wire Line
	5200 7000 5200 6750
Wire Wire Line
	4900 7000 4900 6750
Wire Wire Line
	3900 7000 3900 6800
Wire Wire Line
	3500 6900 3500 7200
Wire Wire Line
	2700 7000 5200 7000
$Comp
L LM78L05_TO92 L_REG1
U 1 1 5AA0C1D6
P 2700 6600
F 0 "L_REG1" H 2550 6725 50  0000 C CNN
F 1 "LM78L05_TO92" H 2700 6725 50  0000 L CNN
F 2 "TO_SOT_Packages_THT:TO-92_Inline_Narrow_Oval" H 2700 6825 50  0001 C CIN
F 3 "" H 2700 6550 50  0001 C CNN
	1    2700 6600
	1    0    0    -1  
$EndComp
Text GLabel 2400 7100 3    60   Input ~ 0
+5V
Wire Wire Line
	2700 6900 2700 7000
Connection ~ 3500 6600
Wire Wire Line
	3500 6300 3500 6600
Wire Wire Line
	3500 6600 3000 6600
Wire Wire Line
	2400 6600 2400 7100
Wire Wire Line
	3800 2800 4550 2800
Connection ~ 4350 2800
Connection ~ 3950 2800
Connection ~ 5200 5350
Wire Wire Line
	700  6300 800  6300
Wire Wire Line
	1100 6300 1650 6300
$Sheet
S 5600 5900 650  300 
U 5AA1CA8C
F0 "Leviathan sheet 2" 60
F1 "Leviathan sheet 2.sch" 60
$EndSheet
NoConn ~ 3700 4450
NoConn ~ 4050 4450
NoConn ~ 4450 4450
NoConn ~ 4850 4450
Wire Wire Line
	4500 3850 4500 3400
NoConn ~ 6800 4600
Text GLabel 4400 6150 1    60   Input ~ 0
IC1_PWR
Wire Wire Line
	4400 6300 4400 6150
Wire Wire Line
	4500 3400 6300 3400
Wire Wire Line
	6300 3400 6300 3550
Connection ~ 3450 3850
Wire Wire Line
	3450 3850 3450 4950
Wire Wire Line
	3450 4950 3600 4950
Wire Wire Line
	4150 4950 4250 4950
Wire Wire Line
	4250 4950 4250 5350
Connection ~ 4250 5350
Wire Wire Line
	4350 4950 4300 4950
Wire Wire Line
	4300 4950 4300 3850
Connection ~ 4300 3850
$EndSCHEMATC
