EESchema Schematic File Version 2
LIBS:power
LIBS:device
LIBS:transistors
LIBS:conn
LIBS:linear
LIBS:regul
LIBS:74xx
LIBS:cmos4000
LIBS:adc-dac
LIBS:memory
LIBS:xilinx
LIBS:microcontrollers
LIBS:dsp
LIBS:microchip
LIBS:analog_switches
LIBS:motorola
LIBS:texas
LIBS:intel
LIBS:audio
LIBS:interface
LIBS:digital-audio
LIBS:philips
LIBS:display
LIBS:cypress
LIBS:siliconi
LIBS:opto
LIBS:atmel
LIBS:contrib
LIBS:valves
LIBS:pedals3_1-cache
EELAYER 25 0
EELAYER END
$Descr A4 11693 8268
encoding utf-8
Sheet 2 2
Title ""
Date ""
Rev ""
Comp ""
Comment1 ""
Comment2 ""
Comment3 ""
Comment4 ""
$EndDescr
$Comp
L PT2399 L_IC2
U 1 1 5AA1CD31
P 4500 4900
F 0 "L_IC2" H 4500 5550 50  0000 C CNN
F 1 "PT2399" H 4500 4200 50  0000 C CNN
F 2 "Housings_DIP:DIP-16_W7.62mm_LongPads" H 4500 4500 50  0001 C CNN
F 3 "" H 4500 4500 50  0001 C CNN
	1    4500 4900
	1    0    0    -1  
$EndComp
$Comp
L TL072 L_IC1
U 1 1 5AA1CD61
P 2600 1500
F 0 "L_IC1" H 2600 1700 50  0000 L CNN
F 1 "TL072" H 2600 1300 50  0000 L CNN
F 2 "Housings_DIP:DIP-8_W7.62mm_LongPads" H 2600 1500 50  0001 C CNN
F 3 "" H 2600 1500 50  0001 C CNN
	1    2600 1500
	1    0    0    -1  
$EndComp
$Comp
L TL072 L_IC1
U 2 1 5AA1CD91
P 4200 1400
F 0 "L_IC1" H 4200 1600 50  0000 L CNN
F 1 "TL072" H 4200 1200 50  0000 L CNN
F 2 "Housings_DIP:DIP-8_W7.62mm_LongPads" H 4200 1400 50  0001 C CNN
F 3 "" H 4200 1400 50  0001 C CNN
	2    4200 1400
	1    0    0    -1  
$EndComp
Text GLabel 2200 800  0    60   Input ~ 0
VB
$Comp
L R L_R3
U 1 1 5A9E195B
P 2200 1050
F 0 "L_R3" V 2280 1050 50  0000 C CNN
F 1 "220k" V 2200 1050 50  0000 C CNN
F 2 "Resistors_THT:R_Axial_DIN0204_L3.6mm_D1.6mm_P7.62mm_Horizontal" V 2130 1050 50  0001 C CNN
F 3 "" H 2200 1050 50  0001 C CNN
	1    2200 1050
	1    0    0    -1  
$EndComp
$Comp
L R L_R6
U 1 1 5A9E1999
P 3500 1050
F 0 "L_R6" V 3580 1050 50  0000 C CNN
F 1 "1k" V 3500 1050 50  0000 C CNN
F 2 "Resistors_THT:R_Axial_DIN0204_L3.6mm_D1.6mm_P7.62mm_Horizontal" V 3430 1050 50  0001 C CNN
F 3 "" H 3500 1050 50  0001 C CNN
	1    3500 1050
	1    0    0    -1  
$EndComp
$Comp
L R L_R2
U 1 1 5A9E1A5D
P 1650 1600
F 0 "L_R2" V 1730 1600 50  0000 C CNN
F 1 "511k" V 1650 1600 50  0000 C CNN
F 2 "Resistors_THT:R_Axial_DIN0204_L3.6mm_D1.6mm_P7.62mm_Horizontal" V 1580 1600 50  0001 C CNN
F 3 "" H 1650 1600 50  0001 C CNN
	1    1650 1600
	0    1    1    0   
$EndComp
$Comp
L R L_R1
U 1 1 5A9E1B19
P 1000 1850
F 0 "L_R1" V 1080 1850 50  0000 C CNN
F 1 "1M" V 1000 1850 50  0000 C CNN
F 2 "Resistors_THT:R_Axial_DIN0204_L3.6mm_D1.6mm_P7.62mm_Horizontal" V 930 1850 50  0001 C CNN
F 3 "" H 1000 1850 50  0001 C CNN
	1    1000 1850
	1    0    0    -1  
$EndComp
$Comp
L GND #PWR10
U 1 1 5A9E2384
P 1000 2200
F 0 "#PWR10" H 1000 1950 50  0001 C CNN
F 1 "GND" H 1000 2050 50  0000 C CNN
F 2 "" H 1000 2200 50  0001 C CNN
F 3 "" H 1000 2200 50  0001 C CNN
	1    1000 2200
	1    0    0    -1  
$EndComp
$Comp
L C L_C1
U 1 1 5A9E3490
P 1350 1600
F 0 "L_C1" H 1375 1700 50  0000 L CNN
F 1 "100n" H 1375 1500 50  0000 L CNN
F 2 "Capacitors_THT:C_Disc_D8.0mm_W2.5mm_P5.00mm" H 1388 1450 50  0001 C CNN
F 3 "" H 1350 1600 50  0001 C CNN
	1    1350 1600
	0    1    1    0   
$EndComp
$Comp
L C L_C3
U 1 1 5A9E34DF
P 1900 1850
F 0 "L_C3" H 1925 1950 50  0000 L CNN
F 1 "47pF" H 1925 1750 50  0000 L CNN
F 2 "Capacitors_THT:C_Disc_D4.3mm_W1.9mm_P5.00mm" H 1938 1700 50  0001 C CNN
F 3 "" H 1900 1850 50  0001 C CNN
	1    1900 1850
	1    0    0    -1  
$EndComp
Connection ~ 1900 2100
Connection ~ 1000 2100
Wire Wire Line
	900  1600 1200 1600
Connection ~ 1000 1600
Wire Wire Line
	1900 2100 1900 2000
Connection ~ 1900 1600
Wire Wire Line
	1900 2100 1000 2100
Wire Wire Line
	1900 1600 1900 1700
Connection ~ 2200 800 
Connection ~ 2200 1600
$Comp
L C L_C2
U 1 1 5A9E40F1
P 2550 2100
F 0 "L_C2" H 2575 2200 50  0000 L CNN
F 1 "5pF" H 2575 2000 50  0000 L CNN
F 2 "Capacitors_THT:C_Disc_D4.3mm_W1.9mm_P5.00mm" H 2588 1950 50  0001 C CNN
F 3 "" H 2550 2100 50  0001 C CNN
	1    2550 2100
	0    1    1    0   
$EndComp
Wire Wire Line
	1000 600  1000 1700
Wire Wire Line
	1000 2000 1000 2200
Wire Wire Line
	1800 1600 2300 1600
Connection ~ 2200 2100
Wire Wire Line
	2200 1600 2200 2500
Wire Wire Line
	2200 2100 2400 2100
$Comp
L R L_R4
U 1 1 5A9E4348
P 2550 2500
F 0 "L_R4" V 2630 2500 50  0000 C CNN
F 1 "1M" V 2550 2500 50  0000 C CNN
F 2 "Resistors_THT:R_Axial_DIN0204_L3.6mm_D1.6mm_P7.62mm_Horizontal" V 2480 2500 50  0001 C CNN
F 3 "" H 2550 2500 50  0001 C CNN
	1    2550 2500
	0    1    1    0   
$EndComp
Wire Wire Line
	2200 2500 2400 2500
Connection ~ 3000 1500
Connection ~ 3000 2100
Connection ~ 3000 2500
Wire Wire Line
	3000 2500 2700 2500
Wire Wire Line
	3000 1500 3000 2600
Wire Wire Line
	3000 2100 2700 2100
Wire Wire Line
	2900 1500 3100 1500
$Comp
L C L_C7
U 1 1 5A9E4563
P 3000 2750
F 0 "L_C7" H 3025 2850 50  0000 L CNN
F 1 "1uF" H 3025 2650 50  0000 L CNN
F 2 "Capacitors_THT:C_Rect_L16.5mm_W4.7mm_P15.00mm_MKT" H 3038 2600 50  0001 C CNN
F 3 "" H 3000 2750 50  0001 C CNN
	1    3000 2750
	1    0    0    -1  
$EndComp
$Comp
L R L_R10
U 1 1 5A9E460B
P 2350 3000
F 0 "L_R10" V 2430 3000 50  0000 C CNN
F 1 "12k" V 2350 3000 50  0000 C CNN
F 2 "Resistors_THT:R_Axial_DIN0204_L3.6mm_D1.6mm_P7.62mm_Horizontal" V 2280 3000 50  0001 C CNN
F 3 "" H 2350 3000 50  0001 C CNN
	1    2350 3000
	0    1    1    0   
$EndComp
Wire Wire Line
	3000 2900 3000 3000
Wire Wire Line
	3000 3000 2500 3000
$Comp
L R L_R5
U 1 1 5A9E4760
P 3250 1500
F 0 "L_R5" V 3330 1500 50  0000 C CNN
F 1 "22k" V 3250 1500 50  0000 C CNN
F 2 "Resistors_THT:R_Axial_DIN0204_L3.6mm_D1.6mm_P7.62mm_Horizontal" V 3180 1500 50  0001 C CNN
F 3 "" H 3250 1500 50  0001 C CNN
	1    3250 1500
	0    1    1    0   
$EndComp
$Comp
L C L_C4
U 1 1 5A9E47BB
P 3500 1750
F 0 "L_C4" H 3525 1850 50  0000 L CNN
F 1 "1n" H 3525 1650 50  0000 L CNN
F 2 "Capacitors_THT:C_Disc_D8.0mm_W2.5mm_P5.00mm" H 3538 1600 50  0001 C CNN
F 3 "" H 3500 1750 50  0001 C CNN
	1    3500 1750
	1    0    0    -1  
$EndComp
Connection ~ 3500 1500
Wire Wire Line
	3500 1900 3500 3600
Wire Wire Line
	3500 1600 3500 1500
Wire Wire Line
	3500 800  3500 900 
Wire Wire Line
	3500 1200 3500 1300
Wire Wire Line
	3500 1300 3900 1300
$Comp
L C L_C5
U 1 1 5A9E53EA
P 4150 2100
F 0 "L_C5" H 4175 2200 50  0000 L CNN
F 1 "100pF" H 4175 2000 50  0000 L CNN
F 2 "Capacitors_THT:C_Disc_D4.3mm_W1.9mm_P5.00mm" H 4188 1950 50  0001 C CNN
F 3 "" H 4150 2100 50  0001 C CNN
	1    4150 2100
	0    1    1    0   
$EndComp
Connection ~ 3800 2100
Wire Wire Line
	3800 2100 4000 2100
$Comp
L R L_R7
U 1 1 5A9E53F3
P 4150 2500
F 0 "L_R7" V 4230 2500 50  0000 C CNN
F 1 "12k" V 4150 2500 50  0000 C CNN
F 2 "Resistors_THT:R_Axial_DIN0204_L3.6mm_D1.6mm_P7.62mm_Horizontal" V 4080 2500 50  0001 C CNN
F 3 "" H 4150 2500 50  0001 C CNN
	1    4150 2500
	0    1    1    0   
$EndComp
Wire Wire Line
	3800 2500 4000 2500
Wire Wire Line
	4600 2500 4300 2500
Wire Wire Line
	4600 2100 4300 2100
Wire Wire Line
	2200 1200 2200 1400
Wire Wire Line
	2200 1400 2300 1400
Wire Wire Line
	2200 800  3500 800 
Connection ~ 3800 1500
Wire Wire Line
	3400 1500 3900 1500
Connection ~ 3800 2500
Wire Wire Line
	4600 1400 4600 2500
Wire Wire Line
	3800 1500 3800 2600
Connection ~ 4600 2100
Connection ~ 4600 1400
Wire Wire Line
	4500 1400 4700 1400
$Comp
L R L_R21
U 1 1 5A9E5E31
P 3800 2750
F 0 "L_R21" V 3880 2750 50  0000 C CNN
F 1 "10k" V 3800 2750 50  0000 C CNN
F 2 "Resistors_THT:R_Axial_DIN0204_L3.6mm_D1.6mm_P7.62mm_Horizontal" V 3730 2750 50  0001 C CNN
F 3 "" H 3800 2750 50  0001 C CNN
	1    3800 2750
	1    0    0    -1  
$EndComp
$Comp
L R L_R8
U 1 1 5A9E6895
P 4850 1400
F 0 "L_R8" V 4930 1400 50  0000 C CNN
F 1 "470R" V 4850 1400 50  0000 C CNN
F 2 "Resistors_THT:R_Axial_DIN0204_L3.6mm_D1.6mm_P7.62mm_Horizontal" V 4780 1400 50  0001 C CNN
F 3 "" H 4850 1400 50  0001 C CNN
	1    4850 1400
	0    1    1    0   
$EndComp
$Comp
L R L_R9
U 1 1 5A9E6903
P 5400 1650
F 0 "L_R9" V 5480 1650 50  0000 C CNN
F 1 "100k" V 5400 1650 50  0000 C CNN
F 2 "Resistors_THT:R_Axial_DIN0204_L3.6mm_D1.6mm_P7.62mm_Horizontal" V 5330 1650 50  0001 C CNN
F 3 "" H 5400 1650 50  0001 C CNN
	1    5400 1650
	1    0    0    -1  
$EndComp
$Comp
L C L_C6
U 1 1 5A9E697B
P 5150 1400
F 0 "L_C6" H 5175 1500 50  0000 L CNN
F 1 "1uF" H 5175 1300 50  0000 L CNN
F 2 "Capacitors_THT:C_Rect_L16.5mm_W4.7mm_P15.00mm_MKT" H 5188 1250 50  0001 C CNN
F 3 "" H 5150 1400 50  0001 C CNN
	1    5150 1400
	0    1    1    0   
$EndComp
Connection ~ 5400 1400
Wire Wire Line
	5300 1400 6750 1400
Wire Wire Line
	5400 1400 5400 1500
$Comp
L GND #PWR17
U 1 1 5A9E6C10
P 5400 1950
F 0 "#PWR17" H 5400 1700 50  0001 C CNN
F 1 "GND" H 5400 1800 50  0000 C CNN
F 2 "" H 5400 1950 50  0001 C CNN
F 3 "" H 5400 1950 50  0001 C CNN
	1    5400 1950
	1    0    0    -1  
$EndComp
Wire Wire Line
	5400 1800 5400 1950
$Comp
L R L_R20
U 1 1 5A9E6FA1
P 4150 3000
F 0 "L_R20" V 4230 3000 50  0000 C CNN
F 1 "10k" V 4150 3000 50  0000 C CNN
F 2 "Resistors_THT:R_Axial_DIN0204_L3.6mm_D1.6mm_P7.62mm_Horizontal" V 4080 3000 50  0001 C CNN
F 3 "" H 4150 3000 50  0001 C CNN
	1    4150 3000
	0    1    1    0   
$EndComp
$Comp
L C L_C21
U 1 1 5A9E718F
P 3800 3250
F 0 "L_C21" H 3825 3350 50  0000 L CNN
F 1 "100pF" H 3825 3150 50  0000 L CNN
F 2 "Capacitors_THT:C_Disc_D4.3mm_W1.9mm_P5.00mm" H 3838 3100 50  0001 C CNN
F 3 "" H 3800 3250 50  0001 C CNN
	1    3800 3250
	1    0    0    -1  
$EndComp
$Comp
L C L_C20
U 1 1 5A9E7215
P 4550 3000
F 0 "L_C20" H 4575 3100 50  0000 L CNN
F 1 "1uF" H 4575 2900 50  0000 L CNN
F 2 "Capacitors_THT:C_Rect_L16.5mm_W4.7mm_P15.00mm_MKT" H 4588 2850 50  0001 C CNN
F 3 "" H 4550 3000 50  0001 C CNN
	1    4550 3000
	0    1    1    0   
$EndComp
Connection ~ 3500 3500
Connection ~ 3800 3000
Wire Wire Line
	3800 2900 3800 3100
Connection ~ 3800 3500
Wire Wire Line
	3800 3500 3800 3400
$Comp
L C L_C19
U 1 1 5A9E88DA
P 5450 3300
F 0 "L_C19" H 5475 3400 50  0000 L CNN
F 1 "68n" H 5475 3200 50  0000 L CNN
F 2 "Capacitors_THT:C_Disc_D8.0mm_W2.5mm_P5.00mm" H 5488 3150 50  0001 C CNN
F 3 "" H 5450 3300 50  0001 C CNN
	1    5450 3300
	1    0    0    -1  
$EndComp
$Comp
L C L_C16
U 1 1 5A9EA395
P 6550 2700
F 0 "L_C16" H 6575 2800 50  0000 L CNN
F 1 "10n" H 6575 2600 50  0000 L CNN
F 2 "Capacitors_THT:C_Disc_D8.0mm_W2.5mm_P5.00mm" H 6588 2550 50  0001 C CNN
F 3 "" H 6550 2700 50  0001 C CNN
	1    6550 2700
	0    1    1    0   
$EndComp
$Comp
L C L_C17
U 1 1 5A9EA43B
P 6050 2700
F 0 "L_C17" H 6075 2800 50  0000 L CNN
F 1 "1uF" H 6075 2600 50  0000 L CNN
F 2 "Capacitors_THT:C_Rect_L16.5mm_W4.7mm_P15.00mm_MKT" H 6088 2550 50  0001 C CNN
F 3 "" H 6050 2700 50  0001 C CNN
	1    6050 2700
	0    1    -1   0   
$EndComp
Wire Wire Line
	3800 3000 4000 3000
Wire Wire Line
	4300 3000 4400 3000
$Comp
L R L_R18
U 1 1 5A9EA70F
P 6300 2950
F 0 "L_R18" V 6380 2950 50  0000 C CNN
F 1 "2k7" V 6300 2950 50  0000 C CNN
F 2 "Resistors_THT:R_Axial_DIN0204_L3.6mm_D1.6mm_P7.62mm_Horizontal" V 6230 2950 50  0001 C CNN
F 3 "" H 6300 2950 50  0001 C CNN
	1    6300 2950
	1    0    0    -1  
$EndComp
$Comp
L R L_R19
U 1 1 5A9EA9A2
P 2100 3250
F 0 "L_R19" V 2180 3250 50  0000 C CNN
F 1 "20k" V 2100 3250 50  0000 C CNN
F 2 "Resistors_THT:R_Axial_DIN0204_L3.6mm_D1.6mm_P7.62mm_Horizontal" V 2030 3250 50  0001 C CNN
F 3 "" H 2100 3250 50  0001 C CNN
	1    2100 3250
	1    0    0    1   
$EndComp
$Comp
L C L_C18
U 1 1 5A9EAACE
P 2100 3600
F 0 "L_C18" H 2125 3700 50  0000 L CNN
F 1 "100n" H 2125 3500 50  0000 L CNN
F 2 "Capacitors_THT:C_Disc_D8.0mm_W2.5mm_P5.00mm" H 2138 3450 50  0001 C CNN
F 3 "" H 2100 3600 50  0001 C CNN
	1    2100 3600
	1    0    0    1   
$EndComp
$Comp
L R L_R14
U 1 1 5A9EAFBE
P 6300 4550
F 0 "L_R14" V 6380 4550 50  0000 C CNN
F 1 "22k" V 6300 4550 50  0000 C CNN
F 2 "Resistors_THT:R_Axial_DIN0204_L3.6mm_D1.6mm_P7.62mm_Horizontal" V 6230 4550 50  0001 C CNN
F 3 "" H 6300 4550 50  0001 C CNN
	1    6300 4550
	-1   0    0    1   
$EndComp
$Comp
L R L_R17
U 1 1 5A9EBF41
P 6300 5150
F 0 "L_R17" V 6380 5150 50  0000 C CNN
F 1 "12k" V 6300 5150 50  0000 C CNN
F 2 "Resistors_THT:R_Axial_DIN0204_L3.6mm_D1.6mm_P7.62mm_Horizontal" V 6230 5150 50  0001 C CNN
F 3 "" H 6300 5150 50  0001 C CNN
	1    6300 5150
	-1   0    0    1   
$EndComp
$Comp
L R L_R15
U 1 1 5A9EC08C
P 6000 4800
F 0 "L_R15" V 6080 4800 50  0000 C CNN
F 1 "12k" V 6000 4800 50  0000 C CNN
F 2 "Resistors_THT:R_Axial_DIN0204_L3.6mm_D1.6mm_P7.62mm_Horizontal" V 5930 4800 50  0001 C CNN
F 3 "" H 6000 4800 50  0001 C CNN
	1    6000 4800
	0    1    1    0   
$EndComp
$Comp
L R L_R16
U 1 1 5A9EC128
P 6000 5350
F 0 "L_R16" V 6080 5350 50  0000 C CNN
F 1 "12k" V 6000 5350 50  0000 C CNN
F 2 "Resistors_THT:R_Axial_DIN0204_L3.6mm_D1.6mm_P7.62mm_Horizontal" V 5930 5350 50  0001 C CNN
F 3 "" H 6000 5350 50  0001 C CNN
	1    6000 5350
	0    1    1    0   
$EndComp
$Comp
L C L_C15
U 1 1 5A9EC30D
P 6550 4800
F 0 "L_C15" H 6575 4900 50  0000 L CNN
F 1 "10n" H 6575 4700 50  0000 L CNN
F 2 "Capacitors_THT:C_Disc_D8.0mm_W2.5mm_P5.00mm" H 6588 4650 50  0001 C CNN
F 3 "" H 6550 4800 50  0001 C CNN
	1    6550 4800
	0    1    1    0   
$EndComp
$Comp
L C L_C14
U 1 1 5A9EC3AE
P 6550 5350
F 0 "L_C14" H 6575 5450 50  0000 L CNN
F 1 "10n" H 6575 5250 50  0000 L CNN
F 2 "Capacitors_THT:C_Disc_D8.0mm_W2.5mm_P5.00mm" H 6588 5200 50  0001 C CNN
F 3 "" H 6550 5350 50  0001 C CNN
	1    6550 5350
	0    1    1    0   
$EndComp
$Comp
L GND #PWR19
U 1 1 5A9EC4F7
P 6800 5600
F 0 "#PWR19" H 6800 5350 50  0001 C CNN
F 1 "GND" H 6800 5450 50  0000 C CNN
F 2 "" H 6800 5600 50  0001 C CNN
F 3 "" H 6800 5600 50  0001 C CNN
	1    6800 5600
	1    0    0    -1  
$EndComp
$Comp
L C L_C11
U 1 1 5A9EC714
P 5800 4550
F 0 "L_C11" H 5825 4650 50  0000 L CNN
F 1 "1n" H 5825 4450 50  0000 L CNN
F 2 "Capacitors_THT:C_Disc_D8.0mm_W2.5mm_P5.00mm" H 5838 4400 50  0001 C CNN
F 3 "" H 5800 4550 50  0001 C CNN
	1    5800 4550
	-1   0    0    1   
$EndComp
$Comp
L C L_C13
U 1 1 5A9EC8BC
P 5300 5550
F 0 "L_C13" H 5325 5650 50  0000 L CNN
F 1 "150n" H 5325 5450 50  0000 L CNN
F 2 "Capacitors_THT:C_Disc_D8.0mm_W2.5mm_P5.00mm" H 5338 5400 50  0001 C CNN
F 3 "" H 5300 5550 50  0001 C CNN
	1    5300 5550
	-1   0    0    1   
$EndComp
$Comp
L C L_C12
U 1 1 5A9ECA13
P 5600 5350
F 0 "L_C12" H 5625 5450 50  0000 L CNN
F 1 "68n" H 5625 5250 50  0000 L CNN
F 2 "Capacitors_THT:C_Disc_D8.0mm_W2.5mm_P5.00mm" H 5638 5200 50  0001 C CNN
F 3 "" H 5600 5350 50  0001 C CNN
	1    5600 5350
	0    1    1    0   
$EndComp
Connection ~ 6300 4800
Connection ~ 6300 5350
Wire Wire Line
	6150 5350 6400 5350
Wire Wire Line
	6150 4800 6400 4800
Wire Wire Line
	5750 5350 5850 5350
Connection ~ 5800 5350
Connection ~ 5450 3500
Connection ~ 4950 3500
Wire Wire Line
	5450 3500 5450 3450
Connection ~ 5450 2700
Connection ~ 5900 2700
Connection ~ 6300 2700
Wire Wire Line
	6200 2700 6400 2700
Wire Wire Line
	6300 2700 6300 2800
$Comp
L GND #PWR14
U 1 1 5AA10200
P 3500 3600
F 0 "#PWR14" H 3500 3350 50  0001 C CNN
F 1 "GND" H 3500 3450 50  0000 C CNN
F 2 "" H 3500 3600 50  0001 C CNN
F 3 "" H 3500 3600 50  0001 C CNN
	1    3500 3600
	1    0    0    -1  
$EndComp
Wire Wire Line
	5000 5300 5300 5300
Wire Wire Line
	5300 5300 5300 5400
Wire Wire Line
	5300 5700 5000 5700
Wire Wire Line
	5000 5700 5000 5400
Wire Wire Line
	5450 5100 5000 5100
Wire Wire Line
	6300 5350 6300 5300
Connection ~ 6800 5350
Connection ~ 6800 4800
Connection ~ 6800 2700
Wire Wire Line
	6700 2700 6800 2700
Wire Wire Line
	6800 2700 6800 5600
Wire Wire Line
	6800 4800 6700 4800
Wire Wire Line
	6800 5350 6700 5350
Wire Wire Line
	6300 4700 6300 5000
Wire Wire Line
	5450 5350 5450 5100
Wire Wire Line
	5000 5000 5800 5000
Wire Wire Line
	5800 5000 5800 5350
Connection ~ 5800 4800
Wire Wire Line
	5000 4800 5850 4800
Wire Wire Line
	5800 4800 5800 4700
Connection ~ 5800 4300
Connection ~ 6300 4300
Wire Wire Line
	6300 3100 6300 4400
Wire Wire Line
	5800 4400 5800 4300
Wire Wire Line
	5500 4300 6300 4300
Wire Wire Line
	5500 4300 5500 4700
Wire Wire Line
	5500 4700 5000 4700
Connection ~ 2100 3000
Wire Wire Line
	1600 3000 2200 3000
Wire Wire Line
	2100 3000 2100 3100
Wire Wire Line
	2100 3400 2100 3450
$Comp
L R L_R11
U 1 1 5AA18AA5
P 1700 3250
F 0 "L_R11" V 1780 3250 50  0000 C CNN
F 1 "12k" V 1700 3250 50  0000 C CNN
F 2 "Resistors_THT:R_Axial_DIN0204_L3.6mm_D1.6mm_P7.62mm_Horizontal" V 1630 3250 50  0001 C CNN
F 3 "" H 1700 3250 50  0001 C CNN
	1    1700 3250
	-1   0    0    1   
$EndComp
$Comp
L C L_C8
U 1 1 5AA18C13
P 1450 3000
F 0 "L_C8" H 1475 3100 50  0000 L CNN
F 1 "10n" H 1475 2900 50  0000 L CNN
F 2 "Capacitors_THT:C_Disc_D8.0mm_W2.5mm_P5.00mm" H 1488 2850 50  0001 C CNN
F 3 "" H 1450 3000 50  0001 C CNN
	1    1450 3000
	0    1    -1   0   
$EndComp
$Comp
L C L_C9
U 1 1 5AA18CCB
P 1450 3500
F 0 "L_C9" H 1475 3600 50  0000 L CNN
F 1 "10n" H 1475 3400 50  0000 L CNN
F 2 "Capacitors_THT:C_Disc_D8.0mm_W2.5mm_P5.00mm" H 1488 3350 50  0001 C CNN
F 3 "" H 1450 3500 50  0001 C CNN
	1    1450 3500
	0    1    -1   0   
$EndComp
Wire Wire Line
	2100 3750 2100 3800
Wire Wire Line
	2100 3800 2900 3800
Connection ~ 1700 3000
Connection ~ 1700 3500
$Comp
L GND #PWR11
U 1 1 5AA1AC30
P 1000 3600
F 0 "#PWR11" H 1000 3350 50  0001 C CNN
F 1 "GND" H 1000 3450 50  0000 C CNN
F 2 "" H 1000 3600 50  0001 C CNN
F 3 "" H 1000 3600 50  0001 C CNN
	1    1000 3600
	1    0    0    -1  
$EndComp
Connection ~ 1000 3500
Wire Wire Line
	1700 3100 1700 3000
Wire Wire Line
	1700 3400 1700 3700
Wire Wire Line
	1700 3500 1600 3500
Wire Wire Line
	1300 3500 1000 3500
Wire Wire Line
	1000 3000 1000 3600
Wire Wire Line
	1000 3000 1300 3000
$Comp
L C L_C10
U 1 1 5AA1BA64
P 1650 4050
F 0 "L_C10" H 1675 4150 50  0000 L CNN
F 1 "680pF" H 1675 3950 50  0000 L CNN
F 2 "Capacitors_THT:C_Disc_D4.3mm_W1.9mm_P5.00mm" H 1688 3900 50  0001 C CNN
F 3 "" H 1650 4050 50  0001 C CNN
	1    1650 4050
	0    -1   -1   0   
$EndComp
$Comp
L R L_R12
U 1 1 5AA1BD16
P 1350 3850
F 0 "L_R12" V 1430 3850 50  0000 C CNN
F 1 "12k" V 1350 3850 50  0000 C CNN
F 2 "Resistors_THT:R_Axial_DIN0204_L3.6mm_D1.6mm_P7.62mm_Horizontal" V 1280 3850 50  0001 C CNN
F 3 "" H 1350 3850 50  0001 C CNN
	1    1350 3850
	1    0    0    -1  
$EndComp
$Comp
L R L_R13
U 1 1 5AA1BE79
P 1900 3850
F 0 "L_R13" V 1980 3850 50  0000 C CNN
F 1 "47k" V 1900 3850 50  0000 C CNN
F 2 "Resistors_THT:R_Axial_DIN0204_L3.6mm_D1.6mm_P7.62mm_Horizontal" V 1830 3850 50  0001 C CNN
F 3 "" H 1900 3850 50  0001 C CNN
	1    1900 3850
	1    0    0    -1  
$EndComp
Connection ~ 1700 3700
Wire Wire Line
	1350 3700 1900 3700
Connection ~ 1350 4050
Connection ~ 1900 4050
Wire Wire Line
	1350 4000 1350 4200
Wire Wire Line
	1350 4050 1500 4050
Wire Wire Line
	1800 4050 5400 4050
Wire Wire Line
	1900 4050 1900 4000
Wire Wire Line
	5400 4050 5400 4500
Wire Wire Line
	5400 4500 5000 4500
Wire Wire Line
	1350 4200 5200 4200
Wire Wire Line
	5200 4200 5200 4400
Wire Wire Line
	5200 4400 5000 4400
Text GLabel 1300 4400 0    60   Input ~ 0
+5V
Connection ~ 2100 4400
Connection ~ 2500 4400
Wire Wire Line
	1300 4400 4000 4400
$Comp
L C L_C23
U 1 1 5AA25CD4
P 2500 4650
F 0 "L_C23" H 2525 4750 50  0000 L CNN
F 1 "100n" H 2525 4550 50  0000 L CNN
F 2 "Capacitors_THT:C_Disc_D8.0mm_W2.5mm_P5.00mm" H 2538 4500 50  0001 C CNN
F 3 "" H 2500 4650 50  0001 C CNN
	1    2500 4650
	1    0    0    1   
$EndComp
$Comp
L CP1 L_C22
U 1 1 5AA26902
P 2100 4650
F 0 "L_C22" H 2125 4750 50  0000 L CNN
F 1 "10uF" H 2125 4550 50  0000 L CNN
F 2 "Capacitors_THT:CP_Radial_D5.0mm_P2.50mm" H 2100 4650 50  0001 C CNN
F 3 "" H 2100 4650 50  0001 C CNN
	1    2100 4650
	1    0    0    -1  
$EndComp
$Comp
L R L_R22
U 1 1 5AA27B64
P 3200 5100
F 0 "L_R22" V 3280 5100 50  0000 C CNN
F 1 "2k2" V 3200 5100 50  0000 C CNN
F 2 "Resistors_THT:R_Axial_DIN0204_L3.6mm_D1.6mm_P7.62mm_Horizontal" V 3130 5100 50  0001 C CNN
F 3 "" H 3200 5100 50  0001 C CNN
	1    3200 5100
	0    1    1    0   
$EndComp
$Comp
L C L_C26
U 1 1 5AA280EA
P 3200 5800
F 0 "L_C26" H 3225 5900 50  0000 L CNN
F 1 "100n" H 3225 5700 50  0000 L CNN
F 2 "Capacitors_THT:C_Disc_D8.0mm_W2.5mm_P5.00mm" H 3238 5650 50  0001 C CNN
F 3 "" H 3200 5800 50  0001 C CNN
	1    3200 5800
	0    1    -1   0   
$EndComp
$Comp
L CP1 L_C24
U 1 1 5AA280F0
P 3200 4650
F 0 "L_C24" H 3225 4750 50  0000 L CNN
F 1 "47uF" H 3225 4550 50  0000 L CNN
F 2 "Capacitors_THT:CP_Radial_D5.0mm_P2.50mm" H 3200 4650 50  0001 C CNN
F 3 "" H 3200 4650 50  0001 C CNN
	1    3200 4650
	1    0    0    -1  
$EndComp
$Comp
L C L_C25
U 1 1 5AA283D0
P 3200 5500
F 0 "L_C25" H 3225 5600 50  0000 L CNN
F 1 "100n" H 3225 5400 50  0000 L CNN
F 2 "Capacitors_THT:C_Disc_D8.0mm_W2.5mm_P5.00mm" H 3238 5350 50  0001 C CNN
F 3 "" H 3200 5500 50  0001 C CNN
	1    3200 5500
	0    1    -1   0   
$EndComp
Wire Wire Line
	3350 5100 4000 5100
Wire Wire Line
	3350 5500 3350 5300
Wire Wire Line
	3350 5300 4000 5300
Wire Wire Line
	3500 5400 4000 5400
Wire Wire Line
	3500 5400 3500 5800
Wire Wire Line
	3500 5800 3350 5800
Wire Wire Line
	2400 5100 3050 5100
Connection ~ 2750 5500
Wire Wire Line
	1050 5500 3050 5500
Wire Wire Line
	2750 5300 2750 5500
$Comp
L GND #PWR12
U 1 1 5AA2F463
P 1050 6100
F 0 "#PWR12" H 1050 5850 50  0001 C CNN
F 1 "GND" H 1050 5950 50  0000 C CNN
F 2 "" H 1050 6100 50  0001 C CNN
F 3 "" H 1050 6100 50  0001 C CNN
	1    1050 6100
	1    0    0    -1  
$EndComp
Connection ~ 1050 5800
Wire Wire Line
	4000 4500 3200 4500
Wire Wire Line
	4000 4700 3500 4700
Wire Wire Line
	3500 4700 3500 4850
Connection ~ 2100 4850
Connection ~ 2500 4850
Connection ~ 3200 4850
Connection ~ 3500 4850
Wire Wire Line
	1050 4850 4000 4850
Wire Wire Line
	4000 4850 4000 4800
Wire Wire Line
	3200 4850 3200 4800
Wire Wire Line
	2500 4800 2500 4850
Wire Wire Line
	2500 4500 2500 4400
Wire Wire Line
	2100 4400 2100 4500
Wire Wire Line
	2100 4800 2100 4850
Wire Wire Line
	1050 5800 3050 5800
Connection ~ 1050 5500
Wire Wire Line
	1050 4850 1050 6100
NoConn ~ 4000 5000
$Comp
L GND #PWR13
U 1 1 5AA7783E
P 2500 1800
F 0 "#PWR13" H 2500 1550 50  0001 C CNN
F 1 "GND" H 2500 1650 50  0000 C CNN
F 2 "" H 2500 1800 50  0001 C CNN
F 3 "" H 2500 1800 50  0001 C CNN
	1    2500 1800
	1    0    0    -1  
$EndComp
$Comp
L GND #PWR15
U 1 1 5AA77931
P 4100 1700
F 0 "#PWR15" H 4100 1450 50  0001 C CNN
F 1 "GND" H 4100 1550 50  0000 C CNN
F 2 "" H 4100 1700 50  0001 C CNN
F 3 "" H 4100 1700 50  0001 C CNN
	1    4100 1700
	1    0    0    -1  
$EndComp
Text GLabel 4100 950  2    60   Input ~ 0
IC1_PWR
Wire Wire Line
	4100 1100 4100 950 
Text GLabel 2550 1000 2    60   Input ~ 0
IC1_PWR
Wire Wire Line
	2500 1200 2500 1000
Wire Wire Line
	2500 1000 2550 1000
Text GLabel 6400 1000 1    60   Input ~ 0
L_LED
Text GLabel 6200 1300 1    60   Input ~ 0
L_IN
Text GLabel 5800 1400 1    60   Input ~ 0
L_OUT
$Comp
L Screw_Terminal_01x03 L_RPT201
U 1 1 5AA58C27
P 3000 3300
F 0 "L_RPT201" H 3000 3500 50  0000 C CNN
F 1 "Screw_Terminal_01x03" H 3000 3100 50  0000 C CNN
F 2 "Connectors_Terminal_Blocks:TerminalBlock_Altech_AK300-3_P5.00mm" H 3000 3300 50  0001 C CNN
F 3 "" H 3000 3300 50  0001 C CNN
	1    3000 3300
	0    -1   -1   0   
$EndComp
$Comp
L Screw_Terminal_01x02 L_TONE201
U 1 1 5AA58FD0
P 5650 2900
F 0 "L_TONE201" H 5650 3000 50  0000 C CNN
F 1 "Screw_Terminal_01x02" H 5650 2700 50  0000 C CNN
F 2 "Connectors_Terminal_Blocks:TerminalBlock_Altech_AK300-2_P5.00mm" H 5650 2900 50  0001 C CNN
F 3 "" H 5650 2900 50  0001 C CNN
	1    5650 2900
	1    0    0    -1  
$EndComp
$Comp
L Screw_Terminal_01x03 L_LVL201
U 1 1 5AA59459
P 5350 2350
F 0 "L_LVL201" H 5350 2550 50  0000 C CNN
F 1 "Screw_Terminal_01x03" H 5350 2150 50  0000 C CNN
F 2 "Connectors_Terminal_Blocks:TerminalBlock_Altech_AK300-3_P5.00mm" H 5350 2350 50  0001 C CNN
F 3 "" H 5350 2350 50  0001 C CNN
	1    5350 2350
	0    1    -1   0   
$EndComp
Wire Wire Line
	2200 900  2200 800 
Wire Wire Line
	1000 600  6100 600 
Wire Wire Line
	6100 600  6100 1300
Wire Wire Line
	6100 1300 6750 1300
Wire Wire Line
	6400 1000 6400 1200
Wire Wire Line
	5450 3150 5450 3000
Wire Wire Line
	5450 2550 5450 2900
Wire Wire Line
	5900 2700 5450 2700
Wire Wire Line
	4700 3000 5350 3000
Wire Wire Line
	2900 3800 2900 3500
Wire Wire Line
	3100 3500 5450 3500
Wire Wire Line
	3000 3500 3000 3800
Wire Wire Line
	5900 2700 5900 3800
Wire Wire Line
	5900 3800 3000 3800
$Comp
L Screw_Terminal_01x03 L_DELAY201
U 1 1 5AA5DDCA
P 2200 5200
F 0 "L_DELAY201" H 2200 5400 50  0000 C CNN
F 1 "Screw_Terminal_01x03" H 2200 5000 50  0000 C CNN
F 2 "Connectors_Terminal_Blocks:TerminalBlock_Altech_AK300-3_P5.00mm" H 2200 5200 50  0001 C CNN
F 3 "" H 2200 5200 50  0001 C CNN
	1    2200 5200
	-1   0    0    1   
$EndComp
Wire Wire Line
	2750 5300 2400 5300
Connection ~ 2750 5100
Wire Wire Line
	2750 5100 2750 5200
Wire Wire Line
	2750 5200 2400 5200
$Comp
L Screw_Terminal_01x02 L_IO1
U 1 1 5AADA866
P 6950 1300
F 0 "L_IO1" H 6950 1400 50  0000 C CNN
F 1 "Screw_Terminal_01x02" H 6950 1100 50  0000 C CNN
F 2 "Connectors_Terminal_Blocks:TerminalBlock_Altech_AK300-2_P5.00mm" H 6950 1300 50  0001 C CNN
F 3 "" H 6950 1300 50  0001 C CNN
	1    6950 1300
	1    0    0    -1  
$EndComp
$Comp
L Screw_Terminal_01x02 L_LEDGND1
U 1 1 5AADA92D
P 6900 950
F 0 "L_LEDGND1" H 6900 1050 50  0000 C CNN
F 1 "Screw_Terminal_01x02" H 6900 750 50  0000 C CNN
F 2 "Connectors_Terminal_Blocks:TerminalBlock_Altech_AK300-2_P5.00mm" H 6900 950 50  0001 C CNN
F 3 "" H 6900 950 50  0001 C CNN
	1    6900 950 
	1    0    0    -1  
$EndComp
Wire Wire Line
	6400 1200 6700 1200
Wire Wire Line
	6700 1200 6700 1050
$Comp
L GND #PWR18
U 1 1 5AADB15C
P 6550 850
F 0 "#PWR18" H 6550 600 50  0001 C CNN
F 1 "GND" H 6550 700 50  0000 C CNN
F 2 "" H 6550 850 50  0001 C CNN
F 3 "" H 6550 850 50  0001 C CNN
	1    6550 850 
	1    0    0    -1  
$EndComp
Wire Wire Line
	6700 950  6700 800 
Wire Wire Line
	6700 800  6550 800 
Wire Wire Line
	6550 800  6550 850 
Wire Wire Line
	5350 3000 5350 2550
$Comp
L GND #PWR16
U 1 1 5AADBC6B
P 5250 2650
F 0 "#PWR16" H 5250 2400 50  0001 C CNN
F 1 "GND" H 5250 2500 50  0000 C CNN
F 2 "" H 5250 2650 50  0001 C CNN
F 3 "" H 5250 2650 50  0001 C CNN
	1    5250 2650
	1    0    0    -1  
$EndComp
Wire Wire Line
	5250 2550 5250 2650
$EndSCHEMATC
