M48
;DRILL file {KiCad 4.0.7} date Sunday, 18 March 2018 11:23:00
;FORMAT={2:4/ absolute / inch / suppress leading zeros}
FMAT,2
INCH,TZ
T1C0.028
T2C0.031
T3C0.043
T4C0.052
T5C0.087
%
G90
G05
M72
T1
X14100Y-61300
X14550Y-51700
X15250Y-51700
X15950Y-51700
X17000Y-23200
X17000Y-26200
X17100Y-61300
X17800Y-35100
X17800Y-40800
X17800Y-43800
X17850Y-37000
X17850Y-40000
X18700Y-47700
X19400Y-41000
X19400Y-44000
X20200Y-28000
X20800Y-35100
X21100Y-27200
X21100Y-28100
X21400Y-22000
X21450Y-53550
X21450Y-54550
X21450Y-55550
X21450Y-56550
X21450Y-57550
X21450Y-58550
X21500Y-22850
X21500Y-25850
X21500Y-60700
X21600Y-35100
X21650Y-38950
X21650Y-41950
X21700Y-47700
X22400Y-19400
X23400Y-20400
X23600Y-48400
X23800Y-26400
X23800Y-29400
X24400Y-19400
X24400Y-22000
X24450Y-53550
X24450Y-54550
X24450Y-55550
X24450Y-56550
X24450Y-57550
X24450Y-58550
X24500Y-60700
X24600Y-35100
X24700Y-43200
X24750Y-24500
X24750Y-27500
X25000Y-38500
X25700Y-55600
X25700Y-58600
X25750Y-24500
X25750Y-27500
X26600Y-48400
X26600Y-55600
X26600Y-58600
X27500Y-52500
X27500Y-55500
X27700Y-43200
X28000Y-38500
X28400Y-52500
X28400Y-55500
X28700Y-22700
X28700Y-25700
X28700Y-26500
X28700Y-29500
X29900Y-23700
X30000Y-26500
X30000Y-29500
X30000Y-30400
X30050Y-25250
X30800Y-24900
X31400Y-25300
X31800Y-45400
X32000Y-26500
X32000Y-29500
X32750Y-52800
X32750Y-55800
X32900Y-23700
X33000Y-30400
X33800Y-33600
X33800Y-35650
X34250Y-52300
X34250Y-57800
X34250Y-58800
X34250Y-59800
X34250Y-60800
X34550Y-25600
X34550Y-28600
X34800Y-45400
X36800Y-33600
X36800Y-35650
X36850Y-25600
X37250Y-52300
X37250Y-57800
X37250Y-58800
X37250Y-59800
X37250Y-60800
X38300Y-52300
X38300Y-55300
X38300Y-57300
X38300Y-58200
X39200Y-52300
X39200Y-55300
X39850Y-25600
X41300Y-57300
X41300Y-58200
T2
X10931Y-59300
X10931Y-60400
X11400Y-53416
X11400Y-54400
X12016Y-51600
X12400Y-27700
X12900Y-59300
X12900Y-60400
X13000Y-51600
X13000Y-53331
X13000Y-55300
X13384Y-27700
X14100Y-53300
X14100Y-54300
X14100Y-55300
X14100Y-56300
X14100Y-57300
X14100Y-58300
X14100Y-59300
X14100Y-60300
X14966Y-49650
X15916Y-27700
X15950Y-49650
X16900Y-27700
X17100Y-53300
X17100Y-54300
X17100Y-55300
X17100Y-56300
X17100Y-57300
X17100Y-58300
X17100Y-59300
X17100Y-60300
X17200Y-22100
X17800Y-44700
X17800Y-47700
X17850Y-36100
X18131Y-54300
X18150Y-27750
X18150Y-29719
X18400Y-56600
X18431Y-58400
X18431Y-59600
X19169Y-22100
X19200Y-24131
X19200Y-26100
X20100Y-54300
X20369Y-56600
X20400Y-23800
X20400Y-25769
X20400Y-58400
X20400Y-59600
X20850Y-31200
X20850Y-34200
X20850Y-36100
X21400Y-50331
X21400Y-52300
X21400Y-61800
X22100Y-59600
X22700Y-24431
X22700Y-26400
X22700Y-38931
X22700Y-40900
X23369Y-61800
X24000Y-36500
X24000Y-38469
X24069Y-59600
X24400Y-50331
X24400Y-52300
X25600Y-22700
X25600Y-50300
X25600Y-52269
X25800Y-59831
X25800Y-61800
X26000Y-36500
X26031Y-39500
X26700Y-34016
X26700Y-35000
X26750Y-24500
X26750Y-26469
X27569Y-22700
X27600Y-48431
X27600Y-50400
X27800Y-26500
X27800Y-28469
X27950Y-59100
X27969Y-36500
X28000Y-39500
X29000Y-35500
X29000Y-36500
X29000Y-37500
X29000Y-38500
X29000Y-39500
X29000Y-40500
X29000Y-41500
X29000Y-42500
X29550Y-34300
X29900Y-22700
X29919Y-59100
X30500Y-53831
X30500Y-55800
X31000Y-26500
X31000Y-29500
X31116Y-57850
X31519Y-34300
X31750Y-53800
X31750Y-55769
X31869Y-22700
X32000Y-35500
X32000Y-36500
X32000Y-37500
X32000Y-38500
X32000Y-39500
X32000Y-40500
X32000Y-41500
X32000Y-42500
X32100Y-57850
X34250Y-53550
X34250Y-54550
X34250Y-55550
X34250Y-56550
X34550Y-29600
X34600Y-22400
X34600Y-23384
X35031Y-61900
X36500Y-22400
X36500Y-24369
X36519Y-29600
X37000Y-61900
X37250Y-53550
X37250Y-54550
X37250Y-55550
X37250Y-56550
X37831Y-22400
X38331Y-56300
X39800Y-22400
X40300Y-56300
X40500Y-59800
X40500Y-61769
X41600Y-59800
X41600Y-61769
T3
X24444Y-32450
X27000Y-60700
X28794Y-50600
X30350Y-32450
X32906Y-60700
X34700Y-50600
X36300Y-45300
X36300Y-51206
X38900Y-59194
X38900Y-65100
T4
X14000Y-20600
X14000Y-22569
X14000Y-24537
X14100Y-65000
X14500Y-30550
X14500Y-32519
X14500Y-34500
X14500Y-36600
X14500Y-38569
X14500Y-40650
X14500Y-42600
X14500Y-44700
X14500Y-46669
X16069Y-65000
X17900Y-18950
X18037Y-65000
X19869Y-18950
X20150Y-65000
X22119Y-65000
X24087Y-65000
X26200Y-65000
X26850Y-19100
X28169Y-65000
X28800Y-19100
X30250Y-65000
X30900Y-19100
X32219Y-65000
X32869Y-19100
X34187Y-65000
X34837Y-19100
X36950Y-19100
X38919Y-19100
X39800Y-27600
X39800Y-29600
X39800Y-31550
X39800Y-33663
X39800Y-35631
X39800Y-37600
X39800Y-39681
X39800Y-41650
X39800Y-43731
X39800Y-45700
X39800Y-47781
X39800Y-49750
X40887Y-19100
T5
X12000Y-64900
X12600Y-17300
X13050Y-49150
X19150Y-31350
X41000Y-65150
X41300Y-51900
X41900Y-22700
T0
M30
