(export (version D)
  (design
    (source "/Users/jh/Documents/pedals3_1 copy/pedals3_1.sch")
    (date "Saturday, 17 March 2018 23:01:49")
    (tool "Eeschema 4.0.7")
    (sheet (number 1) (name /) (tstamps /)
      (title_block
        (title)
        (company)
        (rev)
        (date)
        (source pedals3_1.sch)
        (comment (number 1) (value ""))
        (comment (number 2) (value ""))
        (comment (number 3) (value ""))
        (comment (number 4) (value ""))))
    (sheet (number 2) (name "/Leviathan sheet 2/") (tstamps /5AA1CA8C/)
      (title_block
        (title)
        (company)
        (rev)
        (date)
        (source "Leviathan sheet 2.sch")
        (comment (number 1) (value ""))
        (comment (number 2) (value ""))
        (comment (number 3) (value ""))
        (comment (number 4) (value "")))))
  (components
    (comp (ref C_D1)
      (value D1N5817)
      (footprint Diodes_THT:D_DO-35_SOD27_P7.62mm_Horizontal)
      (libsource (lib device) (part D))
      (sheetpath (names /) (tstamps /))
      (tstamp 5A9C6E1A))
    (comp (ref C_R14)
      (value 4k7)
      (footprint Resistors_THT:R_Axial_DIN0204_L3.6mm_D1.6mm_P7.62mm_Horizontal)
      (libsource (lib device) (part R))
      (sheetpath (names /) (tstamps /))
      (tstamp 5A9C6E9F))
    (comp (ref C_C14)
      (value 100uF)
      (footprint Capacitors_THT:CP_Radial_D5.0mm_P2.50mm)
      (libsource (lib device) (part CP1))
      (sheetpath (names /) (tstamps /))
      (tstamp 5A9C708C))
    (comp (ref C_C15)
      (value 100n)
      (footprint Capacitors_THT:C_Disc_D8.0mm_W2.5mm_P5.00mm)
      (libsource (lib device) (part C))
      (sheetpath (names /) (tstamps /))
      (tstamp 5A9C712E))
    (comp (ref C_R12)
      (value 8k2)
      (footprint Resistors_THT:R_Axial_DIN0204_L3.6mm_D1.6mm_P7.62mm_Horizontal)
      (libsource (lib device) (part R))
      (sheetpath (names /) (tstamps /))
      (tstamp 5A9C7E5B))
    (comp (ref C_R11)
      (value 2k7)
      (footprint Resistors_THT:R_Axial_DIN0204_L3.6mm_D1.6mm_P7.62mm_Horizontal)
      (libsource (lib device) (part R))
      (sheetpath (names /) (tstamps /))
      (tstamp 5A9C7EA6))
    (comp (ref C_R13)
      (value 33k)
      (footprint Resistors_THT:R_Axial_DIN0204_L3.6mm_D1.6mm_P7.62mm_Horizontal)
      (libsource (lib device) (part R))
      (sheetpath (names /) (tstamps /))
      (tstamp 5A9C7EDA))
    (comp (ref C_C11)
      (value 100n)
      (footprint Capacitors_THT:C_Disc_D8.0mm_W2.5mm_P5.00mm)
      (libsource (lib device) (part C))
      (sheetpath (names /) (tstamps /))
      (tstamp 5A9C809B))
    (comp (ref C_C12)
      (value 3n3)
      (footprint Capacitors_THT:C_Disc_D8.0mm_W2.5mm_P5.00mm)
      (libsource (lib device) (part C))
      (sheetpath (names /) (tstamps /))
      (tstamp 5A9C8AE8))
    (comp (ref C_C13)
      (value 4n7)
      (footprint Capacitors_THT:C_Disc_D8.0mm_W2.5mm_P5.00mm)
      (libsource (lib device) (part C))
      (sheetpath (names /) (tstamps /))
      (tstamp 5A9CA3A8))
    (comp (ref C_Q3)
      (value AC127)
      (footprint TO_SOT_Packages_THT:TO-11-3)
      (libsource (lib transistors) (part AC127))
      (sheetpath (names /) (tstamps /))
      (tstamp 5A9CB04C))
    (comp (ref C_C9)
      (value 1n)
      (footprint Capacitors_THT:C_Disc_D8.0mm_W2.5mm_P5.00mm)
      (libsource (lib device) (part C))
      (sheetpath (names /) (tstamps /))
      (tstamp 5A9CBA3A))
    (comp (ref C_R10)
      (value 100k)
      (footprint Resistors_THT:R_Axial_DIN0204_L3.6mm_D1.6mm_P7.62mm_Horizontal)
      (libsource (lib device) (part R))
      (sheetpath (names /) (tstamps /))
      (tstamp 5A9CBA91))
    (comp (ref C_R9)
      (value 33k)
      (footprint Resistors_THT:R_Axial_DIN0204_L3.6mm_D1.6mm_P7.62mm_Horizontal)
      (libsource (lib device) (part R))
      (sheetpath (names /) (tstamps /))
      (tstamp 5A9CBB22))
    (comp (ref C_C10)
      (value 100uF)
      (footprint Capacitors_THT:CP_Radial_D5.0mm_P2.50mm)
      (libsource (lib device) (part CP1))
      (sheetpath (names /) (tstamps /))
      (tstamp 5A9CBB7E))
    (comp (ref C_R8)
      (value 100k)
      (footprint Resistors_THT:R_Axial_DIN0204_L3.6mm_D1.6mm_P7.62mm_Horizontal)
      (libsource (lib device) (part R))
      (sheetpath (names /) (tstamps /))
      (tstamp 5A9CCB29))
    (comp (ref C_C8)
      (value 1n)
      (footprint Capacitors_THT:C_Disc_D8.0mm_W2.5mm_P5.00mm)
      (libsource (lib device) (part C))
      (sheetpath (names /) (tstamps /))
      (tstamp 5A9CCB80))
    (comp (ref C_C7)
      (value 470pF)
      (footprint Capacitors_THT:C_Disc_D4.3mm_W1.9mm_P5.00mm)
      (libsource (lib device) (part C))
      (sheetpath (names /) (tstamps /))
      (tstamp 5A9CCBE3))
    (comp (ref C_Q2)
      (value BC109)
      (footprint TO_SOT_Packages_THT:TO-18-3)
      (libsource (lib transistors) (part BC109))
      (sheetpath (names /) (tstamps /))
      (tstamp 5A9CDD0B))
    (comp (ref C_R7)
      (value 100R)
      (footprint Resistors_THT:R_Axial_DIN0204_L3.6mm_D1.6mm_P7.62mm_Horizontal)
      (libsource (lib device) (part R))
      (sheetpath (names /) (tstamps /))
      (tstamp 5A9D0A58))
    (comp (ref C_C4)
      (value 15n)
      (footprint Capacitors_THT:C_Disc_D8.0mm_W2.5mm_P5.00mm)
      (libsource (lib device) (part C))
      (sheetpath (names /) (tstamps /))
      (tstamp 5A9D0C3B))
    (comp (ref C_C5)
      (value 220n)
      (footprint Capacitors_THT:C_Disc_D8.0mm_W2.5mm_P5.00mm)
      (libsource (lib device) (part C))
      (sheetpath (names /) (tstamps /))
      (tstamp 5A9D0CB8))
    (comp (ref C_R6)
      (value 820R)
      (footprint Resistors_THT:R_Axial_DIN0204_L3.6mm_D1.6mm_P7.62mm_Horizontal)
      (libsource (lib device) (part R))
      (sheetpath (names /) (tstamps /))
      (tstamp 5A9D0DDE))
    (comp (ref C_C6)
      (value 4n7)
      (footprint Capacitors_THT:C_Disc_D8.0mm_W2.5mm_P5.00mm)
      (libsource (lib device) (part C))
      (sheetpath (names /) (tstamps /))
      (tstamp 5A9D10AE))
    (comp (ref C_R5)
      (value 2k7)
      (footprint Resistors_THT:R_Axial_DIN0204_L3.6mm_D1.6mm_P7.62mm_Horizontal)
      (libsource (lib device) (part R))
      (sheetpath (names /) (tstamps /))
      (tstamp 5A9D2A87))
    (comp (ref C_R4)
      (value 1M)
      (footprint Resistors_THT:R_Axial_DIN0204_L3.6mm_D1.6mm_P7.62mm_Horizontal)
      (libsource (lib device) (part R))
      (sheetpath (names /) (tstamps /))
      (tstamp 5A9D2B42))
    (comp (ref C_C2)
      (value 200pF)
      (footprint Capacitors_THT:C_Disc_D4.3mm_W1.9mm_P5.00mm)
      (libsource (lib device) (part C))
      (sheetpath (names /) (tstamps /))
      (tstamp 5A9D2BC6))
    (comp (ref C_R3)
      (value 680R)
      (footprint Resistors_THT:R_Axial_DIN0204_L3.6mm_D1.6mm_P7.62mm_Horizontal)
      (libsource (lib device) (part R))
      (sheetpath (names /) (tstamps /))
      (tstamp 5A9D2E6A))
    (comp (ref C_C3)
      (value 100uF)
      (footprint Capacitors_THT:CP_Radial_D5.0mm_P2.50mm)
      (libsource (lib device) (part CP1))
      (sheetpath (names /) (tstamps /))
      (tstamp 5A9D3246))
    (comp (ref C_Q1)
      (value BS170)
      (footprint TO_SOT_Packages_THT:TO-92_Molded_Narrow)
      (libsource (lib transistors) (part BS170))
      (sheetpath (names /) (tstamps /))
      (tstamp 5A9D387B))
    (comp (ref C_D2)
      (value 9.1v)
      (footprint Diodes_THT:D_DO-35_SOD27_P7.62mm_Horizontal)
      (libsource (lib device) (part D_Zener))
      (sheetpath (names /) (tstamps /))
      (tstamp 5A9D6854))
    (comp (ref C_R2)
      (value 100R)
      (footprint Resistors_THT:R_Axial_DIN0204_L3.6mm_D1.6mm_P7.62mm_Horizontal)
      (libsource (lib device) (part R))
      (sheetpath (names /) (tstamps /))
      (tstamp 5A9DA3D0))
    (comp (ref C_R1)
      (value 1M)
      (footprint Resistors_THT:R_Axial_DIN0204_L3.6mm_D1.6mm_P7.62mm_Horizontal)
      (libsource (lib device) (part R))
      (sheetpath (names /) (tstamps /))
      (tstamp 5A9DA647))
    (comp (ref C_C1)
      (value 47n)
      (footprint Capacitors_THT:C_Disc_D8.0mm_W2.5mm_P5.00mm)
      (libsource (lib device) (part C))
      (sheetpath (names /) (tstamps /))
      (tstamp 5A9DA787))
    (comp (ref S_D1)
      (value D1N5817)
      (footprint Diodes_THT:D_DO-35_SOD27_P7.62mm_Horizontal)
      (libsource (lib device) (part D))
      (sheetpath (names /) (tstamps /))
      (tstamp 5A9E300A))
    (comp (ref S_R7)
      (value 4k7)
      (footprint Resistors_THT:R_Axial_DIN0204_L3.6mm_D1.6mm_P7.62mm_Horizontal)
      (libsource (lib device) (part R))
      (sheetpath (names /) (tstamps /))
      (tstamp 5A9E3010))
    (comp (ref S_C6)
      (value 100uF)
      (footprint Capacitors_THT:CP_Radial_D5.0mm_P2.50mm)
      (libsource (lib device) (part CP1))
      (sheetpath (names /) (tstamps /))
      (tstamp 5A9E3016))
    (comp (ref S_C7)
      (value 100n)
      (footprint Capacitors_THT:C_Disc_D8.0mm_W2.5mm_P5.00mm)
      (libsource (lib device) (part C))
      (sheetpath (names /) (tstamps /))
      (tstamp 5A9E301C))
    (comp (ref P_R1)
      (value 100R)
      (footprint Resistors_THT:R_Axial_DIN0204_L3.6mm_D1.6mm_P7.62mm_Horizontal)
      (libsource (lib device) (part R))
      (sheetpath (names /) (tstamps /))
      (tstamp 5A9E3DEF))
    (comp (ref P_R2)
      (value 100R)
      (footprint Resistors_THT:R_Axial_DIN0204_L3.6mm_D1.6mm_P7.62mm_Horizontal)
      (libsource (lib device) (part R))
      (sheetpath (names /) (tstamps /))
      (tstamp 5A9E41A4))
    (comp (ref P_R3)
      (value 100R)
      (footprint Resistors_THT:R_Axial_DIN0204_L3.6mm_D1.6mm_P7.62mm_Horizontal)
      (libsource (lib device) (part R))
      (sheetpath (names /) (tstamps /))
      (tstamp 5A9E4255))
    (comp (ref S_R4)
      (value 330R)
      (footprint Resistors_THT:R_Axial_DIN0204_L3.6mm_D1.6mm_P7.62mm_Horizontal)
      (libsource (lib device) (part R))
      (sheetpath (names /) (tstamps /))
      (tstamp 5A9E8819))
    (comp (ref S_IC1)
      (value 4049)
      (footprint Housings_DIP:DIP-16_W7.62mm_LongPads)
      (libsource (lib cmos4000) (part 4049))
      (sheetpath (names /) (tstamps /))
      (tstamp 5A9E9277))
    (comp (ref S_C1)
      (value 68n)
      (footprint Capacitors_THT:C_Disc_D8.0mm_W2.5mm_P5.00mm)
      (libsource (lib device) (part C))
      (sheetpath (names /) (tstamps /))
      (tstamp 5A9EEC28))
    (comp (ref S_C2)
      (value 51pF)
      (footprint Capacitors_THT:C_Disc_D4.3mm_W1.9mm_P5.00mm)
      (libsource (lib device) (part C))
      (sheetpath (names /) (tstamps /))
      (tstamp 5A9EEEC4))
    (comp (ref S_C3)
      (value 33n)
      (footprint Capacitors_THT:C_Disc_D8.0mm_W2.5mm_P5.00mm)
      (libsource (lib device) (part C))
      (sheetpath (names /) (tstamps /))
      (tstamp 5A9EF126))
    (comp (ref S_R2)
      (value 100k)
      (footprint Resistors_THT:R_Axial_DIN0204_L3.6mm_D1.6mm_P7.62mm_Horizontal)
      (libsource (lib device) (part R))
      (sheetpath (names /) (tstamps /))
      (tstamp 5A9EFCF6))
    (comp (ref S_R1)
      (value 1M)
      (footprint Resistors_THT:R_Axial_DIN0204_L3.6mm_D1.6mm_P7.62mm_Horizontal)
      (libsource (lib device) (part R))
      (sheetpath (names /) (tstamps /))
      (tstamp 5A9EFDE0))
    (comp (ref S_R3)
      (value 100k)
      (footprint Resistors_THT:R_Axial_DIN0204_L3.6mm_D1.6mm_P7.62mm_Horizontal)
      (libsource (lib device) (part R))
      (sheetpath (names /) (tstamps /))
      (tstamp 5A9F35DD))
    (comp (ref S_C4)
      (value 100pF)
      (footprint Capacitors_THT:C_Disc_D4.3mm_W1.9mm_P5.00mm)
      (libsource (lib device) (part C))
      (sheetpath (names /) (tstamps /))
      (tstamp 5A9F4161))
    (comp (ref S_R5)
      (value 1M)
      (footprint Resistors_THT:R_Axial_DIN0204_L3.6mm_D1.6mm_P7.62mm_Horizontal)
      (libsource (lib device) (part R))
      (sheetpath (names /) (tstamps /))
      (tstamp 5A9F4167))
    (comp (ref S_C5)
      (value 1uF)
      (footprint Capacitors_THT:C_Rect_L16.5mm_W4.7mm_P15.00mm_MKT)
      (libsource (lib device) (part C))
      (sheetpath (names /) (tstamps /))
      (tstamp 5A9F50B3))
    (comp (ref S_R6)
      (value 1M)
      (footprint Resistors_THT:R_Axial_DIN0204_L3.6mm_D1.6mm_P7.62mm_Horizontal)
      (libsource (lib device) (part R))
      (sheetpath (names /) (tstamps /))
      (tstamp 5A9F5683))
    (comp (ref L_D1)
      (value D1N5817)
      (footprint Diodes_THT:D_DO-35_SOD27_P7.62mm_Horizontal)
      (libsource (lib device) (part D))
      (sheetpath (names /) (tstamps /))
      (tstamp 5A9FEFEB))
    (comp (ref L_R23)
      (value 4k7)
      (footprint Resistors_THT:R_Axial_DIN0204_L3.6mm_D1.6mm_P7.62mm_Horizontal)
      (libsource (lib device) (part R))
      (sheetpath (names /) (tstamps /))
      (tstamp 5A9FEFF1))
    (comp (ref L_C27)
      (value 100uF)
      (footprint Capacitors_THT:CP_Radial_D5.0mm_P2.50mm)
      (libsource (lib device) (part CP1))
      (sheetpath (names /) (tstamps /))
      (tstamp 5A9FEFF7))
    (comp (ref L_C28)
      (value 100n)
      (footprint Capacitors_THT:C_Disc_D8.0mm_W2.5mm_P5.00mm)
      (libsource (lib device) (part C))
      (sheetpath (names /) (tstamps /))
      (tstamp 5A9FEFFD))
    (comp (ref L_R24)
      (value 100k)
      (footprint Resistors_THT:R_Axial_DIN0204_L3.6mm_D1.6mm_P7.62mm_Horizontal)
      (libsource (lib device) (part R))
      (sheetpath (names /) (tstamps /))
      (tstamp 5AA05209))
    (comp (ref L_R25)
      (value 100k)
      (footprint Resistors_THT:R_Axial_DIN0204_L3.6mm_D1.6mm_P7.62mm_Horizontal)
      (libsource (lib device) (part R))
      (sheetpath (names /) (tstamps /))
      (tstamp 5AA05650))
    (comp (ref L_C29)
      (value 10uF)
      (footprint Capacitors_THT:CP_Radial_D5.0mm_P2.50mm)
      (libsource (lib device) (part CP1))
      (sheetpath (names /) (tstamps /))
      (tstamp 5AA06DC3))
    (comp (ref L_REG1)
      (value LM78L05_TO92)
      (footprint TO_SOT_Packages_THT:TO-92_Inline_Narrow_Oval)
      (libsource (lib regul) (part LM78L05_TO92))
      (sheetpath (names /) (tstamps /))
      (tstamp 5AA0C1D6))
    (comp (ref P_J1)
      (value Screw_Terminal_01x02)
      (footprint Connectors_Terminal_Blocks:TerminalBlock_Altech_AK300-2_P5.00mm)
      (libsource (lib conn) (part Screw_Terminal_01x02))
      (sheetpath (names /) (tstamps /))
      (tstamp 5AA35830))
    (comp (ref C_GAIN101)
      (value Screw_Terminal_01x03)
      (footprint Connectors_Terminal_Blocks:TerminalBlock_Altech_AK300-3_P5.00mm)
      (libsource (lib conn) (part Screw_Terminal_01x03))
      (sheetpath (names /) (tstamps /))
      (tstamp 5AA3E4ED))
    (comp (ref C_BRILL101)
      (value Screw_Terminal_01x02)
      (footprint Connectors_Terminal_Blocks:TerminalBlock_Altech_AK300-2_P5.00mm)
      (libsource (lib conn) (part Screw_Terminal_01x02))
      (sheetpath (names /) (tstamps /))
      (tstamp 5AA3E8EE))
    (comp (ref S_VOL101)
      (value Screw_Terminal_01x03)
      (footprint Connectors_Terminal_Blocks:TerminalBlock_Altech_AK300-3_P5.00mm)
      (libsource (lib conn) (part Screw_Terminal_01x03))
      (sheetpath (names /) (tstamps /))
      (tstamp 5AA3EF60))
    (comp (ref C_FUZZ101)
      (value Screw_Terminal_01x03)
      (footprint Connectors_Terminal_Blocks:TerminalBlock_Altech_AK300-3_P5.00mm)
      (libsource (lib conn) (part Screw_Terminal_01x03))
      (sheetpath (names /) (tstamps /))
      (tstamp 5AA3F4BB))
    (comp (ref C_SHAPE101)
      (value Screw_Terminal_01x02)
      (footprint Connectors_Terminal_Blocks:TerminalBlock_Altech_AK300-2_P5.00mm)
      (libsource (lib conn) (part Screw_Terminal_01x02))
      (sheetpath (names /) (tstamps /))
      (tstamp 5AA3FD76))
    (comp (ref C_VOL101)
      (value Screw_Terminal_01x03)
      (footprint Connectors_Terminal_Blocks:TerminalBlock_Altech_AK300-3_P5.00mm)
      (libsource (lib conn) (part Screw_Terminal_01x03))
      (sheetpath (names /) (tstamps /))
      (tstamp 5AA40289))
    (comp (ref S_GAIN101)
      (value Screw_Terminal_01x02)
      (footprint Connectors_Terminal_Blocks:TerminalBlock_Altech_AK300-2_P5.00mm)
      (libsource (lib conn) (part Screw_Terminal_01x02))
      (sheetpath (names /) (tstamps /))
      (tstamp 5AA40C7D))
    (comp (ref S_IOL101)
      (value Screw_Terminal_01x03)
      (footprint Connectors_Terminal_Blocks:TerminalBlock_Altech_AK300-3_P5.00mm)
      (libsource (lib conn) (part Screw_Terminal_01x03))
      (sheetpath (names /) (tstamps /))
      (tstamp 5AA41C49))
    (comp (ref C_IOL102)
      (value Screw_Terminal_01x03)
      (footprint Connectors_Terminal_Blocks:TerminalBlock_Altech_AK300-3_P5.00mm)
      (libsource (lib conn) (part Screw_Terminal_01x03))
      (sheetpath (names /) (tstamps /))
      (tstamp 5AA43B9A))
    (comp (ref J1)
      (value Conn_01x03_Female)
      (libsource (lib conn) (part Conn_01x03_Female))
      (sheetpath (names /) (tstamps /))
      (tstamp 5AA54A02))
    (comp (ref P_GND1)
      (value Screw_Terminal_01x02)
      (footprint Connectors_Terminal_Blocks:TerminalBlock_Altech_AK300-2_P5.00mm)
      (libsource (lib conn) (part Screw_Terminal_01x02))
      (sheetpath (names /) (tstamps /))
      (tstamp 5AADA1CA))
    (comp (ref L_IC2)
      (value PT2399)
      (footprint Housings_DIP:DIP-16_W7.62mm_LongPads)
      (libsource (lib adc-dac) (part PT2399))
      (sheetpath (names "/Leviathan sheet 2/") (tstamps /5AA1CA8C/))
      (tstamp 5AA1CD31))
    (comp (ref L_IC1)
      (value TL072)
      (footprint Housings_DIP:DIP-8_W7.62mm_LongPads)
      (libsource (lib linear) (part TL072))
      (sheetpath (names "/Leviathan sheet 2/") (tstamps /5AA1CA8C/))
      (tstamp 5AA1CD61))
    (comp (ref L_R3)
      (value 220k)
      (footprint Resistors_THT:R_Axial_DIN0204_L3.6mm_D1.6mm_P7.62mm_Horizontal)
      (libsource (lib device) (part R))
      (sheetpath (names "/Leviathan sheet 2/") (tstamps /5AA1CA8C/))
      (tstamp 5A9E195B))
    (comp (ref L_R6)
      (value 1k)
      (footprint Resistors_THT:R_Axial_DIN0204_L3.6mm_D1.6mm_P7.62mm_Horizontal)
      (libsource (lib device) (part R))
      (sheetpath (names "/Leviathan sheet 2/") (tstamps /5AA1CA8C/))
      (tstamp 5A9E1999))
    (comp (ref L_R2)
      (value 511k)
      (footprint Resistors_THT:R_Axial_DIN0204_L3.6mm_D1.6mm_P7.62mm_Horizontal)
      (libsource (lib device) (part R))
      (sheetpath (names "/Leviathan sheet 2/") (tstamps /5AA1CA8C/))
      (tstamp 5A9E1A5D))
    (comp (ref L_R1)
      (value 1M)
      (footprint Resistors_THT:R_Axial_DIN0204_L3.6mm_D1.6mm_P7.62mm_Horizontal)
      (libsource (lib device) (part R))
      (sheetpath (names "/Leviathan sheet 2/") (tstamps /5AA1CA8C/))
      (tstamp 5A9E1B19))
    (comp (ref L_C1)
      (value 100n)
      (footprint Capacitors_THT:C_Disc_D8.0mm_W2.5mm_P5.00mm)
      (libsource (lib device) (part C))
      (sheetpath (names "/Leviathan sheet 2/") (tstamps /5AA1CA8C/))
      (tstamp 5A9E3490))
    (comp (ref L_C3)
      (value 47pF)
      (footprint Capacitors_THT:C_Disc_D4.3mm_W1.9mm_P5.00mm)
      (libsource (lib device) (part C))
      (sheetpath (names "/Leviathan sheet 2/") (tstamps /5AA1CA8C/))
      (tstamp 5A9E34DF))
    (comp (ref L_C2)
      (value 5pF)
      (footprint Capacitors_THT:C_Disc_D4.3mm_W1.9mm_P5.00mm)
      (libsource (lib device) (part C))
      (sheetpath (names "/Leviathan sheet 2/") (tstamps /5AA1CA8C/))
      (tstamp 5A9E40F1))
    (comp (ref L_R4)
      (value 1M)
      (footprint Resistors_THT:R_Axial_DIN0204_L3.6mm_D1.6mm_P7.62mm_Horizontal)
      (libsource (lib device) (part R))
      (sheetpath (names "/Leviathan sheet 2/") (tstamps /5AA1CA8C/))
      (tstamp 5A9E4348))
    (comp (ref L_C7)
      (value 1uF)
      (footprint Capacitors_THT:C_Rect_L16.5mm_W4.7mm_P15.00mm_MKT)
      (libsource (lib device) (part C))
      (sheetpath (names "/Leviathan sheet 2/") (tstamps /5AA1CA8C/))
      (tstamp 5A9E4563))
    (comp (ref L_R10)
      (value 12k)
      (footprint Resistors_THT:R_Axial_DIN0204_L3.6mm_D1.6mm_P7.62mm_Horizontal)
      (libsource (lib device) (part R))
      (sheetpath (names "/Leviathan sheet 2/") (tstamps /5AA1CA8C/))
      (tstamp 5A9E460B))
    (comp (ref L_R5)
      (value 22k)
      (footprint Resistors_THT:R_Axial_DIN0204_L3.6mm_D1.6mm_P7.62mm_Horizontal)
      (libsource (lib device) (part R))
      (sheetpath (names "/Leviathan sheet 2/") (tstamps /5AA1CA8C/))
      (tstamp 5A9E4760))
    (comp (ref L_C4)
      (value 1n)
      (footprint Capacitors_THT:C_Disc_D8.0mm_W2.5mm_P5.00mm)
      (libsource (lib device) (part C))
      (sheetpath (names "/Leviathan sheet 2/") (tstamps /5AA1CA8C/))
      (tstamp 5A9E47BB))
    (comp (ref L_C5)
      (value 100pF)
      (footprint Capacitors_THT:C_Disc_D4.3mm_W1.9mm_P5.00mm)
      (libsource (lib device) (part C))
      (sheetpath (names "/Leviathan sheet 2/") (tstamps /5AA1CA8C/))
      (tstamp 5A9E53EA))
    (comp (ref L_R7)
      (value 12k)
      (footprint Resistors_THT:R_Axial_DIN0204_L3.6mm_D1.6mm_P7.62mm_Horizontal)
      (libsource (lib device) (part R))
      (sheetpath (names "/Leviathan sheet 2/") (tstamps /5AA1CA8C/))
      (tstamp 5A9E53F3))
    (comp (ref L_R21)
      (value 10k)
      (footprint Resistors_THT:R_Axial_DIN0204_L3.6mm_D1.6mm_P7.62mm_Horizontal)
      (libsource (lib device) (part R))
      (sheetpath (names "/Leviathan sheet 2/") (tstamps /5AA1CA8C/))
      (tstamp 5A9E5E31))
    (comp (ref L_R8)
      (value 470R)
      (footprint Resistors_THT:R_Axial_DIN0204_L3.6mm_D1.6mm_P7.62mm_Horizontal)
      (libsource (lib device) (part R))
      (sheetpath (names "/Leviathan sheet 2/") (tstamps /5AA1CA8C/))
      (tstamp 5A9E6895))
    (comp (ref L_R9)
      (value 100k)
      (footprint Resistors_THT:R_Axial_DIN0204_L3.6mm_D1.6mm_P7.62mm_Horizontal)
      (libsource (lib device) (part R))
      (sheetpath (names "/Leviathan sheet 2/") (tstamps /5AA1CA8C/))
      (tstamp 5A9E6903))
    (comp (ref L_C6)
      (value 1uF)
      (footprint Capacitors_THT:C_Rect_L16.5mm_W4.7mm_P15.00mm_MKT)
      (libsource (lib device) (part C))
      (sheetpath (names "/Leviathan sheet 2/") (tstamps /5AA1CA8C/))
      (tstamp 5A9E697B))
    (comp (ref L_R20)
      (value 10k)
      (footprint Resistors_THT:R_Axial_DIN0204_L3.6mm_D1.6mm_P7.62mm_Horizontal)
      (libsource (lib device) (part R))
      (sheetpath (names "/Leviathan sheet 2/") (tstamps /5AA1CA8C/))
      (tstamp 5A9E6FA1))
    (comp (ref L_C21)
      (value 100pF)
      (footprint Capacitors_THT:C_Disc_D4.3mm_W1.9mm_P5.00mm)
      (libsource (lib device) (part C))
      (sheetpath (names "/Leviathan sheet 2/") (tstamps /5AA1CA8C/))
      (tstamp 5A9E718F))
    (comp (ref L_C20)
      (value 1uF)
      (footprint Capacitors_THT:C_Rect_L16.5mm_W4.7mm_P15.00mm_MKT)
      (libsource (lib device) (part C))
      (sheetpath (names "/Leviathan sheet 2/") (tstamps /5AA1CA8C/))
      (tstamp 5A9E7215))
    (comp (ref L_C19)
      (value 68n)
      (footprint Capacitors_THT:C_Disc_D8.0mm_W2.5mm_P5.00mm)
      (libsource (lib device) (part C))
      (sheetpath (names "/Leviathan sheet 2/") (tstamps /5AA1CA8C/))
      (tstamp 5A9E88DA))
    (comp (ref L_C16)
      (value 10n)
      (footprint Capacitors_THT:C_Disc_D8.0mm_W2.5mm_P5.00mm)
      (libsource (lib device) (part C))
      (sheetpath (names "/Leviathan sheet 2/") (tstamps /5AA1CA8C/))
      (tstamp 5A9EA395))
    (comp (ref L_C17)
      (value 1uF)
      (footprint Capacitors_THT:C_Rect_L16.5mm_W4.7mm_P15.00mm_MKT)
      (libsource (lib device) (part C))
      (sheetpath (names "/Leviathan sheet 2/") (tstamps /5AA1CA8C/))
      (tstamp 5A9EA43B))
    (comp (ref L_R18)
      (value 2k7)
      (footprint Resistors_THT:R_Axial_DIN0204_L3.6mm_D1.6mm_P7.62mm_Horizontal)
      (libsource (lib device) (part R))
      (sheetpath (names "/Leviathan sheet 2/") (tstamps /5AA1CA8C/))
      (tstamp 5A9EA70F))
    (comp (ref L_R19)
      (value 20k)
      (footprint Resistors_THT:R_Axial_DIN0204_L3.6mm_D1.6mm_P7.62mm_Horizontal)
      (libsource (lib device) (part R))
      (sheetpath (names "/Leviathan sheet 2/") (tstamps /5AA1CA8C/))
      (tstamp 5A9EA9A2))
    (comp (ref L_C18)
      (value 100n)
      (footprint Capacitors_THT:C_Disc_D8.0mm_W2.5mm_P5.00mm)
      (libsource (lib device) (part C))
      (sheetpath (names "/Leviathan sheet 2/") (tstamps /5AA1CA8C/))
      (tstamp 5A9EAACE))
    (comp (ref L_R14)
      (value 22k)
      (footprint Resistors_THT:R_Axial_DIN0204_L3.6mm_D1.6mm_P7.62mm_Horizontal)
      (libsource (lib device) (part R))
      (sheetpath (names "/Leviathan sheet 2/") (tstamps /5AA1CA8C/))
      (tstamp 5A9EAFBE))
    (comp (ref L_R17)
      (value 12k)
      (footprint Resistors_THT:R_Axial_DIN0204_L3.6mm_D1.6mm_P7.62mm_Horizontal)
      (libsource (lib device) (part R))
      (sheetpath (names "/Leviathan sheet 2/") (tstamps /5AA1CA8C/))
      (tstamp 5A9EBF41))
    (comp (ref L_R15)
      (value 12k)
      (footprint Resistors_THT:R_Axial_DIN0204_L3.6mm_D1.6mm_P7.62mm_Horizontal)
      (libsource (lib device) (part R))
      (sheetpath (names "/Leviathan sheet 2/") (tstamps /5AA1CA8C/))
      (tstamp 5A9EC08C))
    (comp (ref L_R16)
      (value 12k)
      (footprint Resistors_THT:R_Axial_DIN0204_L3.6mm_D1.6mm_P7.62mm_Horizontal)
      (libsource (lib device) (part R))
      (sheetpath (names "/Leviathan sheet 2/") (tstamps /5AA1CA8C/))
      (tstamp 5A9EC128))
    (comp (ref L_C15)
      (value 10n)
      (footprint Capacitors_THT:C_Disc_D8.0mm_W2.5mm_P5.00mm)
      (libsource (lib device) (part C))
      (sheetpath (names "/Leviathan sheet 2/") (tstamps /5AA1CA8C/))
      (tstamp 5A9EC30D))
    (comp (ref L_C14)
      (value 10n)
      (footprint Capacitors_THT:C_Disc_D8.0mm_W2.5mm_P5.00mm)
      (libsource (lib device) (part C))
      (sheetpath (names "/Leviathan sheet 2/") (tstamps /5AA1CA8C/))
      (tstamp 5A9EC3AE))
    (comp (ref L_C11)
      (value 1n)
      (footprint Capacitors_THT:C_Disc_D8.0mm_W2.5mm_P5.00mm)
      (libsource (lib device) (part C))
      (sheetpath (names "/Leviathan sheet 2/") (tstamps /5AA1CA8C/))
      (tstamp 5A9EC714))
    (comp (ref L_C13)
      (value 150n)
      (footprint Capacitors_THT:C_Disc_D8.0mm_W2.5mm_P5.00mm)
      (libsource (lib device) (part C))
      (sheetpath (names "/Leviathan sheet 2/") (tstamps /5AA1CA8C/))
      (tstamp 5A9EC8BC))
    (comp (ref L_C12)
      (value 68n)
      (footprint Capacitors_THT:C_Disc_D8.0mm_W2.5mm_P5.00mm)
      (libsource (lib device) (part C))
      (sheetpath (names "/Leviathan sheet 2/") (tstamps /5AA1CA8C/))
      (tstamp 5A9ECA13))
    (comp (ref L_R11)
      (value 12k)
      (footprint Resistors_THT:R_Axial_DIN0204_L3.6mm_D1.6mm_P7.62mm_Horizontal)
      (libsource (lib device) (part R))
      (sheetpath (names "/Leviathan sheet 2/") (tstamps /5AA1CA8C/))
      (tstamp 5AA18AA5))
    (comp (ref L_C8)
      (value 10n)
      (footprint Capacitors_THT:C_Disc_D8.0mm_W2.5mm_P5.00mm)
      (libsource (lib device) (part C))
      (sheetpath (names "/Leviathan sheet 2/") (tstamps /5AA1CA8C/))
      (tstamp 5AA18C13))
    (comp (ref L_C9)
      (value 10n)
      (footprint Capacitors_THT:C_Disc_D8.0mm_W2.5mm_P5.00mm)
      (libsource (lib device) (part C))
      (sheetpath (names "/Leviathan sheet 2/") (tstamps /5AA1CA8C/))
      (tstamp 5AA18CCB))
    (comp (ref L_C10)
      (value 680pF)
      (footprint Capacitors_THT:C_Disc_D4.3mm_W1.9mm_P5.00mm)
      (libsource (lib device) (part C))
      (sheetpath (names "/Leviathan sheet 2/") (tstamps /5AA1CA8C/))
      (tstamp 5AA1BA64))
    (comp (ref L_R12)
      (value 12k)
      (footprint Resistors_THT:R_Axial_DIN0204_L3.6mm_D1.6mm_P7.62mm_Horizontal)
      (libsource (lib device) (part R))
      (sheetpath (names "/Leviathan sheet 2/") (tstamps /5AA1CA8C/))
      (tstamp 5AA1BD16))
    (comp (ref L_R13)
      (value 47k)
      (footprint Resistors_THT:R_Axial_DIN0204_L3.6mm_D1.6mm_P7.62mm_Horizontal)
      (libsource (lib device) (part R))
      (sheetpath (names "/Leviathan sheet 2/") (tstamps /5AA1CA8C/))
      (tstamp 5AA1BE79))
    (comp (ref L_C23)
      (value 100n)
      (footprint Capacitors_THT:C_Disc_D8.0mm_W2.5mm_P5.00mm)
      (libsource (lib device) (part C))
      (sheetpath (names "/Leviathan sheet 2/") (tstamps /5AA1CA8C/))
      (tstamp 5AA25CD4))
    (comp (ref L_C22)
      (value 10uF)
      (footprint Capacitors_THT:CP_Radial_D5.0mm_P2.50mm)
      (libsource (lib device) (part CP1))
      (sheetpath (names "/Leviathan sheet 2/") (tstamps /5AA1CA8C/))
      (tstamp 5AA26902))
    (comp (ref L_R22)
      (value 2k2)
      (footprint Resistors_THT:R_Axial_DIN0204_L3.6mm_D1.6mm_P7.62mm_Horizontal)
      (libsource (lib device) (part R))
      (sheetpath (names "/Leviathan sheet 2/") (tstamps /5AA1CA8C/))
      (tstamp 5AA27B64))
    (comp (ref L_C26)
      (value 100n)
      (footprint Capacitors_THT:C_Disc_D8.0mm_W2.5mm_P5.00mm)
      (libsource (lib device) (part C))
      (sheetpath (names "/Leviathan sheet 2/") (tstamps /5AA1CA8C/))
      (tstamp 5AA280EA))
    (comp (ref L_C24)
      (value 47uF)
      (footprint Capacitors_THT:CP_Radial_D5.0mm_P2.50mm)
      (libsource (lib device) (part CP1))
      (sheetpath (names "/Leviathan sheet 2/") (tstamps /5AA1CA8C/))
      (tstamp 5AA280F0))
    (comp (ref L_C25)
      (value 100n)
      (footprint Capacitors_THT:C_Disc_D8.0mm_W2.5mm_P5.00mm)
      (libsource (lib device) (part C))
      (sheetpath (names "/Leviathan sheet 2/") (tstamps /5AA1CA8C/))
      (tstamp 5AA283D0))
    (comp (ref L_RPT201)
      (value Screw_Terminal_01x03)
      (footprint Connectors_Terminal_Blocks:TerminalBlock_Altech_AK300-3_P5.00mm)
      (libsource (lib conn) (part Screw_Terminal_01x03))
      (sheetpath (names "/Leviathan sheet 2/") (tstamps /5AA1CA8C/))
      (tstamp 5AA58C27))
    (comp (ref L_TONE201)
      (value Screw_Terminal_01x02)
      (footprint Connectors_Terminal_Blocks:TerminalBlock_Altech_AK300-2_P5.00mm)
      (libsource (lib conn) (part Screw_Terminal_01x02))
      (sheetpath (names "/Leviathan sheet 2/") (tstamps /5AA1CA8C/))
      (tstamp 5AA58FD0))
    (comp (ref L_LVL201)
      (value Screw_Terminal_01x03)
      (footprint Connectors_Terminal_Blocks:TerminalBlock_Altech_AK300-3_P5.00mm)
      (libsource (lib conn) (part Screw_Terminal_01x03))
      (sheetpath (names "/Leviathan sheet 2/") (tstamps /5AA1CA8C/))
      (tstamp 5AA59459))
    (comp (ref L_DELAY201)
      (value Screw_Terminal_01x03)
      (footprint Connectors_Terminal_Blocks:TerminalBlock_Altech_AK300-3_P5.00mm)
      (libsource (lib conn) (part Screw_Terminal_01x03))
      (sheetpath (names "/Leviathan sheet 2/") (tstamps /5AA1CA8C/))
      (tstamp 5AA5DDCA))
    (comp (ref L_IO1)
      (value Screw_Terminal_01x02)
      (footprint Connectors_Terminal_Blocks:TerminalBlock_Altech_AK300-2_P5.00mm)
      (libsource (lib conn) (part Screw_Terminal_01x02))
      (sheetpath (names "/Leviathan sheet 2/") (tstamps /5AA1CA8C/))
      (tstamp 5AADA866))
    (comp (ref L_LEDGND1)
      (value Screw_Terminal_01x02)
      (footprint Connectors_Terminal_Blocks:TerminalBlock_Altech_AK300-2_P5.00mm)
      (libsource (lib conn) (part Screw_Terminal_01x02))
      (sheetpath (names "/Leviathan sheet 2/") (tstamps /5AA1CA8C/))
      (tstamp 5AADA92D)))
  (libparts
    (libpart (lib cmos4000) (part 4049)
      (description "Hex Buffer Inverter")
      (fields
        (field (name Reference) U)
        (field (name Value) 4049))
      (pins
        (pin (num 1) (name VCC) (type power_in))
        (pin (num 2) (name ~) (type output))
        (pin (num 3) (name ~) (type input))
        (pin (num 4) (name ~) (type output))
        (pin (num 5) (name ~) (type input))
        (pin (num 6) (name ~) (type output))
        (pin (num 7) (name ~) (type input))
        (pin (num 8) (name VSS) (type power_in))
        (pin (num 9) (name ~) (type input))
        (pin (num 10) (name ~) (type output))
        (pin (num 11) (name ~) (type input))
        (pin (num 12) (name ~) (type output))
        (pin (num 14) (name ~) (type input))
        (pin (num 15) (name ~) (type output))))
    (libpart (lib transistors) (part AC127)
      (description "Vce 12V, Ic 0.5A, NPN Transistor, TO-1")
      (docs https://alltransistors.com/transistor.php?transistor=21201)
      (footprints
        (fp TO?1*))
      (fields
        (field (name Reference) Q)
        (field (name Value) AC127))
      (pins
        (pin (num 1) (name E) (type passive))
        (pin (num 2) (name B) (type passive))
        (pin (num 3) (name C) (type passive))))
    (libpart (lib transistors) (part BC107)
      (aliases
        (alias BC108)
        (alias BC109))
      (description "50V Vce, 0.1A Ic, NPN, Low Noise General Purpose Transistor, TO-18")
      (docs http://www.b-kainka.de/Daten/Transistor/BC108.pdf)
      (footprints
        (fp TO?18*))
      (fields
        (field (name Reference) Q)
        (field (name Value) BC107)
        (field (name Footprint) TO_SOT_Packages_THT:TO-18-3))
      (pins
        (pin (num 1) (name E) (type passive))
        (pin (num 2) (name B) (type input))
        (pin (num 3) (name C) (type passive))))
    (libpart (lib transistors) (part BS107)
      (aliases
        (alias BS108)
        (alias BS170))
      (description "200V Vds 0.25A Id, N-Channel MOSFET, TO-92")
      (docs http://www.onsemi.com/pub_link/Collateral/BS107-D.PDF)
      (footprints
        (fp TO?92*))
      (fields
        (field (name Reference) Q)
        (field (name Value) BS107)
        (field (name Footprint) TO_SOT_Packages_THT:TO-92_Molded_Narrow))
      (pins
        (pin (num 1) (name D) (type passive))
        (pin (num 2) (name G) (type input))
        (pin (num 3) (name S) (type passive))))
    (libpart (lib device) (part C)
      (description "Unpolarized capacitor")
      (footprints
        (fp C_*))
      (fields
        (field (name Reference) C)
        (field (name Value) C))
      (pins
        (pin (num 1) (name ~) (type passive))
        (pin (num 2) (name ~) (type passive))))
    (libpart (lib device) (part CP1)
      (description "Polarised capacitor")
      (footprints
        (fp CP_*))
      (fields
        (field (name Reference) C)
        (field (name Value) CP1))
      (pins
        (pin (num 1) (name ~) (type passive))
        (pin (num 2) (name ~) (type passive))))
    (libpart (lib conn) (part Conn_01x03_Female)
      (description "Generic connector, single row, 01x03")
      (docs ~)
      (footprints
        (fp Connector*:*_??x*mm*)
        (fp Connector*:*1x??x*mm*)
        (fp Socket?Strip?Straight?1X*)
        (fp Socket?Strip?Angled?1X*))
      (fields
        (field (name Reference) J)
        (field (name Value) Conn_01x03_Female))
      (pins
        (pin (num 1) (name Pin_1) (type passive))
        (pin (num 2) (name Pin_2) (type passive))
        (pin (num 3) (name Pin_3) (type passive))))
    (libpart (lib device) (part D)
      (description Diode)
      (footprints
        (fp TO-???*)
        (fp *SingleDiode)
        (fp *_Diode_*)
        (fp *SingleDiode*)
        (fp D_*))
      (fields
        (field (name Reference) D)
        (field (name Value) D))
      (pins
        (pin (num 1) (name K) (type passive))
        (pin (num 2) (name A) (type passive))))
    (libpart (lib device) (part D_Zener)
      (description "Zener Diode")
      (docs https://en.wikipedia.org/wiki/Zener_diode)
      (footprints
        (fp TO-???*)
        (fp *SingleDiode)
        (fp *_Diode_*)
        (fp *SingleDiode*)
        (fp D_*))
      (fields
        (field (name Reference) D)
        (field (name Value) D_Zener))
      (pins
        (pin (num 1) (name K) (type passive))
        (pin (num 2) (name A) (type passive))))
    (libpart (lib linear) (part LM2904)
      (aliases
        (alias LM358)
        (alias AD8620)
        (alias LMC6062)
        (alias LMC6082)
        (alias TL062)
        (alias TL072)
        (alias TL082)
        (alias NE5532)
        (alias SA5532)
        (alias RC4558)
        (alias RC4560)
        (alias RC4580)
        (alias LMV358)
        (alias TS912)
        (alias TSV912IDT)
        (alias TSV912IST)
        (alias TLC272)
        (alias TLC277)
        (alias MCP602)
        (alias OPA2134)
        (alias OPA2340)
        (alias OPA2376xxD)
        (alias OPA2376xxDGK)
        (alias MC33078)
        (alias MC33178)
        (alias LM4562)
        (alias OP249)
        (alias OP275)
        (alias ADA4075-2)
        (alias MCP6002-xP)
        (alias MCP6002-xSN)
        (alias MCP6002-xMS)
        (alias LM7332)
        (alias OPA2333xxD)
        (alias OPA2333xxDGK)
        (alias LMC6482)
        (alias LT1492)
        (alias LTC6081xMS8)
        (alias LM6172)
        (alias MCP6L92)
        (alias NJM2043)
        (alias NJM2114)
        (alias NJM4556A)
        (alias NJM4558)
        (alias NJM4559)
        (alias NJM4560)
        (alias NJM4580)
        (alias NJM5532)
        (alias ADA4807-2ARM)
        (alias OPA2691))
      (description "Dual Operational Amplifiers, DIP-8/SOIC-8/TSSOP-8/VSSOP-8")
      (docs http://www.ti.com/lit/ds/symlink/lm358.pdf)
      (footprints
        (fp SOIC*3.9x4.9mm*Pitch1.27mm*)
        (fp DIP*W7.62mm*)
        (fp TO*99*)
        (fp OnSemi*Micro8*)
        (fp TSSOP*3x3mm*Pitch0.65mm*)
        (fp TSSOP*4.4x3mm*Pitch0.65mm*)
        (fp MSOP*3x3mm*Pitch0.65mm*)
        (fp SSOP*3.9x4.9mm*Pitch0.635mm*)
        (fp LFCSP*2x2mm*Pitch0.5mm*)
        (fp *SIP*)
        (fp SOIC*5.3x6.2mm*Pitch1.27mm*))
      (fields
        (field (name Reference) U)
        (field (name Value) LM2904))
      (pins
        (pin (num 1) (name ~) (type output))
        (pin (num 2) (name -) (type input))
        (pin (num 3) (name +) (type input))
        (pin (num 4) (name V-) (type power_in))
        (pin (num 5) (name +) (type input))
        (pin (num 6) (name -) (type input))
        (pin (num 7) (name ~) (type output))
        (pin (num 8) (name V+) (type power_in))))
    (libpart (lib regul) (part MC78L05_TO92)
      (aliases
        (alias LM78L05_TO92)
        (alias MC78L06_TO92)
        (alias MC78L08_TO92)
        (alias MC78L12_TO92)
        (alias LM78L12_TO92)
        (alias MC78L15_TO92)
        (alias MC78L18_TO92)
        (alias MC78L24_TO92)
        (alias LM2931AZ-5.0_TO92)
        (alias LM2936-3.0_TO92)
        (alias LM2936-3.3_TO92)
        (alias LM2936-5.0_TO92)
        (alias LP2950-3.0_TO92)
        (alias LP2950-3.3_TO92)
        (alias LP2950-5.0_TO92)
        (alias L78L33_TO92)
        (alias L78L05_TO92)
        (alias L78L06_TO92)
        (alias L78L08_TO92)
        (alias L78L09_TO92)
        (alias L78L10_TO92)
        (alias L78L12_TO92)
        (alias L78L15_TO92)
        (alias L78L18_TO92)
        (alias L78L24_TO92))
      (description "Positive 100mA 30V Linear Regulator, Fixed Output 5V, TO-92")
      (docs http://www.fairchildsemi.com/ds/LM/LM78L05A.pdf)
      (footprints
        (fp TO?92*))
      (fields
        (field (name Reference) U)
        (field (name Value) MC78L05_TO92)
        (field (name Footprint) TO_SOT_Packages_THT:TO-92_Inline_Narrow_Oval))
      (pins
        (pin (num 1) (name VO) (type power_out))
        (pin (num 2) (name GND) (type power_in))
        (pin (num 3) (name VI) (type power_in))))
    (libpart (lib adc-dac) (part PT2399)
      (description "Echo Processor IC")
      (docs http://sound.westhost.com/pt2399.pdf)
      (footprints
        (fp DIP-16*))
      (fields
        (field (name Reference) U)
        (field (name Value) PT2399))
      (pins
        (pin (num 1) (name VCC) (type power_in))
        (pin (num 2) (name REF) (type passive))
        (pin (num 3) (name AGND) (type power_in))
        (pin (num 4) (name DGND) (type power_in))
        (pin (num 5) (name CLK_O) (type passive))
        (pin (num 6) (name VCO) (type passive))
        (pin (num 7) (name CC1) (type passive))
        (pin (num 8) (name CC0) (type passive))
        (pin (num 9) (name OP1-OUT) (type output))
        (pin (num 10) (name OP1-IN) (type input))
        (pin (num 11) (name OP2-IN) (type input))
        (pin (num 12) (name OP2-OUT) (type output))
        (pin (num 13) (name LPF2-IN) (type input))
        (pin (num 14) (name LPF2-OUT) (type output))
        (pin (num 15) (name LPF1-OUT) (type output))
        (pin (num 16) (name LPF1-IN) (type input))))
    (libpart (lib device) (part R)
      (description Resistor)
      (footprints
        (fp R_*)
        (fp R_*))
      (fields
        (field (name Reference) R)
        (field (name Value) R))
      (pins
        (pin (num 1) (name ~) (type passive))
        (pin (num 2) (name ~) (type passive))))
    (libpart (lib conn) (part Screw_Terminal_01x02)
      (description "Generic screw terminal, single row, 01x02")
      (docs ~)
      (footprints
        (fp Connector*Terminal*Block*:*)
        (fp TerminalBlock*))
      (fields
        (field (name Reference) J)
        (field (name Value) Screw_Terminal_01x02))
      (pins
        (pin (num 1) (name Pin_1) (type passive))
        (pin (num 2) (name Pin_2) (type passive))))
    (libpart (lib conn) (part Screw_Terminal_01x03)
      (description "Generic screw terminal, single row, 01x03")
      (docs ~)
      (footprints
        (fp Connector*Terminal*Block*:*)
        (fp TerminalBlock*))
      (fields
        (field (name Reference) J)
        (field (name Value) Screw_Terminal_01x03))
      (pins
        (pin (num 1) (name Pin_1) (type passive))
        (pin (num 2) (name Pin_2) (type passive))
        (pin (num 3) (name Pin_3) (type passive)))))
  (libraries
    (library (logical device)
      (uri "/Library/Application Support/kicad/library/device.lib"))
    (library (logical cmos4000)
      (uri "/Library/Application Support/kicad/library/cmos4000.lib"))
    (library (logical adc-dac)
      (uri "/Library/Application Support/kicad/library/adc-dac.lib"))
    (library (logical conn)
      (uri "/Library/Application Support/kicad/library/conn.lib"))
    (library (logical linear)
      (uri "/Library/Application Support/kicad/library/linear.lib"))
    (library (logical regul)
      (uri "/Library/Application Support/kicad/library/regul.lib"))
    (library (logical transistors)
      (uri "/Library/Application Support/kicad/library/transistors.lib")))
  (nets
    (net (code 1) (name "Net-(S_D1-Pad1)")
      (node (ref S_R7) (pin 1))
      (node (ref S_D1) (pin 1))
      (node (ref S_R4) (pin 1)))
    (net (code 2) (name "Net-(P_R2-Pad1)")
      (node (ref P_R2) (pin 1))
      (node (ref S_D1) (pin 2)))
    (net (code 3) (name "Net-(C_D1-Pad2)")
      (node (ref P_R1) (pin 1))
      (node (ref C_D1) (pin 2)))
    (net (code 4) (name "Net-(C_C1-Pad1)")
      (node (ref C_R2) (pin 2))
      (node (ref C_R1) (pin 1))
      (node (ref C_C1) (pin 1)))
    (net (code 5) (name "Net-(S_C3-Pad2)")
      (node (ref S_R5) (pin 1))
      (node (ref S_C3) (pin 2))
      (node (ref S_IC1) (pin 5))
      (node (ref S_C4) (pin 1)))
    (net (code 6) (name "Net-(S_C4-Pad2)")
      (node (ref S_IC1) (pin 4))
      (node (ref S_R5) (pin 2))
      (node (ref S_C5) (pin 1))
      (node (ref S_C4) (pin 2)))
    (net (code 7) (name "Net-(S_GAIN101-Pad1)")
      (node (ref S_R3) (pin 2))
      (node (ref S_GAIN101) (pin 1)))
    (net (code 8) (name "Net-(S_C1-Pad2)")
      (node (ref S_IC1) (pin 3))
      (node (ref S_C2) (pin 1))
      (node (ref S_C1) (pin 2))
      (node (ref S_R3) (pin 1)))
    (net (code 9) (name "Net-(S_C2-Pad2)")
      (node (ref S_C2) (pin 2))
      (node (ref S_C3) (pin 1))
      (node (ref S_GAIN101) (pin 2))
      (node (ref S_IC1) (pin 2)))
    (net (code 10) (name "Net-(C_C8-Pad1)")
      (node (ref C_Q2) (pin 3))
      (node (ref C_Q3) (pin 2))
      (node (ref C_C8) (pin 1))
      (node (ref C_R8) (pin 2))
      (node (ref C_R9) (pin 1)))
    (net (code 11) (name GND)
      (node (ref S_R1) (pin 2))
      (node (ref S_IC1) (pin 14))
      (node (ref S_IC1) (pin 11))
      (node (ref P_J1) (pin 1))
      (node (ref L_REG1) (pin 2))
      (node (ref L_C29) (pin 2))
      (node (ref S_R6) (pin 2))
      (node (ref S_IC1) (pin 8))
      (node (ref S_IC1) (pin 7))
      (node (ref S_IC1) (pin 9))
      (node (ref C_C3) (pin 2))
      (node (ref C_R1) (pin 2))
      (node (ref S_C6) (pin 2))
      (node (ref S_C7) (pin 2))
      (node (ref C_GAIN101) (pin 3))
      (node (ref S_VOL101) (pin 3))
      (node (ref C_FUZZ101) (pin 3))
      (node (ref C_VOL101) (pin 3))
      (node (ref C_C10) (pin 2))
      (node (ref C_C7) (pin 2))
      (node (ref C_Q2) (pin 1))
      (node (ref C_C6) (pin 2))
      (node (ref C_C14) (pin 2))
      (node (ref C_C15) (pin 2))
      (node (ref C_R13) (pin 2))
      (node (ref C_C12) (pin 2))
      (node (ref C_C13) (pin 2))
      (node (ref L_IC2) (pin 4))
      (node (ref L_IC1) (pin 4))
      (node (ref L_C4) (pin 2))
      (node (ref L_C25) (pin 2))
      (node (ref L_R9) (pin 2))
      (node (ref L_C21) (pin 2))
      (node (ref L_C19) (pin 2))
      (node (ref L_C14) (pin 1))
      (node (ref L_C16) (pin 1))
      (node (ref L_C15) (pin 1))
      (node (ref L_R1) (pin 2))
      (node (ref L_C3) (pin 2))
      (node (ref L_IC2) (pin 3))
      (node (ref L_C8) (pin 2))
      (node (ref L_C9) (pin 2))
      (node (ref L_C23) (pin 1))
      (node (ref L_C22) (pin 2))
      (node (ref L_C26) (pin 2))
      (node (ref L_C24) (pin 2))
      (node (ref L_R25) (pin 1))
      (node (ref L_C28) (pin 2))
      (node (ref L_C27) (pin 2))
      (node (ref L_DELAY201) (pin 1))
      (node (ref L_LEDGND1) (pin 1))
      (node (ref L_RPT201) (pin 3))
      (node (ref L_LVL201) (pin 3))
      (node (ref P_GND1) (pin 1)))
    (net (code 12) (name "Net-(C_C7-Pad1)")
      (node (ref C_C9) (pin 2))
      (node (ref C_R10) (pin 2))
      (node (ref C_R7) (pin 1))
      (node (ref C_Q2) (pin 2))
      (node (ref C_C7) (pin 1))
      (node (ref C_C8) (pin 2))
      (node (ref C_R9) (pin 2)))
    (net (code 13) (name "Net-(C_C9-Pad1)")
      (node (ref C_GAIN101) (pin 1))
      (node (ref C_Q3) (pin 1))
      (node (ref C_C9) (pin 1))
      (node (ref C_R10) (pin 1)))
    (net (code 14) (name "Net-(C_D2-Pad2)")
      (node (ref C_R3) (pin 1))
      (node (ref C_D2) (pin 2))
      (node (ref C_Q1) (pin 3)))
    (net (code 15) (name "Net-(C_FUZZ101-Pad1)")
      (node (ref C_R3) (pin 2))
      (node (ref C_FUZZ101) (pin 1)))
    (net (code 16) (name "Net-(C_C2-Pad2)")
      (node (ref C_R2) (pin 1))
      (node (ref C_D2) (pin 1))
      (node (ref C_R4) (pin 2))
      (node (ref C_Q1) (pin 2))
      (node (ref C_C2) (pin 2)))
    (net (code 17) (name "Net-(C_C2-Pad1)")
      (node (ref C_Q1) (pin 1))
      (node (ref C_C4) (pin 2))
      (node (ref C_R6) (pin 1))
      (node (ref C_R5) (pin 2))
      (node (ref C_C2) (pin 1)))
    (net (code 18) (name "Net-(C_C5-Pad2)")
      (node (ref C_C5) (pin 2))
      (node (ref C_R6) (pin 2))
      (node (ref C_C6) (pin 1)))
    (net (code 19) (name "Net-(C_C5-Pad1)")
      (node (ref C_C5) (pin 1))
      (node (ref C_SHAPE101) (pin 2)))
    (net (code 20) (name "Net-(C_C10-Pad1)")
      (node (ref C_GAIN101) (pin 2))
      (node (ref C_C10) (pin 1)))
    (net (code 21) (name "Net-(C_BRILL101-Pad2)")
      (node (ref C_BRILL101) (pin 2))
      (node (ref C_C12) (pin 1))
      (node (ref C_VOL101) (pin 1)))
    (net (code 22) (name "Net-(C_BRILL101-Pad1)")
      (node (ref C_BRILL101) (pin 1))
      (node (ref C_C11) (pin 2)))
    (net (code 23) (name C_LED)
      (node (ref C_IOL102) (pin 1))
      (node (ref C_R14) (pin 2)))
    (net (code 24) (name "Net-(P_GND1-Pad2)")
      (node (ref P_GND1) (pin 2)))
    (net (code 25) (name "Net-(J1-Pad3)")
      (node (ref J1) (pin 3)))
    (net (code 26) (name "Net-(J1-Pad2)")
      (node (ref J1) (pin 2)))
    (net (code 27) (name "Net-(J1-Pad1)")
      (node (ref J1) (pin 1)))
    (net (code 28) (name +9V)
      (node (ref P_R3) (pin 2))
      (node (ref P_R2) (pin 2))
      (node (ref P_J1) (pin 2))
      (node (ref P_R1) (pin 2)))
    (net (code 29) (name "Net-(S_C5-Pad2)")
      (node (ref S_VOL101) (pin 1))
      (node (ref S_C5) (pin 2)))
    (net (code 30) (name "Net-(C_C3-Pad1)")
      (node (ref C_C3) (pin 1))
      (node (ref C_FUZZ101) (pin 2)))
    (net (code 31) (name "Net-(C_C4-Pad1)")
      (node (ref C_C4) (pin 1))
      (node (ref C_R7) (pin 2))
      (node (ref C_SHAPE101) (pin 1)))
    (net (code 32) (name +5V)
      (node (ref L_C22) (pin 1))
      (node (ref L_REG1) (pin 3))
      (node (ref L_IC2) (pin 1))
      (node (ref L_C23) (pin 2)))
    (net (code 33) (name VB)
      (node (ref L_C29) (pin 1))
      (node (ref L_R3) (pin 1))
      (node (ref L_R6) (pin 1))
      (node (ref L_R25) (pin 2))
      (node (ref L_R24) (pin 2)))
    (net (code 34) (name L_LED)
      (node (ref L_LEDGND1) (pin 2))
      (node (ref L_R23) (pin 2)))
    (net (code 35) (name "Net-(L_D1-Pad2)")
      (node (ref L_D1) (pin 2))
      (node (ref P_R3) (pin 1)))
    (net (code 36) (name VCC)
      (node (ref S_C6) (pin 1))
      (node (ref S_C7) (pin 1))
      (node (ref S_R4) (pin 2))
      (node (ref S_IC1) (pin 1)))
    (net (code 37) (name "Net-(S_IC1-Pad6)")
      (node (ref S_IC1) (pin 6)))
    (net (code 38) (name C_OUT)
      (node (ref C_R13) (pin 1))
      (node (ref C_C13) (pin 1))
      (node (ref C_IOL102) (pin 2))
      (node (ref C_VOL101) (pin 2)))
    (net (code 39) (name "Net-(C_Q3-Pad3)")
      (node (ref C_R11) (pin 2))
      (node (ref C_Q3) (pin 3)))
    (net (code 40) (name "Net-(C_C11-Pad1)")
      (node (ref C_C11) (pin 1))
      (node (ref C_R11) (pin 1))
      (node (ref C_R12) (pin 2)))
    (net (code 41) (name "Net-(C_C14-Pad1)")
      (node (ref C_R8) (pin 1))
      (node (ref C_R4) (pin 1))
      (node (ref C_R5) (pin 1))
      (node (ref C_R12) (pin 1))
      (node (ref C_C15) (pin 1))
      (node (ref C_D1) (pin 1))
      (node (ref C_C14) (pin 1))
      (node (ref C_R14) (pin 1)))
    (net (code 42) (name C_IN)
      (node (ref C_C1) (pin 2))
      (node (ref C_IOL102) (pin 3)))
    (net (code 43) (name S_LED)
      (node (ref S_IOL101) (pin 1))
      (node (ref S_R7) (pin 2)))
    (net (code 44) (name S_IN)
      (node (ref S_R1) (pin 1))
      (node (ref S_IOL101) (pin 2))
      (node (ref S_R2) (pin 1)))
    (net (code 45) (name S_OUT)
      (node (ref S_VOL101) (pin 2))
      (node (ref S_R6) (pin 1))
      (node (ref S_IOL101) (pin 3)))
    (net (code 46) (name "Net-(S_C1-Pad1)")
      (node (ref S_R2) (pin 2))
      (node (ref S_C1) (pin 1)))
    (net (code 47) (name "Net-(S_IC1-Pad15)")
      (node (ref S_IC1) (pin 15)))
    (net (code 48) (name "Net-(S_IC1-Pad12)")
      (node (ref S_IC1) (pin 12)))
    (net (code 49) (name "Net-(S_IC1-Pad10)")
      (node (ref S_IC1) (pin 10)))
    (net (code 50) (name IC1_PWR)
      (node (ref L_IC1) (pin 8))
      (node (ref L_R24) (pin 1))
      (node (ref L_C28) (pin 1))
      (node (ref L_C27) (pin 1))
      (node (ref L_R23) (pin 1))
      (node (ref L_D1) (pin 1))
      (node (ref L_REG1) (pin 1)))
    (net (code 51) (name "Net-(L_C9-Pad1)")
      (node (ref L_R11) (pin 1))
      (node (ref L_C9) (pin 1))
      (node (ref L_R13) (pin 1))
      (node (ref L_R12) (pin 1)))
    (net (code 52) (name "Net-(L_C24-Pad1)")
      (node (ref L_C24) (pin 1))
      (node (ref L_IC2) (pin 2)))
    (net (code 53) (name "Net-(L_C26-Pad1)")
      (node (ref L_IC2) (pin 8))
      (node (ref L_C26) (pin 1)))
    (net (code 54) (name "Net-(L_IC2-Pad6)")
      (node (ref L_R22) (pin 1))
      (node (ref L_IC2) (pin 6)))
    (net (code 55) (name "Net-(L_C10-Pad1)")
      (node (ref L_IC2) (pin 16))
      (node (ref L_C10) (pin 1))
      (node (ref L_R12) (pin 2)))
    (net (code 56) (name "Net-(L_C10-Pad2)")
      (node (ref L_IC2) (pin 15))
      (node (ref L_R13) (pin 2))
      (node (ref L_C10) (pin 2)))
    (net (code 57) (name "Net-(L_C11-Pad1)")
      (node (ref L_IC2) (pin 13))
      (node (ref L_C11) (pin 1))
      (node (ref L_R15) (pin 2)))
    (net (code 58) (name "Net-(L_C12-Pad1)")
      (node (ref L_IC2) (pin 12))
      (node (ref L_R16) (pin 2))
      (node (ref L_C12) (pin 1)))
    (net (code 59) (name "Net-(L_C12-Pad2)")
      (node (ref L_IC2) (pin 11))
      (node (ref L_C12) (pin 2)))
    (net (code 60) (name "Net-(L_C14-Pad2)")
      (node (ref L_R16) (pin 1))
      (node (ref L_C14) (pin 2))
      (node (ref L_R17) (pin 1)))
    (net (code 61) (name "Net-(L_C13-Pad1)")
      (node (ref L_C13) (pin 1))
      (node (ref L_IC2) (pin 9)))
    (net (code 62) (name "Net-(L_C13-Pad2)")
      (node (ref L_C13) (pin 2))
      (node (ref L_IC2) (pin 10)))
    (net (code 63) (name "Net-(L_C16-Pad2)")
      (node (ref L_C17) (pin 1))
      (node (ref L_C16) (pin 2))
      (node (ref L_R18) (pin 1)))
    (net (code 64) (name "Net-(L_C18-Pad1)")
      (node (ref L_C18) (pin 1))
      (node (ref L_RPT201) (pin 1)))
    (net (code 65) (name "Net-(L_C18-Pad2)")
      (node (ref L_C18) (pin 2))
      (node (ref L_R19) (pin 1)))
    (net (code 66) (name "Net-(L_C8-Pad1)")
      (node (ref L_R10) (pin 2))
      (node (ref L_R19) (pin 2))
      (node (ref L_R11) (pin 2))
      (node (ref L_C8) (pin 1)))
    (net (code 67) (name "Net-(L_C11-Pad2)")
      (node (ref L_IC2) (pin 14))
      (node (ref L_R14) (pin 2))
      (node (ref L_R18) (pin 2))
      (node (ref L_C11) (pin 2)))
    (net (code 68) (name "Net-(L_C17-Pad2)")
      (node (ref L_LVL201) (pin 1))
      (node (ref L_TONE201) (pin 1))
      (node (ref L_RPT201) (pin 2))
      (node (ref L_C17) (pin 2)))
    (net (code 69) (name "Net-(L_C19-Pad1)")
      (node (ref L_C19) (pin 1))
      (node (ref L_TONE201) (pin 2)))
    (net (code 70) (name "Net-(L_C20-Pad1)")
      (node (ref L_C20) (pin 1))
      (node (ref L_LVL201) (pin 2)))
    (net (code 71) (name "Net-(L_DELAY201-Pad2)")
      (node (ref L_DELAY201) (pin 2))
      (node (ref L_DELAY201) (pin 3))
      (node (ref L_R22) (pin 2)))
    (net (code 72) (name "Net-(L_C25-Pad1)")
      (node (ref L_IC2) (pin 7))
      (node (ref L_C25) (pin 1)))
    (net (code 73) (name "Net-(L_IC2-Pad5)")
      (node (ref L_IC2) (pin 5)))
    (net (code 74) (name "Net-(L_C2-Pad2)")
      (node (ref L_R4) (pin 2))
      (node (ref L_C2) (pin 2))
      (node (ref L_C3) (pin 1))
      (node (ref L_R2) (pin 1))
      (node (ref L_IC1) (pin 2)))
    (net (code 75) (name L_IN)
      (node (ref L_C1) (pin 2))
      (node (ref L_R1) (pin 1))
      (node (ref L_IO1) (pin 1)))
    (net (code 76) (name "Net-(L_IC1-Pad5)")
      (node (ref L_R6) (pin 2))
      (node (ref L_IC1) (pin 5)))
    (net (code 77) (name "Net-(L_C7-Pad2)")
      (node (ref L_R10) (pin 1))
      (node (ref L_C7) (pin 2)))
    (net (code 78) (name "Net-(L_C2-Pad1)")
      (node (ref L_C2) (pin 1))
      (node (ref L_IC1) (pin 1))
      (node (ref L_R4) (pin 1))
      (node (ref L_C7) (pin 1))
      (node (ref L_R5) (pin 2)))
    (net (code 79) (name "Net-(L_IC1-Pad3)")
      (node (ref L_R3) (pin 2))
      (node (ref L_IC1) (pin 3)))
    (net (code 80) (name "Net-(L_C1-Pad1)")
      (node (ref L_C1) (pin 1))
      (node (ref L_R2) (pin 2)))
    (net (code 81) (name "Net-(L_C20-Pad2)")
      (node (ref L_R20) (pin 1))
      (node (ref L_C20) (pin 2)))
    (net (code 82) (name "Net-(L_C21-Pad1)")
      (node (ref L_R21) (pin 2))
      (node (ref L_R20) (pin 2))
      (node (ref L_C21) (pin 1)))
    (net (code 83) (name "Net-(L_C15-Pad2)")
      (node (ref L_C15) (pin 2))
      (node (ref L_R14) (pin 1))
      (node (ref L_R15) (pin 1))
      (node (ref L_R17) (pin 2)))
    (net (code 84) (name L_OUT)
      (node (ref L_IO1) (pin 2))
      (node (ref L_R9) (pin 1))
      (node (ref L_C6) (pin 1)))
    (net (code 85) (name "Net-(L_C6-Pad2)")
      (node (ref L_R8) (pin 1))
      (node (ref L_C6) (pin 2)))
    (net (code 86) (name "Net-(L_C5-Pad1)")
      (node (ref L_C5) (pin 1))
      (node (ref L_IC1) (pin 7))
      (node (ref L_R7) (pin 1))
      (node (ref L_R8) (pin 2)))
    (net (code 87) (name "Net-(L_C4-Pad1)")
      (node (ref L_R21) (pin 1))
      (node (ref L_R5) (pin 1))
      (node (ref L_C4) (pin 1))
      (node (ref L_C5) (pin 2))
      (node (ref L_IC1) (pin 6))
      (node (ref L_R7) (pin 2)))))