EESchema Schematic File Version 2
LIBS:power
LIBS:device
LIBS:transistors
LIBS:conn
LIBS:linear
LIBS:regul
LIBS:74xx
LIBS:cmos4000
LIBS:adc-dac
LIBS:memory
LIBS:xilinx
LIBS:microcontrollers
LIBS:dsp
LIBS:microchip
LIBS:analog_switches
LIBS:motorola
LIBS:texas
LIBS:intel
LIBS:audio
LIBS:interface
LIBS:digital-audio
LIBS:philips
LIBS:display
LIBS:cypress
LIBS:siliconi
LIBS:opto
LIBS:atmel
LIBS:contrib
LIBS:valves
LIBS:pedals3_1-cache
EELAYER 25 0
EELAYER END
$Descr A4 11693 8268
encoding utf-8
Sheet 1 2
Title ""
Date ""
Rev ""
Comp ""
Comment1 ""
Comment2 ""
Comment3 ""
Comment4 ""
$EndDescr
$Comp
L +9V #PWR01
U 1 1 5A9C6C38
P 700 750
F 0 "#PWR01" H 700 600 50  0001 C CNN
F 1 "+9V" H 700 890 50  0000 C CNN
F 2 "" H 700 750 50  0001 C CNN
F 3 "" H 700 750 50  0001 C CNN
	1    700  750 
	1    0    0    -1  
$EndComp
$Comp
L D C_D1
U 1 1 5A9C6E1A
P 1800 950
F 0 "C_D1" H 1800 1050 50  0000 C CNN
F 1 "D1N5817" H 1800 850 50  0000 C CNN
F 2 "Diodes_THT:D_DO-35_SOD27_P7.62mm_Horizontal" H 1800 950 50  0001 C CNN
F 3 "" H 1800 950 50  0001 C CNN
	1    1800 950 
	-1   0    0    1   
$EndComp
$Comp
L R C_R14
U 1 1 5A9C6E9F
P 1950 1300
F 0 "C_R14" V 2030 1300 50  0000 C CNN
F 1 "4k7" V 1950 1300 50  0000 C CNN
F 2 "Resistors_THT:R_Axial_DIN0204_L3.6mm_D1.6mm_P7.62mm_Horizontal" V 1880 1300 50  0001 C CNN
F 3 "" H 1950 1300 50  0001 C CNN
	1    1950 1300
	1    0    0    -1  
$EndComp
$Comp
L CP1 C_C14
U 1 1 5A9C708C
P 2350 1300
F 0 "C_C14" H 2375 1400 50  0000 L CNN
F 1 "100uF" H 2375 1200 50  0000 L CNN
F 2 "Capacitors_THT:CP_Radial_D5.0mm_P2.50mm" H 2350 1300 50  0001 C CNN
F 3 "" H 2350 1300 50  0001 C CNN
	1    2350 1300
	1    0    0    -1  
$EndComp
$Comp
L C C_C15
U 1 1 5A9C712E
P 2850 1300
F 0 "C_C15" H 2875 1400 50  0000 L CNN
F 1 "100n" H 2875 1200 50  0000 L CNN
F 2 "Capacitors_THT:C_Disc_D8.0mm_W2.5mm_P5.00mm" H 2888 1150 50  0001 C CNN
F 3 "" H 2850 1300 50  0001 C CNN
	1    2850 1300
	1    0    0    -1  
$EndComp
$Comp
L R C_R12
U 1 1 5A9C7E5B
P 4350 1300
F 0 "C_R12" V 4430 1300 50  0000 C CNN
F 1 "8k2" V 4350 1300 50  0000 C CNN
F 2 "Resistors_THT:R_Axial_DIN0204_L3.6mm_D1.6mm_P7.62mm_Horizontal" V 4280 1300 50  0001 C CNN
F 3 "" H 4350 1300 50  0001 C CNN
	1    4350 1300
	1    0    0    -1  
$EndComp
$Comp
L R C_R11
U 1 1 5A9C7EA6
P 4800 1550
F 0 "C_R11" V 4880 1550 50  0000 C CNN
F 1 "2k7" V 4800 1550 50  0000 C CNN
F 2 "Resistors_THT:R_Axial_DIN0204_L3.6mm_D1.6mm_P7.62mm_Horizontal" V 4730 1550 50  0001 C CNN
F 3 "" H 4800 1550 50  0001 C CNN
	1    4800 1550
	0    -1   -1   0   
$EndComp
$Comp
L R C_R13
U 1 1 5A9C7EDA
P 4350 2950
F 0 "C_R13" V 4430 2950 50  0000 C CNN
F 1 "33k" V 4350 2950 50  0000 C CNN
F 2 "Resistors_THT:R_Axial_DIN0204_L3.6mm_D1.6mm_P7.62mm_Horizontal" V 4280 2950 50  0001 C CNN
F 3 "" H 4350 2950 50  0001 C CNN
	1    4350 2950
	1    0    0    -1  
$EndComp
$Comp
L C C_C11
U 1 1 5A9C809B
P 3650 1800
F 0 "C_C11" H 3675 1900 50  0000 L CNN
F 1 "100n" H 3675 1700 50  0000 L CNN
F 2 "Capacitors_THT:C_Disc_D8.0mm_W2.5mm_P5.00mm" H 3688 1650 50  0001 C CNN
F 3 "" H 3650 1800 50  0001 C CNN
	1    3650 1800
	1    0    0    -1  
$EndComp
$Comp
L C C_C12
U 1 1 5A9C8AE8
P 2600 2750
F 0 "C_C12" H 2625 2850 50  0000 L CNN
F 1 "3n3" H 2625 2650 50  0000 L CNN
F 2 "Capacitors_THT:C_Disc_D8.0mm_W2.5mm_P5.00mm" H 2638 2600 50  0001 C CNN
F 3 "" H 2600 2750 50  0001 C CNN
	1    2600 2750
	1    0    0    -1  
$EndComp
$Comp
L C C_C13
U 1 1 5A9CA3A8
P 3950 2950
F 0 "C_C13" H 3975 3050 50  0000 L CNN
F 1 "4n7" H 3975 2850 50  0000 L CNN
F 2 "Capacitors_THT:C_Disc_D8.0mm_W2.5mm_P5.00mm" H 3988 2800 50  0001 C CNN
F 3 "" H 3950 2950 50  0001 C CNN
	1    3950 2950
	1    0    0    -1  
$EndComp
$Comp
L AC127 C_Q3
U 1 1 5A9CB04C
P 5250 1850
F 0 "C_Q3" H 5450 1925 50  0000 L CNN
F 1 "AC127" H 5450 1850 50  0000 L CNN
F 2 "TO_SOT_Packages_THT:TO-11-3" H 5450 1775 50  0001 L CIN
F 3 "" H 5250 1850 50  0001 L CNN
	1    5250 1850
	-1   0    0    -1  
$EndComp
$Comp
L C C_C9
U 1 1 5A9CBA3A
P 5500 2450
F 0 "C_C9" H 5525 2550 50  0000 L CNN
F 1 "1n" H 5525 2350 50  0000 L CNN
F 2 "Capacitors_THT:C_Disc_D8.0mm_W2.5mm_P5.00mm" H 5538 2300 50  0001 C CNN
F 3 "" H 5500 2450 50  0001 C CNN
	1    5500 2450
	0    -1   -1   0   
$EndComp
$Comp
L R C_R10
U 1 1 5A9CBA91
P 5500 2150
F 0 "C_R10" V 5580 2150 50  0000 C CNN
F 1 "100k" V 5500 2150 50  0000 C CNN
F 2 "Resistors_THT:R_Axial_DIN0204_L3.6mm_D1.6mm_P7.62mm_Horizontal" V 5430 2150 50  0001 C CNN
F 3 "" H 5500 2150 50  0001 C CNN
	1    5500 2150
	0    -1   -1   0   
$EndComp
$Comp
L R C_R9
U 1 1 5A9CBB22
P 5850 2000
F 0 "C_R9" V 5930 2000 50  0000 C CNN
F 1 "33k" V 5850 2000 50  0000 C CNN
F 2 "Resistors_THT:R_Axial_DIN0204_L3.6mm_D1.6mm_P7.62mm_Horizontal" V 5780 2000 50  0001 C CNN
F 3 "" H 5850 2000 50  0001 C CNN
	1    5850 2000
	1    0    0    -1  
$EndComp
$Comp
L CP1 C_C10
U 1 1 5A9CBB7E
P 4850 2850
F 0 "C_C10" H 4875 2950 50  0000 L CNN
F 1 "100uF" H 4875 2750 50  0000 L CNN
F 2 "Capacitors_THT:CP_Radial_D5.0mm_P2.50mm" H 4850 2850 50  0001 C CNN
F 3 "" H 4850 2850 50  0001 C CNN
	1    4850 2850
	1    0    0    -1  
$EndComp
$Comp
L R C_R8
U 1 1 5A9CCB29
P 6250 1300
F 0 "C_R8" V 6330 1300 50  0000 C CNN
F 1 "100k" V 6250 1300 50  0000 C CNN
F 2 "Resistors_THT:R_Axial_DIN0204_L3.6mm_D1.6mm_P7.62mm_Horizontal" V 6180 1300 50  0001 C CNN
F 3 "" H 6250 1300 50  0001 C CNN
	1    6250 1300
	1    0    0    -1  
$EndComp
$Comp
L C C_C8
U 1 1 5A9CCB80
P 6600 1550
F 0 "C_C8" H 6625 1650 50  0000 L CNN
F 1 "1n" H 6625 1450 50  0000 L CNN
F 2 "Capacitors_THT:C_Disc_D8.0mm_W2.5mm_P5.00mm" H 6638 1400 50  0001 C CNN
F 3 "" H 6600 1550 50  0001 C CNN
	1    6600 1550
	0    -1   -1   0   
$EndComp
$Comp
L C C_C7
U 1 1 5A9CCBE3
P 6850 2700
F 0 "C_C7" H 6875 2800 50  0000 L CNN
F 1 "470pF" H 6875 2600 50  0000 L CNN
F 2 "Capacitors_THT:C_Disc_D4.3mm_W1.9mm_P5.00mm" H 6888 2550 50  0001 C CNN
F 3 "" H 6850 2700 50  0001 C CNN
	1    6850 2700
	1    0    0    -1  
$EndComp
$Comp
L BC109 C_Q2
U 1 1 5A9CDD0B
P 6350 1850
F 0 "C_Q2" H 6200 2000 50  0000 L CNN
F 1 "BC109" H 6050 1900 50  0000 L CNN
F 2 "TO_SOT_Packages_THT:TO-18-3" H 6550 1775 50  0001 L CIN
F 3 "" H 6350 1850 50  0001 L CNN
	1    6350 1850
	-1   0    0    -1  
$EndComp
$Comp
L R C_R7
U 1 1 5A9D0A58
P 7100 1850
F 0 "C_R7" V 7180 1850 50  0000 C CNN
F 1 "100R" V 7100 1850 50  0000 C CNN
F 2 "Resistors_THT:R_Axial_DIN0204_L3.6mm_D1.6mm_P7.62mm_Horizontal" V 7030 1850 50  0001 C CNN
F 3 "" H 7100 1850 50  0001 C CNN
	1    7100 1850
	0    -1   -1   0   
$EndComp
$Comp
L C C_C4
U 1 1 5A9D0C3B
P 7900 1550
F 0 "C_C4" H 7925 1650 50  0000 L CNN
F 1 "15n" H 7925 1450 50  0000 L CNN
F 2 "Capacitors_THT:C_Disc_D8.0mm_W2.5mm_P5.00mm" H 7938 1400 50  0001 C CNN
F 3 "" H 7900 1550 50  0001 C CNN
	1    7900 1550
	0    -1   -1   0   
$EndComp
$Comp
L C C_C5
U 1 1 5A9D0CB8
P 7900 2250
F 0 "C_C5" H 7925 2350 50  0000 L CNN
F 1 "220n" H 7925 2150 50  0000 L CNN
F 2 "Capacitors_THT:C_Disc_D8.0mm_W2.5mm_P5.00mm" H 7938 2100 50  0001 C CNN
F 3 "" H 7900 2250 50  0001 C CNN
	1    7900 2250
	0    -1   -1   0   
$EndComp
$Comp
L R C_R6
U 1 1 5A9D0DDE
P 8250 2000
F 0 "C_R6" V 8330 2000 50  0000 C CNN
F 1 "820R" V 8250 2000 50  0000 C CNN
F 2 "Resistors_THT:R_Axial_DIN0204_L3.6mm_D1.6mm_P7.62mm_Horizontal" V 8180 2000 50  0001 C CNN
F 3 "" H 8250 2000 50  0001 C CNN
	1    8250 2000
	1    0    0    -1  
$EndComp
$Comp
L C C_C6
U 1 1 5A9D10AE
P 8250 2600
F 0 "C_C6" H 8275 2700 50  0000 L CNN
F 1 "4n7" H 8275 2500 50  0000 L CNN
F 2 "Capacitors_THT:C_Disc_D8.0mm_W2.5mm_P5.00mm" H 8288 2450 50  0001 C CNN
F 3 "" H 8250 2600 50  0001 C CNN
	1    8250 2600
	1    0    0    -1  
$EndComp
$Comp
L R C_R5
U 1 1 5A9D2A87
P 8750 1250
F 0 "C_R5" V 8830 1250 50  0000 C CNN
F 1 "2k7" V 8750 1250 50  0000 C CNN
F 2 "Resistors_THT:R_Axial_DIN0204_L3.6mm_D1.6mm_P7.62mm_Horizontal" V 8680 1250 50  0001 C CNN
F 3 "" H 8750 1250 50  0001 C CNN
	1    8750 1250
	1    0    0    -1  
$EndComp
$Comp
L R C_R4
U 1 1 5A9D2B42
P 9250 1250
F 0 "C_R4" V 9330 1250 50  0000 C CNN
F 1 "1M" V 9250 1250 50  0000 C CNN
F 2 "Resistors_THT:R_Axial_DIN0204_L3.6mm_D1.6mm_P7.62mm_Horizontal" V 9180 1250 50  0001 C CNN
F 3 "" H 9250 1250 50  0001 C CNN
	1    9250 1250
	1    0    0    -1  
$EndComp
$Comp
L C C_C2
U 1 1 5A9D2BC6
P 9000 1650
F 0 "C_C2" H 9025 1750 50  0000 L CNN
F 1 "200pF" H 9025 1550 50  0000 L CNN
F 2 "Capacitors_THT:C_Disc_D4.3mm_W1.9mm_P5.00mm" H 9038 1500 50  0001 C CNN
F 3 "" H 9000 1650 50  0001 C CNN
	1    9000 1650
	0    -1   -1   0   
$EndComp
$Comp
L R C_R3
U 1 1 5A9D2E6A
P 8750 2400
F 0 "C_R3" V 8830 2400 50  0000 C CNN
F 1 "680R" V 8750 2400 50  0000 C CNN
F 2 "Resistors_THT:R_Axial_DIN0204_L3.6mm_D1.6mm_P7.62mm_Horizontal" V 8680 2400 50  0001 C CNN
F 3 "" H 8750 2400 50  0001 C CNN
	1    8750 2400
	1    0    0    -1  
$EndComp
$Comp
L CP1 C_C3
U 1 1 5A9D3246
P 8400 2950
F 0 "C_C3" H 8425 3050 50  0000 L CNN
F 1 "100uF" H 8425 2850 50  0000 L CNN
F 2 "Capacitors_THT:CP_Radial_D5.0mm_P2.50mm" H 8400 2950 50  0001 C CNN
F 3 "" H 8400 2950 50  0001 C CNN
	1    8400 2950
	1    0    0    -1  
$EndComp
$Comp
L BS170 C_Q1
U 1 1 5A9D387B
P 8850 1950
F 0 "C_Q1" H 9050 2025 50  0000 L CNN
F 1 "BS170" H 9050 1950 50  0000 L CNN
F 2 "TO_SOT_Packages_THT:TO-92_Molded_Narrow" H 9050 1875 50  0001 L CIN
F 3 "" H 8850 1950 50  0001 L CNN
	1    8850 1950
	-1   0    0    -1  
$EndComp
$Comp
L D_Zener C_D2
U 1 1 5A9D6854
P 9000 2200
F 0 "C_D2" H 9000 2300 50  0000 C CNN
F 1 "9.1v" H 9000 2100 50  0000 C CNN
F 2 "Diodes_THT:D_DO-35_SOD27_P7.62mm_Horizontal" H 9000 2200 50  0001 C CNN
F 3 "" H 9000 2200 50  0001 C CNN
	1    9000 2200
	-1   0    0    -1  
$EndComp
$Comp
L R C_R2
U 1 1 5A9DA3D0
P 9500 1950
F 0 "C_R2" V 9580 1950 50  0000 C CNN
F 1 "100R" V 9500 1950 50  0000 C CNN
F 2 "Resistors_THT:R_Axial_DIN0204_L3.6mm_D1.6mm_P7.62mm_Horizontal" V 9430 1950 50  0001 C CNN
F 3 "" H 9500 1950 50  0001 C CNN
	1    9500 1950
	0    -1   -1   0   
$EndComp
$Comp
L R C_R1
U 1 1 5A9DA647
P 9750 2300
F 0 "C_R1" V 9830 2300 50  0000 C CNN
F 1 "1M" V 9750 2300 50  0000 C CNN
F 2 "Resistors_THT:R_Axial_DIN0204_L3.6mm_D1.6mm_P7.62mm_Horizontal" V 9680 2300 50  0001 C CNN
F 3 "" H 9750 2300 50  0001 C CNN
	1    9750 2300
	1    0    0    -1  
$EndComp
$Comp
L C C_C1
U 1 1 5A9DA787
P 10000 1950
F 0 "C_C1" H 10025 2050 50  0000 L CNN
F 1 "47n" H 10025 1850 50  0000 L CNN
F 2 "Capacitors_THT:C_Disc_D8.0mm_W2.5mm_P5.00mm" H 10038 1800 50  0001 C CNN
F 3 "" H 10000 1950 50  0001 C CNN
	1    10000 1950
	0    -1   -1   0   
$EndComp
$Comp
L GND #PWR02
U 1 1 5A9E1830
P 1500 3150
F 0 "#PWR02" H 1500 2900 50  0001 C CNN
F 1 "GND" H 1500 3000 50  0000 C CNN
F 2 "" H 1500 3150 50  0001 C CNN
F 3 "" H 1500 3150 50  0001 C CNN
	1    1500 3150
	1    0    0    -1  
$EndComp
$Comp
L GND #PWR03
U 1 1 5A9E18C3
P 6250 2150
F 0 "#PWR03" H 6250 1900 50  0001 C CNN
F 1 "GND" H 6250 2000 50  0000 C CNN
F 2 "" H 6250 2150 50  0001 C CNN
F 3 "" H 6250 2150 50  0001 C CNN
	1    6250 2150
	1    0    0    -1  
$EndComp
$Comp
L D S_D1
U 1 1 5A9E300A
P 1900 3850
F 0 "S_D1" H 1900 3950 50  0000 C CNN
F 1 "D1N5817" H 1900 3750 50  0000 C CNN
F 2 "Diodes_THT:D_DO-35_SOD27_P7.62mm_Horizontal" H 1900 3850 50  0001 C CNN
F 3 "" H 1900 3850 50  0001 C CNN
	1    1900 3850
	-1   0    0    1   
$EndComp
$Comp
L R S_R7
U 1 1 5A9E3010
P 2050 4200
F 0 "S_R7" V 2130 4200 50  0000 C CNN
F 1 "4k7" V 2050 4200 50  0000 C CNN
F 2 "Resistors_THT:R_Axial_DIN0204_L3.6mm_D1.6mm_P7.62mm_Horizontal" V 1980 4200 50  0001 C CNN
F 3 "" H 2050 4200 50  0001 C CNN
	1    2050 4200
	1    0    0    -1  
$EndComp
$Comp
L CP1 S_C6
U 1 1 5A9E3016
P 2500 4200
F 0 "S_C6" H 2525 4300 50  0000 L CNN
F 1 "100uF" H 2525 4100 50  0000 L CNN
F 2 "Capacitors_THT:CP_Radial_D5.0mm_P2.50mm" H 2500 4200 50  0001 C CNN
F 3 "" H 2500 4200 50  0001 C CNN
	1    2500 4200
	1    0    0    -1  
$EndComp
$Comp
L C S_C7
U 1 1 5A9E301C
P 2900 4200
F 0 "S_C7" H 2925 4300 50  0000 L CNN
F 1 "100n" H 2925 4100 50  0000 L CNN
F 2 "Capacitors_THT:C_Disc_D8.0mm_W2.5mm_P5.00mm" H 2938 4050 50  0001 C CNN
F 3 "" H 2900 4200 50  0001 C CNN
	1    2900 4200
	1    0    0    -1  
$EndComp
$Comp
L R P_R1
U 1 1 5A9E3DEF
P 950 950
F 0 "P_R1" V 1030 950 50  0000 C CNN
F 1 "100R" V 950 950 50  0000 C CNN
F 2 "Resistors_THT:R_Axial_DIN0204_L3.6mm_D1.6mm_P7.62mm_Horizontal" V 880 950 50  0001 C CNN
F 3 "" H 950 950 50  0001 C CNN
	1    950  950 
	0    1    1    0   
$EndComp
$Comp
L R P_R2
U 1 1 5A9E41A4
P 950 3850
F 0 "P_R2" V 1030 3850 50  0000 C CNN
F 1 "100R" V 950 3850 50  0000 C CNN
F 2 "Resistors_THT:R_Axial_DIN0204_L3.6mm_D1.6mm_P7.62mm_Horizontal" V 880 3850 50  0001 C CNN
F 3 "" H 950 3850 50  0001 C CNN
	1    950  3850
	0    1    1    0   
$EndComp
$Comp
L R P_R3
U 1 1 5A9E4255
P 950 6300
F 0 "P_R3" V 1030 6300 50  0000 C CNN
F 1 "100R" V 950 6300 50  0000 C CNN
F 2 "Resistors_THT:R_Axial_DIN0204_L3.6mm_D1.6mm_P7.62mm_Horizontal" V 880 6300 50  0001 C CNN
F 3 "" H 950 6300 50  0001 C CNN
	1    950  6300
	0    1    1    0   
$EndComp
$Comp
L GND #PWR04
U 1 1 5A9E8555
P 2500 5450
F 0 "#PWR04" H 2500 5200 50  0001 C CNN
F 1 "GND" H 2500 5300 50  0000 C CNN
F 2 "" H 2500 5450 50  0001 C CNN
F 3 "" H 2500 5450 50  0001 C CNN
	1    2500 5450
	1    0    0    -1  
$EndComp
$Comp
L R S_R4
U 1 1 5A9E8819
P 2300 3850
F 0 "S_R4" V 2380 3850 50  0000 C CNN
F 1 "330R" V 2300 3850 50  0000 C CNN
F 2 "Resistors_THT:R_Axial_DIN0204_L3.6mm_D1.6mm_P7.62mm_Horizontal" V 2230 3850 50  0001 C CNN
F 3 "" H 2300 3850 50  0001 C CNN
	1    2300 3850
	0    -1   -1   0   
$EndComp
$Comp
L 4049 S_IC1
U 1 1 5A9E9277
P 6350 3650
F 0 "S_IC1" H 6545 3765 50  0000 C CNN
F 1 "4049" H 6540 3525 50  0000 C CNN
F 2 "Housings_DIP:DIP-16_W7.62mm_LongPads" H 6350 3650 60  0001 C CNN
F 3 "" H 6350 3650 60  0001 C CNN
	1    6350 3650
	1    0    0    -1  
$EndComp
$Comp
L 4049 S_IC1
U 2 1 5A9E933A
P 7550 3650
F 0 "S_IC1" H 7745 3765 50  0000 C CNN
F 1 "4049" H 7740 3525 50  0000 C CNN
F 2 "Housings_DIP:DIP-16_W7.62mm_LongPads" H 7550 3650 60  0001 C CNN
F 3 "" H 7550 3650 60  0001 C CNN
	2    7550 3650
	1    0    0    -1  
$EndComp
$Comp
L 4049 S_IC1
U 3 1 5A9E9407
P 3700 4900
F 0 "S_IC1" H 3895 5015 50  0000 C CNN
F 1 "4049" H 3890 4775 50  0000 C CNN
F 2 "Housings_DIP:DIP-16_W7.62mm_LongPads" H 3700 4900 60  0001 C CNN
F 3 "" H 3700 4900 60  0001 C CNN
	3    3700 4900
	0    -1   -1   0   
$EndComp
$Comp
L 4049 S_IC1
U 4 1 5A9E94C1
P 4050 4900
F 0 "S_IC1" H 4245 5015 50  0000 C CNN
F 1 "4049" H 4240 4775 50  0000 C CNN
F 2 "Housings_DIP:DIP-16_W7.62mm_LongPads" H 4050 4900 60  0001 C CNN
F 3 "" H 4050 4900 60  0001 C CNN
	4    4050 4900
	0    -1   -1   0   
$EndComp
$Comp
L 4049 S_IC1
U 5 1 5A9E9592
P 4450 4900
F 0 "S_IC1" H 4645 5015 50  0000 C CNN
F 1 "4049" H 4640 4775 50  0000 C CNN
F 2 "Housings_DIP:DIP-16_W7.62mm_LongPads" H 4450 4900 60  0001 C CNN
F 3 "" H 4450 4900 60  0001 C CNN
	5    4450 4900
	0    -1   -1   0   
$EndComp
$Comp
L 4049 S_IC1
U 6 1 5A9E9667
P 4850 4900
F 0 "S_IC1" H 5045 5015 50  0000 C CNN
F 1 "4049" H 5040 4775 50  0000 C CNN
F 2 "Housings_DIP:DIP-16_W7.62mm_LongPads" H 4850 4900 60  0001 C CNN
F 3 "" H 4850 4900 60  0001 C CNN
	6    4850 4900
	0    -1   -1   0   
$EndComp
$Comp
L C S_C1
U 1 1 5A9EEC28
P 5750 3650
F 0 "S_C1" H 5775 3750 50  0000 L CNN
F 1 "68n" H 5775 3550 50  0000 L CNN
F 2 "Capacitors_THT:C_Disc_D8.0mm_W2.5mm_P5.00mm" H 5788 3500 50  0001 C CNN
F 3 "" H 5750 3650 50  0001 C CNN
	1    5750 3650
	0    -1   -1   0   
$EndComp
$Comp
L C S_C2
U 1 1 5A9EEEC4
P 6350 4150
F 0 "S_C2" H 6375 4250 50  0000 L CNN
F 1 "51pF" H 6375 4050 50  0000 L CNN
F 2 "Capacitors_THT:C_Disc_D4.3mm_W1.9mm_P5.00mm" H 6388 4000 50  0001 C CNN
F 3 "" H 6350 4150 50  0001 C CNN
	1    6350 4150
	0    -1   -1   0   
$EndComp
$Comp
L C S_C3
U 1 1 5A9EF126
P 6950 3650
F 0 "S_C3" H 6975 3750 50  0000 L CNN
F 1 "33n" H 6975 3550 50  0000 L CNN
F 2 "Capacitors_THT:C_Disc_D8.0mm_W2.5mm_P5.00mm" H 6988 3500 50  0001 C CNN
F 3 "" H 6950 3650 50  0001 C CNN
	1    6950 3650
	0    -1   -1   0   
$EndComp
$Comp
L R S_R2
U 1 1 5A9EFCF6
P 5450 3650
F 0 "S_R2" V 5530 3650 50  0000 C CNN
F 1 "100k" V 5450 3650 50  0000 C CNN
F 2 "Resistors_THT:R_Axial_DIN0204_L3.6mm_D1.6mm_P7.62mm_Horizontal" V 5380 3650 50  0001 C CNN
F 3 "" H 5450 3650 50  0001 C CNN
	1    5450 3650
	0    -1   -1   0   
$EndComp
$Comp
L R S_R1
U 1 1 5A9EFDE0
P 5200 3900
F 0 "S_R1" V 5280 3900 50  0000 C CNN
F 1 "1M" V 5200 3900 50  0000 C CNN
F 2 "Resistors_THT:R_Axial_DIN0204_L3.6mm_D1.6mm_P7.62mm_Horizontal" V 5130 3900 50  0001 C CNN
F 3 "" H 5200 3900 50  0001 C CNN
	1    5200 3900
	1    0    0    -1  
$EndComp
$Comp
L R S_R3
U 1 1 5A9F35DD
P 6350 4450
F 0 "S_R3" V 6430 4450 50  0000 C CNN
F 1 "100k" V 6350 4450 50  0000 C CNN
F 2 "Resistors_THT:R_Axial_DIN0204_L3.6mm_D1.6mm_P7.62mm_Horizontal" V 6280 4450 50  0001 C CNN
F 3 "" H 6350 4450 50  0001 C CNN
	1    6350 4450
	0    -1   -1   0   
$EndComp
$Comp
L C S_C4
U 1 1 5A9F4161
P 7550 4150
F 0 "S_C4" H 7575 4250 50  0000 L CNN
F 1 "100pF" H 7575 4050 50  0000 L CNN
F 2 "Capacitors_THT:C_Disc_D4.3mm_W1.9mm_P5.00mm" H 7588 4000 50  0001 C CNN
F 3 "" H 7550 4150 50  0001 C CNN
	1    7550 4150
	0    -1   -1   0   
$EndComp
$Comp
L R S_R5
U 1 1 5A9F4167
P 7550 4450
F 0 "S_R5" V 7630 4450 50  0000 C CNN
F 1 "1M" V 7550 4450 50  0000 C CNN
F 2 "Resistors_THT:R_Axial_DIN0204_L3.6mm_D1.6mm_P7.62mm_Horizontal" V 7480 4450 50  0001 C CNN
F 3 "" H 7550 4450 50  0001 C CNN
	1    7550 4450
	0    -1   -1   0   
$EndComp
$Comp
L C S_C5
U 1 1 5A9F50B3
P 8150 3650
F 0 "S_C5" H 8175 3750 50  0000 L CNN
F 1 "1uF" H 8175 3550 50  0000 L CNN
F 2 "Capacitors_THT:C_Rect_L16.5mm_W4.7mm_P15.00mm_MKT" H 8188 3500 50  0001 C CNN
F 3 "" H 8150 3650 50  0001 C CNN
	1    8150 3650
	0    -1   -1   0   
$EndComp
$Comp
L R S_R6
U 1 1 5A9F5683
P 9250 4600
F 0 "S_R6" V 9330 4600 50  0000 C CNN
F 1 "1M" V 9250 4600 50  0000 C CNN
F 2 "Resistors_THT:R_Axial_DIN0204_L3.6mm_D1.6mm_P7.62mm_Horizontal" V 9180 4600 50  0001 C CNN
F 3 "" H 9250 4600 50  0001 C CNN
	1    9250 4600
	1    0    0    -1  
$EndComp
$Comp
L D L_D1
U 1 1 5A9FEFEB
P 1800 6300
F 0 "L_D1" H 1800 6400 50  0000 C CNN
F 1 "D1N5817" H 1800 6200 50  0000 C CNN
F 2 "Diodes_THT:D_DO-35_SOD27_P7.62mm_Horizontal" H 1800 6300 50  0001 C CNN
F 3 "" H 1800 6300 50  0001 C CNN
	1    1800 6300
	-1   0    0    1   
$EndComp
$Comp
L R L_R23
U 1 1 5A9FEFF1
P 1950 6650
F 0 "L_R23" V 2030 6650 50  0000 C CNN
F 1 "4k7" V 1950 6650 50  0000 C CNN
F 2 "Resistors_THT:R_Axial_DIN0204_L3.6mm_D1.6mm_P7.62mm_Horizontal" V 1880 6650 50  0001 C CNN
F 3 "" H 1950 6650 50  0001 C CNN
	1    1950 6650
	1    0    0    -1  
$EndComp
$Comp
L CP1 L_C27
U 1 1 5A9FEFF7
P 3500 6750
F 0 "L_C27" H 3525 6850 50  0000 L CNN
F 1 "100uF" H 3525 6650 50  0000 L CNN
F 2 "Capacitors_THT:CP_Radial_D5.0mm_P2.50mm" H 3500 6750 50  0001 C CNN
F 3 "" H 3500 6750 50  0001 C CNN
	1    3500 6750
	1    0    0    -1  
$EndComp
$Comp
L C L_C28
U 1 1 5A9FEFFD
P 3900 6650
F 0 "L_C28" H 3925 6750 50  0000 L CNN
F 1 "100n" H 3925 6550 50  0000 L CNN
F 2 "Capacitors_THT:C_Disc_D8.0mm_W2.5mm_P5.00mm" H 3938 6500 50  0001 C CNN
F 3 "" H 3900 6650 50  0001 C CNN
	1    3900 6650
	1    0    0    -1  
$EndComp
$Comp
L R L_R24
U 1 1 5AA05209
P 4650 6300
F 0 "L_R24" V 4730 6300 50  0000 C CNN
F 1 "100k" V 4650 6300 50  0000 C CNN
F 2 "Resistors_THT:R_Axial_DIN0204_L3.6mm_D1.6mm_P7.62mm_Horizontal" V 4580 6300 50  0001 C CNN
F 3 "" H 4650 6300 50  0001 C CNN
	1    4650 6300
	0    -1   -1   0   
$EndComp
$Comp
L R L_R25
U 1 1 5AA05650
P 4900 6600
F 0 "L_R25" V 4980 6600 50  0000 C CNN
F 1 "100k" V 4900 6600 50  0000 C CNN
F 2 "Resistors_THT:R_Axial_DIN0204_L3.6mm_D1.6mm_P7.62mm_Horizontal" V 4830 6600 50  0001 C CNN
F 3 "" H 4900 6600 50  0001 C CNN
	1    4900 6600
	-1   0    0    1   
$EndComp
$Comp
L CP1 L_C29
U 1 1 5AA06DC3
P 5200 6600
F 0 "L_C29" H 5225 6700 50  0000 L CNN
F 1 "10uF" H 5225 6500 50  0000 L CNN
F 2 "Capacitors_THT:CP_Radial_D5.0mm_P2.50mm" H 5200 6600 50  0001 C CNN
F 3 "" H 5200 6600 50  0001 C CNN
	1    5200 6600
	1    0    0    -1  
$EndComp
Text GLabel 5200 6150 1    60   Input ~ 0
VB
$Comp
L GND #PWR05
U 1 1 5AA0AB38
P 3500 7200
F 0 "#PWR05" H 3500 6950 50  0001 C CNN
F 1 "GND" H 3500 7050 50  0000 C CNN
F 2 "" H 3500 7200 50  0001 C CNN
F 3 "" H 3500 7200 50  0001 C CNN
	1    3500 7200
	1    0    0    -1  
$EndComp
$Comp
L LM78L05_TO92 L_REG1
U 1 1 5AA0C1D6
P 2700 6600
F 0 "L_REG1" H 2550 6725 50  0000 C CNN
F 1 "LM78L05_TO92" H 2700 6725 50  0000 L CNN
F 2 "TO_SOT_Packages_THT:TO-92_Inline_Narrow_Oval" H 2700 6825 50  0001 C CIN
F 3 "" H 2700 6550 50  0001 C CNN
	1    2700 6600
	1    0    0    -1  
$EndComp
Text GLabel 2400 7100 3    60   Input ~ 0
+5V
$Sheet
S 5600 5900 650  300 
U 5AA1CA8C
F0 "Leviathan sheet 2" 60
F1 "Leviathan sheet 2.sch" 60
$EndSheet
NoConn ~ 3700 4450
NoConn ~ 4050 4450
NoConn ~ 4450 4450
NoConn ~ 4850 4450
Text GLabel 4400 6250 1    60   Input ~ 0
IC1_PWR
$Comp
L Screw_Terminal_01x02 P_J1
U 1 1 5AA35830
P 1500 2650
F 0 "P_J1" H 1500 2750 50  0000 C CNN
F 1 "Screw_Terminal_01x02" H 1500 2450 50  0000 C CNN
F 2 "Connectors_Terminal_Blocks:TerminalBlock_Altech_AK300-2_P5.00mm" H 1500 2650 50  0001 C CNN
F 3 "" H 1500 2650 50  0001 C CNN
	1    1500 2650
	0    1    -1   0   
$EndComp
$Comp
L GND #PWR06
U 1 1 5AA3BB1C
P 9750 3150
F 0 "#PWR06" H 9750 2900 50  0001 C CNN
F 1 "GND" H 9750 3000 50  0000 C CNN
F 2 "" H 9750 3150 50  0001 C CNN
F 3 "" H 9750 3150 50  0001 C CNN
	1    9750 3150
	1    0    0    -1  
$EndComp
Text GLabel 10550 3050 0    60   Input ~ 0
C_IN
Text GLabel 10200 3300 1    60   Input ~ 0
C_OUT
$Comp
L Screw_Terminal_01x03 C_GAIN101
U 1 1 5AA3E4ED
P 5750 2750
F 0 "C_GAIN101" H 5750 2950 50  0000 C CNN
F 1 "Screw_Terminal_01x03" H 5750 2550 50  0000 C CNN
F 2 "Connectors_Terminal_Blocks:TerminalBlock_Altech_AK300-3_P5.00mm" H 5750 2750 50  0001 C CNN
F 3 "" H 5750 2750 50  0001 C CNN
	1    5750 2750
	1    0    0    -1  
$EndComp
$Comp
L Screw_Terminal_01x02 C_BRILL101
U 1 1 5AA3E8EE
P 3100 2050
F 0 "C_BRILL101" H 3100 2150 50  0000 C CNN
F 1 "Screw_Terminal_01x02" H 3100 1850 50  0000 C CNN
F 2 "Connectors_Terminal_Blocks:TerminalBlock_Altech_AK300-2_P5.00mm" H 3100 2050 50  0001 C CNN
F 3 "" H 3100 2050 50  0001 C CNN
	1    3100 2050
	-1   0    0    -1  
$EndComp
$Comp
L Screw_Terminal_01x03 S_VOL101
U 1 1 5AA3EF60
P 8450 4150
F 0 "S_VOL101" H 8450 4350 50  0000 C CNN
F 1 "Screw_Terminal_01x03" H 8450 3950 50  0000 C CNN
F 2 "Connectors_Terminal_Blocks:TerminalBlock_Altech_AK300-3_P5.00mm" H 8450 4150 50  0001 C CNN
F 3 "" H 8450 4150 50  0001 C CNN
	1    8450 4150
	-1   0    0    -1  
$EndComp
$Comp
L Screw_Terminal_01x03 C_FUZZ101
U 1 1 5AA3F4BB
P 9250 2800
F 0 "C_FUZZ101" H 9250 3000 50  0000 C CNN
F 1 "Screw_Terminal_01x03" H 9250 2600 50  0000 C CNN
F 2 "Connectors_Terminal_Blocks:TerminalBlock_Altech_AK300-3_P5.00mm" H 9250 2800 50  0001 C CNN
F 3 "" H 9250 2800 50  0001 C CNN
	1    9250 2800
	1    0    0    -1  
$EndComp
$Comp
L Screw_Terminal_01x02 C_SHAPE101
U 1 1 5AA3FD76
P 7750 1750
F 0 "C_SHAPE101" H 7750 1850 50  0000 C CNN
F 1 "Screw_Terminal_01x02" H 7750 1550 50  0000 C CNN
F 2 "Connectors_Terminal_Blocks:TerminalBlock_Altech_AK300-2_P5.00mm" H 7750 1750 50  0001 C CNN
F 3 "" H 7750 1750 50  0001 C CNN
	1    7750 1750
	1    0    0    -1  
$EndComp
$Comp
L Screw_Terminal_01x03 C_VOL101
U 1 1 5AA40289
P 3100 2800
F 0 "C_VOL101" H 3100 3000 50  0000 C CNN
F 1 "Screw_Terminal_01x03" H 3100 2600 50  0000 C CNN
F 2 "Connectors_Terminal_Blocks:TerminalBlock_Altech_AK300-3_P5.00mm" H 3100 2800 50  0001 C CNN
F 3 "" H 3100 2800 50  0001 C CNN
	1    3100 2800
	-1   0    0    -1  
$EndComp
$Comp
L Screw_Terminal_01x02 S_GAIN101
U 1 1 5AA40C7D
P 6700 4850
F 0 "S_GAIN101" H 6700 4950 50  0000 C CNN
F 1 "Screw_Terminal_01x02" H 6700 4650 50  0000 C CNN
F 2 "Connectors_Terminal_Blocks:TerminalBlock_Altech_AK300-2_P5.00mm" H 6700 4850 50  0001 C CNN
F 3 "" H 6700 4850 50  0001 C CNN
	1    6700 4850
	0    -1   1    0   
$EndComp
$Comp
L Screw_Terminal_01x03 S_IOL101
U 1 1 5AA41C49
P 9700 5600
F 0 "S_IOL101" H 9700 5800 50  0000 C CNN
F 1 "Screw_Terminal_01x03" H 9700 5400 50  0000 C CNN
F 2 "Connectors_Terminal_Blocks:TerminalBlock_Altech_AK300-3_P5.00mm" H 9700 5600 50  0001 C CNN
F 3 "" H 9700 5600 50  0001 C CNN
	1    9700 5600
	1    0    0    1   
$EndComp
$Comp
L GND #PWR07
U 1 1 5AA4288B
P 2600 1600
F 0 "#PWR07" H 2600 1350 50  0001 C CNN
F 1 "GND" H 2600 1450 50  0000 C CNN
F 2 "" H 2600 1600 50  0001 C CNN
F 3 "" H 2600 1600 50  0001 C CNN
	1    2600 1600
	1    0    0    -1  
$EndComp
$Comp
L GND #PWR08
U 1 1 5AA42E03
P 3650 3300
F 0 "#PWR08" H 3650 3050 50  0001 C CNN
F 1 "GND" H 3650 3150 50  0000 C CNN
F 2 "" H 3650 3300 50  0001 C CNN
F 3 "" H 3650 3300 50  0001 C CNN
	1    3650 3300
	1    0    0    -1  
$EndComp
$Comp
L Screw_Terminal_01x03 C_IOL102
U 1 1 5AA43B9A
P 10900 3300
F 0 "C_IOL102" H 10900 3500 50  0000 C CNN
F 1 "Screw_Terminal_01x03" H 10900 3100 50  0000 C CNN
F 2 "Connectors_Terminal_Blocks:TerminalBlock_Altech_AK300-3_P5.00mm" H 10900 3300 50  0001 C CNN
F 3 "" H 10900 3300 50  0001 C CNN
	1    10900 3300
	1    0    0    1   
$EndComp
Text GLabel 10400 3500 3    60   Input ~ 0
C_LED
$Comp
L GND #PWR09
U 1 1 5AA45370
P 8300 5350
F 0 "#PWR09" H 8300 5100 50  0001 C CNN
F 1 "GND" H 8300 5200 50  0000 C CNN
F 2 "" H 8300 5350 50  0001 C CNN
F 3 "" H 8300 5350 50  0001 C CNN
	1    8300 5350
	1    0    0    -1  
$EndComp
Text GLabel 9500 5100 2    60   Input ~ 0
S_OUT
Text GLabel 9150 5600 1    60   Input ~ 0
S_IN
Text GLabel 9250 5700 3    60   Input ~ 0
S_LED
Text GLabel 1950 7000 3    60   Input ~ 0
L_LED
Wire Wire Line
	1950 950  1950 1150
Connection ~ 2350 950 
Connection ~ 2850 950 
Wire Wire Line
	2850 950  2850 1150
Wire Wire Line
	2350 950  2350 1150
Connection ~ 1950 950 
Wire Wire Line
	3650 1550 3650 1650
Connection ~ 4350 1550
Connection ~ 3650 2550
Wire Wire Line
	3650 2150 3650 2700
Wire Wire Line
	4350 1550 4350 1450
Connection ~ 3650 2050
Connection ~ 3650 3050
Wire Wire Line
	3650 2900 3650 3150
Connection ~ 3950 3150
Wire Wire Line
	4350 3150 4350 3100
Wire Wire Line
	3950 3150 3950 3100
Wire Wire Line
	3650 1550 4650 1550
Wire Wire Line
	4950 1550 5150 1550
Wire Wire Line
	5150 1550 5150 1650
Connection ~ 5150 3000
Connection ~ 5150 2450
Connection ~ 5150 2150
Wire Wire Line
	5450 1850 5850 1850
Wire Wire Line
	5850 2150 5850 2450
Wire Wire Line
	5850 2150 5650 2150
Wire Wire Line
	6850 2450 5650 2450
Wire Wire Line
	5350 2150 5150 2150
Wire Wire Line
	5150 2050 5150 2650
Wire Wire Line
	5150 2450 5350 2450
Connection ~ 5850 1850
Connection ~ 5850 2150
Connection ~ 4350 950 
Wire Wire Line
	4350 950  4350 1150
Wire Wire Line
	6250 2050 6250 2150
Connection ~ 6250 1550
Wire Wire Line
	6250 1450 6250 1650
Wire Wire Line
	5850 1850 5850 1550
Connection ~ 6850 1850
Wire Wire Line
	6850 1550 6850 2550
Wire Wire Line
	6550 1850 6950 1850
Connection ~ 5850 2450
Connection ~ 6850 2450
Wire Wire Line
	5850 1550 6450 1550
Wire Wire Line
	6750 1550 6850 1550
Connection ~ 6850 3150
Wire Wire Line
	6850 3150 6850 2850
Wire Wire Line
	7250 1850 7350 1850
Wire Wire Line
	7550 2250 7750 2250
Connection ~ 8250 2250
Connection ~ 8250 3150
Wire Wire Line
	8250 3150 8250 2750
Wire Wire Line
	8250 2150 8250 2450
Wire Wire Line
	8050 2250 8250 2250
Connection ~ 8750 1650
Wire Wire Line
	8250 1650 8850 1650
Wire Wire Line
	8750 1400 8750 1750
Connection ~ 9250 1650
Wire Wire Line
	9150 1650 9250 1650
Wire Wire Line
	9250 1400 9250 2200
Connection ~ 8750 950 
Wire Wire Line
	1950 950  9250 950 
Wire Wire Line
	8750 950  8750 1100
Wire Wire Line
	9250 950  9250 1100
Connection ~ 6250 950 
Wire Wire Line
	6250 1150 6250 950 
Connection ~ 9250 1950
Wire Wire Line
	9050 1950 9350 1950
Connection ~ 8250 1650
Wire Wire Line
	8050 1550 8250 1550
Wire Wire Line
	8250 1550 8250 1850
Connection ~ 8750 3100
Connection ~ 8750 3150
Wire Wire Line
	8750 2550 8750 2700
Connection ~ 8750 2200
Wire Wire Line
	8750 2150 8750 2250
Wire Wire Line
	8850 2200 8750 2200
Wire Wire Line
	9250 2200 9150 2200
Connection ~ 9750 3150
Wire Wire Line
	9750 3150 9750 2450
Connection ~ 9750 1950
Wire Wire Line
	9750 2150 9750 1950
Wire Wire Line
	9650 1950 9850 1950
Wire Wire Line
	10150 1950 10550 1950
Wire Wire Line
	2050 3850 2050 4050
Connection ~ 2050 3850
Wire Wire Line
	2050 4350 2050 5700
Connection ~ 700  950 
Connection ~ 700  3850
Wire Wire Line
	1100 950  1650 950 
Wire Wire Line
	1100 3850 1750 3850
Wire Wire Line
	700  750  700  6300
Wire Wire Line
	700  3850 800  3850
Wire Wire Line
	800  950  700  950 
Connection ~ 2500 5350
Connection ~ 2900 5350
Connection ~ 2500 3850
Connection ~ 2900 3850
Wire Wire Line
	2450 3850 4500 3850
Wire Wire Line
	2150 3850 2050 3850
Wire Wire Line
	2500 3850 2500 4050
Wire Wire Line
	2900 3850 2900 4050
Wire Wire Line
	2500 5350 4850 5350
Wire Wire Line
	5200 5350 8650 5350
Wire Wire Line
	2500 4350 2500 5450
Wire Wire Line
	2900 5350 2900 4350
Connection ~ 4450 5350
Connection ~ 4050 5350
Connection ~ 3700 5350
Connection ~ 5200 3650
Connection ~ 6800 3650
Connection ~ 7100 3650
Connection ~ 5900 3650
Wire Wire Line
	5100 3650 5300 3650
Wire Wire Line
	5200 3650 5200 3750
Wire Wire Line
	5200 5350 5200 4050
Connection ~ 5900 4150
Connection ~ 6800 4150
Wire Wire Line
	6800 3650 6800 4650
Wire Wire Line
	6800 4150 6500 4150
Wire Wire Line
	6200 4150 5900 4150
Wire Wire Line
	5900 3650 5900 4450
Wire Wire Line
	5900 4450 6200 4450
Wire Wire Line
	6500 4450 6700 4450
Connection ~ 7100 4150
Connection ~ 8000 4150
Wire Wire Line
	8000 3650 8000 4450
Wire Wire Line
	8000 4150 7700 4150
Wire Wire Line
	7400 4150 7100 4150
Wire Wire Line
	7100 3650 7100 4450
Wire Wire Line
	7100 4450 7400 4450
Wire Wire Line
	8000 4450 7700 4450
Connection ~ 8000 3650
Connection ~ 8300 5350
Connection ~ 8600 5350
Connection ~ 9250 4150
Wire Wire Line
	8650 4150 9500 4150
Wire Wire Line
	9250 4150 9250 4450
Wire Wire Line
	1950 6300 1950 6500
Connection ~ 1950 6300
Wire Wire Line
	1950 7000 1950 6800
Connection ~ 3500 6300
Connection ~ 3900 6300
Wire Wire Line
	1950 6300 4500 6300
Wire Wire Line
	3900 6300 3900 6500
Connection ~ 4400 6300
Connection ~ 4900 6300
Wire Wire Line
	4800 6300 5200 6300
Wire Wire Line
	4900 6300 4900 6450
Connection ~ 5200 6300
Wire Wire Line
	5200 6150 5200 6450
Connection ~ 3500 7000
Connection ~ 3900 7000
Connection ~ 4900 7000
Connection ~ 5200 7000
Wire Wire Line
	5200 7000 5200 6750
Wire Wire Line
	4900 7000 4900 6750
Wire Wire Line
	3900 7000 3900 6800
Wire Wire Line
	3500 6900 3500 7200
Wire Wire Line
	2700 7000 5200 7000
Wire Wire Line
	2700 6900 2700 7000
Connection ~ 3500 6600
Wire Wire Line
	3500 6300 3500 6600
Wire Wire Line
	3500 6600 3000 6600
Wire Wire Line
	2400 6600 2400 7100
Wire Wire Line
	3300 2800 4550 2800
Connection ~ 4350 2800
Connection ~ 3950 2800
Wire Wire Line
	700  6300 800  6300
Wire Wire Line
	1100 6300 1650 6300
Wire Wire Line
	4500 3850 4500 3400
Wire Wire Line
	4400 6300 4400 6150
Wire Wire Line
	4500 3400 6300 3400
Wire Wire Line
	6300 3400 6300 3550
Connection ~ 3450 3850
Wire Wire Line
	3450 3850 3450 4950
Wire Wire Line
	3450 4950 3600 4950
Wire Wire Line
	4150 4950 4250 4950
Wire Wire Line
	4250 4950 4250 5350
Connection ~ 4250 5350
Wire Wire Line
	4350 4950 4300 4950
Wire Wire Line
	4300 4950 4300 3850
Connection ~ 4300 3850
Connection ~ 700  3150
Wire Wire Line
	1400 3150 700  3150
Wire Wire Line
	3650 3150 4350 3150
Wire Wire Line
	5150 3150 9750 3150
Wire Wire Line
	10550 1950 10550 3200
Wire Wire Line
	4550 2800 4550 3300
Wire Wire Line
	4550 3300 9600 3300
Wire Wire Line
	9600 3300 9600 3400
Wire Wire Line
	9600 3400 10200 3400
Wire Wire Line
	10200 3400 10200 3300
Wire Wire Line
	10200 3300 10700 3300
Wire Wire Line
	2600 1450 2600 1600
Wire Wire Line
	1950 1450 1950 3100
Wire Wire Line
	1950 3100 2550 3100
Wire Wire Line
	2550 3100 2550 3650
Wire Wire Line
	2550 3650 4400 3650
Wire Wire Line
	4400 3650 4400 3350
Wire Wire Line
	4400 3350 9500 3350
Wire Wire Line
	9500 3350 9500 3500
Wire Wire Line
	9500 3500 10400 3500
Wire Wire Line
	10400 3500 10700 3400
Wire Wire Line
	10550 3200 10700 3200
Wire Wire Line
	9500 4150 9500 5500
Wire Wire Line
	5100 3650 5100 5600
Wire Wire Line
	5100 5600 9500 5600
Wire Wire Line
	2050 5700 9500 5700
Wire Wire Line
	3650 2050 3300 2050
Wire Wire Line
	3650 2050 3650 1950
Wire Wire Line
	3300 2150 3650 2150
Wire Wire Line
	3650 2700 3300 2700
Wire Wire Line
	2600 2900 2600 3050
Wire Wire Line
	2600 3050 3650 3050
Wire Wire Line
	3650 2900 3300 2900
Wire Wire Line
	2600 2600 2600 2550
Wire Wire Line
	2600 2550 3650 2550
Wire Wire Line
	4850 2700 5550 2700
Wire Wire Line
	5550 2700 5550 2750
Wire Wire Line
	5150 2850 5150 3150
Wire Wire Line
	5150 2850 5550 2850
Wire Wire Line
	5150 2650 5550 2650
Wire Wire Line
	5150 3000 4850 3000
Wire Wire Line
	7350 1850 7350 1750
Wire Wire Line
	7350 1750 7550 1750
Wire Wire Line
	7750 1550 7550 1550
Wire Wire Line
	7550 1550 7550 1750
Wire Wire Line
	7550 2250 7550 1850
Wire Wire Line
	8750 2900 8750 3150
Wire Wire Line
	8750 3100 8400 3100
Wire Wire Line
	8750 2900 9050 2900
Wire Wire Line
	8400 2800 9050 2800
Wire Wire Line
	8750 2700 9050 2700
Wire Wire Line
	8600 5350 8600 5250
Wire Wire Line
	8600 5250 9250 5250
Wire Wire Line
	9250 5250 9250 4750
Wire Wire Line
	8650 5350 8650 4250
Wire Wire Line
	8600 5350 8300 5350
Wire Wire Line
	8650 4050 8650 3650
Wire Wire Line
	8650 3650 8300 3650
Wire Wire Line
	6700 4450 6700 4650
Wire Wire Line
	1400 3150 1400 2850
Wire Wire Line
	1500 3150 1500 2850
Wire Wire Line
	3650 3050 3650 3300
Wire Wire Line
	2350 1450 2850 1450
Connection ~ 2600 1450
$Comp
L Conn_01x03_Female J?
U 1 1 5AA54A02
P 4450 7450
F 0 "J?" H 4450 7650 50  0000 C CNN
F 1 "Conn_01x03_Female" H 4450 7250 50  0000 C CNN
F 2 "" H 4450 7450 50  0001 C CNN
F 3 "" H 4450 7450 50  0001 C CNN
	1    4450 7450
	1    0    0    -1  
$EndComp
$EndSCHEMATC
